<svg width="32" height="32" viewBox="0 0 32 32" fill="none" xmlns="http://www.w3.org/2000/svg">
<rect width="32" height="32" rx="16" fill="#1A1C1F"/>
<path d="M21.8332 13.9167H21.5665L20.5248 11.3167C20.3388 10.8544 20.0189 10.4582 19.6061 10.1791C19.1933 9.89995 18.7065 9.75052 18.2082 9.75001H13.2082C12.6292 9.74835 12.0677 9.94767 11.6194 10.3139C11.171 10.6802 10.8637 11.1907 10.7498 11.7583L10.3165 13.9167H10.1665C9.50346 13.9167 8.86758 14.1801 8.39874 14.6489C7.9299 15.1178 7.6665 15.7536 7.6665 16.4167V18.9167C7.6665 19.1377 7.7543 19.3497 7.91058 19.5059C8.06686 19.6622 8.27882 19.75 8.49984 19.75H9.33317C9.33317 20.4131 9.59656 21.0489 10.0654 21.5178C10.5342 21.9866 11.1701 22.25 11.8332 22.25C12.4962 22.25 13.1321 21.9866 13.6009 21.5178C14.0698 21.0489 14.3332 20.4131 14.3332 19.75H17.6665C17.6665 20.4131 17.9299 21.0489 18.3987 21.5178C18.8676 21.9866 19.5035 22.25 20.1665 22.25C20.8295 22.25 21.4654 21.9866 21.9343 21.5178C22.4031 21.0489 22.6665 20.4131 22.6665 19.75H23.4998C23.7209 19.75 23.9328 19.6622 24.0891 19.5059C24.2454 19.3497 24.3332 19.1377 24.3332 18.9167V16.4167C24.3332 15.7536 24.0698 15.1178 23.6009 14.6489C23.1321 14.1801 22.4962 13.9167 21.8332 13.9167ZM16.8332 11.4167H18.2082C18.3736 11.4182 18.5349 11.4689 18.6715 11.5624C18.808 11.6559 18.9136 11.7879 18.9748 11.9417L19.7665 13.9167H16.8332V11.4167ZM12.3832 12.0833C12.4221 11.8923 12.5269 11.7209 12.6791 11.5991C12.8314 11.4773 13.0215 11.4127 13.2165 11.4167H15.1665V13.9167H12.0165L12.3832 12.0833ZM11.8332 20.5833C11.6684 20.5833 11.5072 20.5345 11.3702 20.4429C11.2332 20.3513 11.1263 20.2212 11.0633 20.0689C11.0002 19.9166 10.9837 19.7491 11.0158 19.5874C11.048 19.4258 11.1274 19.2773 11.2439 19.1608C11.3605 19.0442 11.5089 18.9648 11.6706 18.9327C11.8322 18.9005 11.9998 18.917 12.1521 18.9801C12.3043 19.0432 12.4345 19.15 12.5261 19.287C12.6176 19.4241 12.6665 19.5852 12.6665 19.75C12.6665 19.971 12.5787 20.183 12.4224 20.3393C12.2661 20.4955 12.0542 20.5833 11.8332 20.5833ZM20.1665 20.5833C20.0017 20.5833 19.8406 20.5345 19.7035 20.4429C19.5665 20.3513 19.4597 20.2212 19.3966 20.0689C19.3335 19.9166 19.317 19.7491 19.3492 19.5874C19.3813 19.4258 19.4607 19.2773 19.5772 19.1608C19.6938 19.0442 19.8423 18.9648 20.0039 18.9327C20.1656 18.9005 20.3331 18.917 20.4854 18.9801C20.6377 19.0432 20.7678 19.15 20.8594 19.287C20.951 19.4241 20.9998 19.5852 20.9998 19.75C20.9998 19.971 20.912 20.183 20.7558 20.3393C20.5995 20.4955 20.3875 20.5833 20.1665 20.5833ZM22.6665 18.0833H22.0165C21.7822 17.8255 21.4966 17.6196 21.178 17.4786C20.8594 17.3377 20.5149 17.2649 20.1665 17.2649C19.8181 17.2649 19.4736 17.3377 19.155 17.4786C18.8364 17.6196 18.5508 17.8255 18.3165 18.0833H13.6832C13.4489 17.8255 13.1632 17.6196 12.8447 17.4786C12.5261 17.3377 12.1815 17.2649 11.8332 17.2649C11.4848 17.2649 11.1403 17.3377 10.8217 17.4786C10.5031 17.6196 10.2175 17.8255 9.98317 18.0833H9.33317V16.4167C9.33317 16.1957 9.42097 15.9837 9.57725 15.8274C9.73353 15.6711 9.94549 15.5833 10.1665 15.5833H21.8332C22.0542 15.5833 22.2661 15.6711 22.4224 15.8274C22.5787 15.9837 22.6665 16.1957 22.6665 16.4167V18.0833Z" fill="white"/>
</svg>
