<svg width="6" height="10" viewBox="0 0 6 10" fill="none" xmlns="http://www.w3.org/2000/svg">
<path d="M0.666797 5.5332L4.4668 9.26654C4.73346 9.5332 5.13346 9.5332 5.40013 9.26654C5.6668 8.99987 5.6668 8.59987 5.40013 8.3332L2.13346 4.99987L5.40013 1.66654C5.6668 1.39987 5.6668 0.99987 5.40013 0.733203C5.2668 0.59987 5.13346 0.533203 4.93346 0.533203C4.73346 0.533203 4.60013 0.59987 4.4668 0.733203L0.666797 4.46654C0.40013 4.79987 0.40013 5.19987 0.666797 5.5332C0.666797 5.46654 0.666797 5.46654 0.666797 5.5332Z" fill="#EE7500"/>
</svg>
