<svg width="43" height="42" viewBox="0 0 43 42" fill="none" xmlns="http://www.w3.org/2000/svg">
<g clip-path="url(#clip0_2170_82952)">
<path d="M0.5 21C0.5 9.40202 9.90202 0 21.5 0C33.098 0 42.5 9.40202 42.5 21C42.5 32.598 33.098 42 21.5 42C9.90202 42 0.5 32.598 0.5 21Z" fill="#FDF1E6"/>
<path d="M20.0082 23.2915C20.0856 23.3696 20.1778 23.4316 20.2794 23.4739C20.3809 23.5162 20.4898 23.538 20.5998 23.538C20.7098 23.538 20.8188 23.5162 20.9203 23.4739C21.0219 23.4316 21.114 23.3696 21.1915 23.2915L24.5915 19.8915C24.7484 19.7346 24.8366 19.5218 24.8366 19.2998C24.8366 19.0779 24.7484 18.8651 24.5915 18.7082C24.4346 18.5513 24.2218 18.4631 23.9998 18.4631C23.7779 18.4631 23.5651 18.5513 23.4082 18.7082L20.5998 21.5248L19.5915 20.5082C19.4346 20.3513 19.2218 20.2631 18.9998 20.2631C18.7779 20.2631 18.5651 20.3513 18.4082 20.5082C18.2513 20.6651 18.1631 20.8779 18.1631 21.0998C18.1631 21.3218 18.2513 21.5346 18.4082 21.6915L20.0082 23.2915ZM28.9998 12.6665H13.9998C13.7788 12.6665 13.5669 12.7543 13.4106 12.9106C13.2543 13.0669 13.1665 13.2788 13.1665 13.4998V28.4998C13.1665 28.7209 13.2543 28.9328 13.4106 29.0891C13.5669 29.2454 13.7788 29.3332 13.9998 29.3332H28.9998C29.2209 29.3332 29.4328 29.2454 29.5891 29.0891C29.7454 28.9328 29.8332 28.7209 29.8332 28.4998V13.4998C29.8332 13.2788 29.7454 13.0669 29.5891 12.9106C29.4328 12.7543 29.2209 12.6665 28.9998 12.6665ZM28.1665 27.6665H14.8332V14.3332H28.1665V27.6665Z" fill="#EE7500"/>
</g>
<defs>
<clipPath id="clip0_2170_82952">
<path d="M0.5 21C0.5 9.40202 9.90202 0 21.5 0C33.098 0 42.5 9.40202 42.5 21C42.5 32.598 33.098 42 21.5 42C9.90202 42 0.5 32.598 0.5 21Z" fill="white"/>
</clipPath>
</defs>
</svg>
