<svg width="43" height="42" viewBox="0 0 43 42" fill="none" xmlns="http://www.w3.org/2000/svg">
<g clip-path="url(#clip0_2170_82192)">
<path d="M0.5 21C0.5 9.40202 9.90202 0 21.5 0C33.098 0 42.5 9.40202 42.5 21C42.5 32.598 33.098 42 21.5 42C9.90202 42 0.5 32.598 0.5 21Z" fill="#FDF1E6"/>
<path d="M26.5 21.9832V19.3332C26.4988 18.1524 26.0798 17.0102 25.3172 16.1088C24.5546 15.2074 23.4976 14.605 22.3334 14.4082V13.4998C22.3334 13.2788 22.2456 13.0669 22.0893 12.9106C21.933 12.7543 21.7211 12.6665 21.5 12.6665C21.279 12.6665 21.0671 12.7543 20.9108 12.9106C20.7545 13.0669 20.6667 13.2788 20.6667 13.4998V14.4082C19.5025 14.605 18.4455 15.2074 17.6829 16.1088C16.9202 17.0102 16.5012 18.1524 16.5 19.3332V21.9832C16.0137 22.1551 15.5925 22.4732 15.2942 22.8939C14.9958 23.3147 14.8348 23.8174 14.8334 24.3332V25.9998C14.8334 26.2209 14.9212 26.4328 15.0775 26.5891C15.2337 26.7454 15.4457 26.8332 15.6667 26.8332H18.2834C18.4753 27.5393 18.8942 28.1627 19.4755 28.6071C20.0569 29.0515 20.7683 29.2923 21.5 29.2923C22.2318 29.2923 22.9432 29.0515 23.5245 28.6071C24.1059 28.1627 24.5248 27.5393 24.7167 26.8332H27.3334C27.5544 26.8332 27.7663 26.7454 27.9226 26.5891C28.0789 26.4328 28.1667 26.2209 28.1667 25.9998V24.3332C28.1653 23.8174 28.0043 23.3147 27.7059 22.8939C27.4075 22.4732 26.9863 22.1551 26.5 21.9832ZM18.1667 19.3332C18.1667 18.4491 18.5179 17.6013 19.143 16.9761C19.7681 16.351 20.616 15.9998 21.5 15.9998C22.3841 15.9998 23.2319 16.351 23.8571 16.9761C24.4822 17.6013 24.8334 18.4491 24.8334 19.3332V21.8332H18.1667V19.3332ZM21.5 27.6665C21.2092 27.6647 20.9239 27.5869 20.6724 27.4407C20.4209 27.2945 20.2121 27.0851 20.0667 26.8332H22.9334C22.7879 27.0851 22.5791 27.2945 22.3277 27.4407C22.0762 27.5869 21.7909 27.6647 21.5 27.6665ZM26.5 25.1665H16.5V24.3332C16.5 24.1122 16.5878 23.9002 16.7441 23.7439C16.9004 23.5876 17.1124 23.4998 17.3334 23.4998H25.6667C25.8877 23.4998 26.0997 23.5876 26.256 23.7439C26.4122 23.9002 26.5 24.1122 26.5 24.3332V25.1665Z" fill="#EE7500"/>
</g>
<defs>
<clipPath id="clip0_2170_82192">
<path d="M0.5 21C0.5 9.40202 9.90202 0 21.5 0C33.098 0 42.5 9.40202 42.5 21C42.5 32.598 33.098 42 21.5 42C9.90202 42 0.5 32.598 0.5 21Z" fill="white"/>
</clipPath>
</defs>
</svg>
