<svg width="25" height="25" viewBox="0 0 25 25" fill="none" xmlns="http://www.w3.org/2000/svg">
<g clip-path="url(#clip0_1929_46185)">
<circle cx="12.5996" cy="12.5" r="12" fill="#FDF1E6"/>
<path d="M17.6319 8.9074C17.5622 8.8371 17.4793 8.7813 17.3879 8.74323C17.2965 8.70515 17.1985 8.68555 17.0995 8.68555C17.0004 8.68555 16.9024 8.70515 16.811 8.74323C16.7196 8.7813 16.6367 8.8371 16.567 8.9074L10.9795 14.5024L8.63195 12.1474C8.55956 12.0775 8.4741 12.0225 8.38046 11.9856C8.28682 11.9487 8.18683 11.9306 8.08619 11.9323C7.98556 11.9341 7.88625 11.9556 7.79394 11.9957C7.70163 12.0358 7.61813 12.0938 7.5482 12.1661C7.47827 12.2385 7.42329 12.324 7.38638 12.4176C7.34948 12.5113 7.33138 12.6113 7.33312 12.7119C7.33486 12.8125 7.35641 12.9118 7.39653 13.0042C7.43665 13.0965 7.49456 13.18 7.56695 13.2499L10.447 16.1299C10.5167 16.2002 10.5996 16.256 10.691 16.2941C10.7824 16.3321 10.8804 16.3517 10.9795 16.3517C11.0785 16.3517 11.1765 16.3321 11.2679 16.2941C11.3593 16.256 11.4422 16.2002 11.512 16.1299L17.6319 10.0099C17.7081 9.93966 17.7688 9.85443 17.8104 9.75955C17.8519 9.66468 17.8734 9.56222 17.8734 9.45865C17.8734 9.35507 17.8519 9.25262 17.8104 9.15774C17.7688 9.06287 17.7081 8.97763 17.6319 8.9074Z" fill="#F47B20"/>
</g>
<defs>
<clipPath id="clip0_1929_46185">
<rect width="24" height="24" fill="white" transform="translate(0.599609 0.5)"/>
</clipPath>
</defs>
</svg>
