<svg width="20" height="20" viewBox="0 0 20 20" fill="none" xmlns="http://www.w3.org/2000/svg">
<path d="M10.0011 1.66675C8.38483 1.66982 6.80433 2.14284 5.45212 3.0282C4.09991 3.91355 3.03435 5.17303 2.38522 6.65322C1.73609 8.13341 1.53141 9.77043 1.79612 11.3649C2.06083 12.9593 2.7835 14.4424 3.8761 15.6334V15.6334C4.65645 16.4793 5.60355 17.1544 6.65771 17.6161C7.71188 18.0778 8.85025 18.3162 10.0011 18.3162C11.1519 18.3162 12.2903 18.0778 13.3445 17.6161C14.3986 17.1544 15.3457 16.4793 16.1261 15.6334V15.6334C17.2187 14.4424 17.9414 12.9593 18.2061 11.3649C18.4708 9.77043 18.2661 8.13341 17.617 6.65322C16.9679 5.17303 15.9023 3.91355 14.5501 3.0282C13.1979 2.14284 11.6174 1.66982 10.0011 1.66675V1.66675ZM10.0011 16.6667C8.27482 16.6641 6.61686 15.992 5.3761 14.7917C5.7528 13.8747 6.39363 13.0903 7.21714 12.5383C8.04066 11.9863 9.00969 11.6916 10.0011 11.6916C10.9925 11.6916 11.9615 11.9863 12.7851 12.5383C13.6086 13.0903 14.2494 13.8747 14.6261 14.7917C13.3853 15.992 11.7274 16.6641 10.0011 16.6667ZM8.33443 8.33342C8.33443 8.00378 8.43218 7.68155 8.61532 7.40746C8.79845 7.13338 9.05875 6.91976 9.36329 6.79362C9.66784 6.66747 10.0029 6.63446 10.3262 6.69877C10.6496 6.76308 10.9465 6.92182 11.1796 7.1549C11.4127 7.38799 11.5714 7.68496 11.6357 8.00826C11.7 8.33157 11.667 8.66668 11.5409 8.97122C11.4148 9.27576 11.2011 9.53606 10.927 9.7192C10.653 9.90233 10.3307 10.0001 10.0011 10.0001C9.55907 10.0001 9.13515 9.82449 8.82259 9.51193C8.51003 9.19937 8.33443 8.77544 8.33443 8.33342ZM15.7594 13.3334C15.0149 12.0599 13.8689 11.0693 12.5011 10.5167C12.9254 10.0356 13.2019 9.4423 13.2973 8.80795C13.3928 8.1736 13.3032 7.52518 13.0392 6.9405C12.7753 6.35582 12.3483 5.85971 11.8094 5.51172C11.2705 5.16373 10.6426 4.97862 10.0011 4.97862C9.35961 4.97862 8.73174 5.16373 8.19284 5.51172C7.65394 5.85971 7.22691 6.35582 6.96297 6.9405C6.69904 7.52518 6.60942 8.1736 6.70487 8.80795C6.80033 9.4423 7.07679 10.0356 7.5011 10.5167C6.13326 11.0693 4.98732 12.0599 4.24277 13.3334C3.64939 12.3227 3.33587 11.1721 3.33443 10.0001C3.33443 8.23197 4.03681 6.53628 5.28705 5.28604C6.5373 4.03579 8.23299 3.33341 10.0011 3.33341C11.7692 3.33341 13.4649 4.03579 14.7151 5.28604C15.9654 6.53628 16.6678 8.23197 16.6678 10.0001C16.6663 11.1721 16.3528 12.3227 15.7594 13.3334V13.3334Z" fill="#679AB4"/>
</svg>
