<svg width="28" height="29" viewBox="0 0 28 29" fill="none" xmlns="http://www.w3.org/2000/svg">
<g filter="url(#filter0_d_2441_3925)">
<g clip-path="url(#clip0_2441_3925)">
<circle cx="14" cy="13.5" r="12" fill="#F47B20"/>
<path d="M11.9036 11.7635C11.9586 11.3822 12.0649 11.0485 12.2226 10.7625C12.3802 10.4728 12.5764 10.2327 12.8111 10.042C13.0494 9.84767 13.3207 9.70283 13.6251 9.6075C13.9331 9.5085 14.2631 9.459 14.6151 9.459C14.9817 9.459 15.3117 9.51217 15.6051 9.6185C15.9021 9.72117 16.1551 9.866 16.3641 10.053C16.5731 10.2363 16.7326 10.4527 16.8426 10.702C16.9562 10.9513 17.0131 11.2208 17.0131 11.5105C17.0131 11.7635 16.9837 11.9872 16.9251 12.1815C16.8701 12.3722 16.7894 12.539 16.6831 12.682C16.5767 12.825 16.4447 12.946 16.2871 13.045C16.1294 13.144 15.9516 13.2265 15.7536 13.2925C16.2302 13.4428 16.5859 13.672 16.8206 13.98C17.0552 14.288 17.1726 14.6748 17.1726 15.1405C17.1726 15.5365 17.0992 15.8867 16.9526 16.191C16.8059 16.4953 16.6079 16.752 16.3586 16.961C16.1092 17.1663 15.8196 17.3222 15.4896 17.4285C15.1632 17.5348 14.8167 17.588 14.4501 17.588C14.0504 17.588 13.7021 17.5422 13.4051 17.4505C13.1081 17.3588 12.8496 17.2232 12.6296 17.0435C12.4096 16.8638 12.2226 16.6438 12.0686 16.3835C11.9146 16.1232 11.7826 15.8225 11.6726 15.4815L12.2721 15.234C12.4297 15.168 12.5764 15.1515 12.7121 15.1845C12.8514 15.2138 12.9522 15.2872 13.0146 15.4045C13.0806 15.5328 13.1521 15.6593 13.2291 15.784C13.3097 15.9087 13.4051 16.0205 13.5151 16.1195C13.6251 16.2148 13.7534 16.2937 13.9001 16.356C14.0504 16.4147 14.2282 16.444 14.4336 16.444C14.6646 16.444 14.8662 16.4073 15.0386 16.334C15.2109 16.257 15.3539 16.158 15.4676 16.037C15.5849 15.916 15.6711 15.7822 15.7261 15.6355C15.7847 15.4852 15.8141 15.3348 15.8141 15.1845C15.8141 14.9938 15.7939 14.8215 15.7536 14.6675C15.7132 14.5098 15.6289 14.376 15.5006 14.266C15.3722 14.156 15.1871 14.0698 14.9451 14.0075C14.7067 13.9452 14.3859 13.914 13.9826 13.914V12.946C14.3162 12.9423 14.5931 12.9112 14.8131 12.8525C15.0331 12.7938 15.2072 12.7132 15.3356 12.6105C15.4676 12.5042 15.5592 12.3777 15.6106 12.231C15.6619 12.0843 15.6876 11.923 15.6876 11.747C15.6876 11.373 15.5831 11.0888 15.3741 10.8945C15.1651 10.7002 14.8864 10.603 14.5381 10.603C14.3767 10.603 14.2282 10.6268 14.0926 10.6745C13.9569 10.7185 13.8341 10.7827 13.7241 10.867C13.6177 10.9477 13.5279 11.043 13.4546 11.153C13.3812 11.263 13.3262 11.384 13.2896 11.516C13.2272 11.6847 13.1447 11.7965 13.0421 11.8515C12.9431 11.9065 12.8019 11.9193 12.6186 11.89L11.9036 11.7635Z" fill="white"/>
</g>
</g>
<defs>
<filter id="filter0_d_2441_3925" x="0" y="0.5" width="28" height="28" filterUnits="userSpaceOnUse" color-interpolation-filters="sRGB">
<feFlood flood-opacity="0" result="BackgroundImageFix"/>
<feColorMatrix in="SourceAlpha" type="matrix" values="0 0 0 0 0 0 0 0 0 0 0 0 0 0 0 0 0 0 127 0" result="hardAlpha"/>
<feOffset dy="1"/>
<feGaussianBlur stdDeviation="1"/>
<feColorMatrix type="matrix" values="0 0 0 0 0.0352941 0 0 0 0 0.117647 0 0 0 0 0.258824 0 0 0 0.1 0"/>
<feBlend mode="normal" in2="BackgroundImageFix" result="effect1_dropShadow_2441_3925"/>
<feBlend mode="normal" in="SourceGraphic" in2="effect1_dropShadow_2441_3925" result="shape"/>
</filter>
<clipPath id="clip0_2441_3925">
<rect width="24" height="24" fill="white" transform="translate(2 1.5)"/>
</clipPath>
</defs>
</svg>
