<svg width="296" height="156" viewBox="0 0 296 156" fill="none" xmlns="http://www.w3.org/2000/svg">
<g clip-path="url(#clip0_8179_31409)">
<path d="M235.533 139.208C235.496 139.125 235.443 139.049 235.377 138.987C235.311 138.924 235.233 138.875 235.148 138.842C235.063 138.809 234.972 138.793 234.881 138.796C234.79 138.798 234.7 138.818 234.617 138.855C234.534 138.892 234.458 138.945 234.396 139.011C234.333 139.077 234.284 139.155 234.251 139.24C234.218 139.325 234.203 139.416 234.205 139.507C234.207 139.598 234.227 139.688 234.264 139.771C234.398 140.029 234.555 140.273 234.734 140.502C235.022 140.89 235.264 141.311 235.454 141.755C235.477 141.805 235.508 141.851 235.548 141.888C235.587 141.926 235.634 141.955 235.685 141.975C235.736 141.995 235.791 142.004 235.845 142.003C235.9 142.002 235.954 141.989 236.004 141.967C236.054 141.945 236.099 141.913 236.137 141.874C236.174 141.834 236.204 141.787 236.223 141.736C236.243 141.685 236.253 141.631 236.251 141.576C236.25 141.522 236.238 141.468 236.216 141.418C236.012 140.98 235.861 140.519 235.766 140.045C235.713 139.76 235.635 139.48 235.533 139.208Z" fill="#F2F3F5"/>
<path d="M236.299 143.133C236.58 143.133 236.807 142.906 236.807 142.626C236.807 142.345 236.58 142.118 236.299 142.118C236.019 142.118 235.792 142.345 235.792 142.626C235.792 142.906 236.019 143.133 236.299 143.133Z" fill="#F2F3F5"/>
<path d="M233.929 137.317C233.207 137.639 232.596 138.169 232.174 138.838C231.751 139.507 231.537 140.287 231.558 141.078C231.579 141.868 231.834 142.636 232.29 143.282C232.747 143.928 233.385 144.424 234.124 144.708C234.862 144.992 235.668 145.05 236.44 144.876C237.212 144.701 237.915 144.302 238.46 143.728C239.004 143.154 239.367 142.432 239.501 141.652C239.636 140.873 239.536 140.07 239.215 139.347C239.001 138.867 238.695 138.433 238.314 138.071C237.933 137.709 237.484 137.425 236.993 137.237C236.502 137.048 235.979 136.959 235.453 136.972C234.927 136.986 234.41 137.103 233.929 137.317ZM236.898 143.968C236.306 144.233 235.648 144.316 235.008 144.207C234.369 144.098 233.776 143.802 233.304 143.355C232.833 142.909 232.505 142.334 232.361 141.701C232.217 141.068 232.263 140.407 232.495 139.801C232.727 139.195 233.133 138.671 233.662 138.296C234.192 137.921 234.821 137.711 235.469 137.693C236.118 137.675 236.757 137.85 237.307 138.195C237.856 138.541 238.29 139.042 238.555 139.634C238.731 140.027 238.828 140.452 238.84 140.882C238.852 141.313 238.779 141.742 238.625 142.145C238.471 142.547 238.24 142.915 237.943 143.228C237.647 143.541 237.292 143.792 236.898 143.968Z" fill="#F2F3F5"/>
<path d="M218.951 136.424C218.896 136.491 218.849 136.564 218.811 136.642C218.732 136.805 218.693 136.984 218.697 137.164C218.701 137.345 218.748 137.522 218.834 137.68C218.146 138.597 217.412 139.478 216.634 140.319L218.131 141.159L219.562 139.444C219.774 139.174 220.079 138.993 220.418 138.936C220.034 139.444 219.499 140.164 218.624 141.441L220.359 142.413L221.932 139.162C222.048 139.213 222.16 139.272 222.267 139.34L220.712 142.603L222.506 143.618C222.973 142.065 223.211 141.154 223.374 140.515C223.538 140.844 223.584 141.219 223.506 141.578L223.036 143.91L224.688 144.836C224.867 143.602 225.107 142.379 225.409 141.169C225.596 141.151 225.776 141.084 225.93 140.976C226.083 140.867 226.207 140.721 226.287 140.55C226.324 140.469 226.353 140.384 226.373 140.296C229.014 141.788 231.174 140.169 232.534 136.744C234.422 132.007 231.488 127.579 228.332 126.28C225.315 125.039 220.496 125.965 218.248 129.989C216.642 132.869 216.599 135.305 218.951 136.424ZM225.673 135.072C225.673 133.473 225.53 132.806 226.02 132.572C227.231 131.994 229.776 134.831 228.664 136.975C227.553 139.119 225.655 138.051 225.673 135.072ZM223.612 135.204C223.68 135.167 223.756 135.147 223.833 135.146C223.91 135.145 223.986 135.162 224.056 135.196C224.125 135.23 224.185 135.281 224.23 135.343C224.276 135.405 224.306 135.478 224.318 135.554C224.437 136.155 224.523 136.995 224.122 137.054C223.493 137.145 223.668 136.66 223.409 136.531C223.15 136.401 222.886 136.838 222.579 136.277C222.387 135.919 223.079 135.48 223.612 135.204ZM220.08 132.788C221.001 130.723 224.566 130.778 224.868 132.027C224.993 132.534 224.381 132.849 223.163 133.846C220.95 135.668 219.154 134.892 220.08 132.788Z" fill="#F2F3F5"/>
<path d="M150.646 55.0518C152.622 55.0518 154.224 53.4499 154.224 51.474C154.224 49.4981 152.622 47.8962 150.646 47.8962C148.67 47.8962 147.068 49.4981 147.068 51.474C147.068 53.4499 148.67 55.0518 150.646 55.0518Z" fill="#F2F3F5"/>
<path d="M85.1452 41.2202C83.888 41.8017 82.9132 42.8585 82.435 44.1584C81.9568 45.4583 82.0144 46.895 82.5951 48.1525L84.6707 52.6335L86.1931 51.9256L84.1277 47.4496C83.9327 47.0282 83.8227 46.5726 83.8038 46.1087C83.785 45.6449 83.8577 45.1818 84.0178 44.746C84.1779 44.3102 84.4223 43.9103 84.737 43.5689C85.0516 43.2276 85.4305 42.9516 85.8518 42.7566C86.2732 42.5617 86.7288 42.4517 87.1927 42.4328C87.6566 42.414 88.1196 42.4867 88.5554 42.6468C88.9912 42.8069 89.3912 43.0513 89.7325 43.3659C90.0738 43.6806 90.3499 44.0595 90.5448 44.4808L92.6179 48.972L94.1403 48.2641L92.0672 43.7805C91.4887 42.5232 90.4344 41.5472 89.1363 41.067C87.8383 40.5869 86.4026 40.642 85.1452 41.2202Z" fill="#F2F3F5"/>
<path d="M87.8804 47.1351C87.3729 48.2668 86.0788 50.1445 82.7319 52.2404L84.0793 55.1559C84.6849 56.3137 85.5036 57.3467 86.4924 58.2008C88.5705 59.9922 91.0445 60.6088 93.8509 60.0353C96.1041 58.2718 97.2358 55.9881 97.2181 53.2452C97.2083 51.9356 96.95 50.6397 96.4568 49.4264L95.1095 46.5134C91.3389 47.7035 89.0679 47.4853 87.8804 47.1351ZM91.5622 53.6131L92.5086 55.2447L91.0572 55.9171L90.4279 54.1409C90.1318 54.124 89.8498 54.0085 89.6268 53.8129C89.4038 53.6172 89.2527 53.3526 89.1974 53.0612C89.1421 52.7697 89.1859 52.4682 89.3218 52.2045C89.4577 51.9408 89.6778 51.7301 89.9472 51.6059C90.2166 51.4818 90.5198 51.4513 90.8086 51.5193C91.0973 51.5873 91.355 51.7499 91.5407 51.9813C91.7264 52.2126 91.8293 52.4994 91.8332 52.796C91.8371 53.0927 91.7417 53.3821 91.5622 53.6182V53.6131Z" fill="#F2F3F5"/>
<path d="M258.885 131.256C262.996 131.256 266.33 127.922 266.33 123.811C266.33 119.699 262.996 116.366 258.885 116.366C254.773 116.366 251.44 119.699 251.44 123.811C251.44 127.922 254.773 131.256 258.885 131.256Z" fill="#F2F3F5"/>
<path d="M259.063 119.807C258.916 119.416 258.62 119.1 258.24 118.927C257.86 118.755 257.427 118.74 257.036 118.887C256.646 119.034 256.329 119.329 256.157 119.709C255.984 120.089 255.97 120.522 256.117 120.913C256.385 121.515 256.706 122.092 257.078 122.636C257.68 123.553 258.172 124.539 258.542 125.572V125.587C258.637 125.811 258.814 125.99 259.038 126.087C259.261 126.183 259.514 126.189 259.741 126.103C259.969 126.017 260.155 125.847 260.26 125.627C260.365 125.407 260.38 125.156 260.303 124.925V124.912C259.902 123.89 259.622 122.825 259.471 121.738C259.393 121.083 259.256 120.437 259.063 119.807Z" fill="white"/>
<path d="M260.331 128.807C260.966 128.807 261.481 128.292 261.481 127.658C261.481 127.023 260.966 126.508 260.331 126.508C259.696 126.508 259.182 127.023 259.182 127.658C259.182 128.292 259.696 128.807 260.331 128.807Z" fill="white"/>
<path d="M103.732 77.3914L98.6441 80.0658C98.2816 80.2564 97.873 80.3417 97.4645 80.3121C97.056 80.2826 96.6639 80.1393 96.3326 79.8985C96.0013 79.6578 95.7439 79.3291 95.5897 78.9497C95.4354 78.5703 95.3904 78.1553 95.4597 77.7517L96.4315 72.0856L92.3158 68.079C92.0229 67.7932 91.8157 67.4311 91.7177 67.0337C91.6197 66.6364 91.6347 66.2195 91.7611 65.8302C91.8875 65.4409 92.1203 65.0947 92.4331 64.8308C92.7459 64.5668 93.1262 64.3955 93.5312 64.3363L99.2201 63.5091L101.758 58.3556C101.939 57.9886 102.219 57.6796 102.567 57.4636C102.915 57.2475 103.316 57.1331 103.725 57.1331C104.135 57.1331 104.536 57.2475 104.884 57.4636C105.231 57.6796 105.512 57.9886 105.693 58.3556L108.23 63.5091L113.919 64.3363C114.325 64.3951 114.705 64.5661 115.018 64.8299C115.331 65.0938 115.565 65.4399 115.691 65.8292C115.818 66.2186 115.833 66.6356 115.735 67.0332C115.637 67.4308 115.43 67.793 115.137 68.079L111.019 72.0907L111.991 77.7567C112.061 78.1603 112.016 78.5754 111.863 78.9549C111.709 79.3345 111.452 79.6633 111.12 79.9042C110.789 80.1451 110.397 80.2884 109.988 80.3179C109.58 80.3473 109.171 80.2618 108.809 80.0709L103.732 77.3914Z" fill="#F2F3F5"/>
<path d="M126.734 131.004H110.426V149.068H126.734V131.004Z" fill="#F2F3F5"/>
<path d="M115.236 123.189H94.8457V148.835H115.236V123.189Z" fill="#F2F3F5"/>
<path d="M103.369 112.679H89.6646V149.068H103.369V112.679Z" fill="#F2F3F5"/>
<path d="M141.499 140.675H140.529V149.071H141.499V140.675Z" fill="#F2F3F5"/>
<path d="M143.47 144.775H136.021V149.068H143.47V144.775Z" fill="#F2F3F5"/>
<path d="M87.5329 116.909H85.5918V149.071H87.5329V116.909Z" fill="#F2F3F5"/>
<path d="M91.2046 126.622H76.8809V149.071H91.2046V126.622Z" fill="#F2F3F5"/>
<path d="M78.0532 130.948H63.7295V149.068H78.0532V130.948Z" fill="#F2F3F5"/>
<path d="M192.671 138.952H162.623V149.068H192.671V138.952Z" fill="#F2F3F5"/>
<path d="M202.793 144.402H137.967V149.068H202.793V144.402Z" fill="#F2F3F5"/>
<path d="M207.38 146.736H200.697V149.071H207.38V146.736Z" fill="#F2F3F5"/>
<path d="M196.807 140.756H194.955V149.068H196.807V140.756Z" fill="#F2F3F5"/>
<path d="M209.71 149.068H216.393V146.734H209.71V149.068Z" fill="#F2F3F5"/>
<path d="M142.598 146.696H147.381V137.153C145.971 137.706 144.76 138.671 143.907 139.923C143.054 141.174 142.598 142.654 142.598 144.169V146.696Z" fill="#F2F3F5"/>
<path d="M147.764 146.696H152.544V143.872C152.545 142.088 152.11 140.331 151.276 138.753C150.443 137.176 149.237 135.826 147.764 134.821V146.696Z" fill="#F2F3F5"/>
<path d="M162.031 140.756H158.893V149.068H162.031V140.756Z" fill="#F2F3F5"/>
<path d="M139.959 140.675H124.833V149.071H139.959V140.675Z" fill="#F2F3F5"/>
<path d="M98.5479 97.5789V149.068H113.181V97.5789H98.5479ZM111.77 102.045C111.77 105.358 110.895 108.612 109.233 111.479C108.891 112.069 108.4 112.56 107.809 112.9C107.217 113.241 106.547 113.421 105.864 113.421C105.182 113.421 104.512 113.241 103.92 112.9C103.329 112.56 102.838 112.069 102.496 111.479C100.834 108.612 99.9588 105.358 99.9587 102.045V98.9998H111.77V102.045Z" fill="#F2F3F5"/>
<path d="M113.181 115.361H98.5479V115.666H113.181V115.361Z" fill="white"/>
<path d="M113.181 116.089H98.5479V116.394H113.181V116.089Z" fill="white"/>
<path d="M113.181 116.818H98.5479V117.122H113.181V116.818Z" fill="white"/>
<path d="M113.181 117.546H98.5479V117.85H113.181V117.546Z" fill="white"/>
<path d="M113.181 118.271H98.5479V118.576H113.181V118.271Z" fill="white"/>
<path d="M113.181 119H98.5479V119.304H113.181V119Z" fill="white"/>
<path d="M113.181 119.728H98.5479V120.033H113.181V119.728Z" fill="white"/>
<path d="M113.181 120.456H98.5479V120.761H113.181V120.456Z" fill="white"/>
<path d="M113.181 121.185H98.5479V121.489H113.181V121.185Z" fill="white"/>
<path d="M113.181 121.91H98.5479V122.215H113.181V121.91Z" fill="white"/>
<path d="M113.181 122.638H98.5479V122.943H113.181V122.638Z" fill="white"/>
<path d="M113.181 123.367H98.5479V123.671H113.181V123.367Z" fill="white"/>
<path d="M113.181 124.095H98.5479V124.399H113.181V124.095Z" fill="white"/>
<path d="M113.181 124.821H98.5479V125.125H113.181V124.821Z" fill="white"/>
<path d="M113.181 125.549H98.5479V125.853H113.181V125.549Z" fill="white"/>
<path d="M113.181 126.277H98.5479V126.582H113.181V126.277Z" fill="white"/>
<path d="M113.181 127.005H98.5479V127.31H113.181V127.005Z" fill="white"/>
<path d="M113.181 128.459H98.5479V128.764H113.181V128.459Z" fill="white"/>
<path d="M113.181 129.188H98.5479V129.492H113.181V129.188Z" fill="white"/>
<path d="M113.181 129.916H98.5479V130.22H113.181V129.916Z" fill="white"/>
<path d="M113.181 130.644H98.5479V130.949H113.181V130.644Z" fill="white"/>
<path d="M113.181 131.372H98.5479V131.677H113.181V131.372Z" fill="white"/>
<path d="M113.181 132.098H98.5479V132.402H113.181V132.098Z" fill="white"/>
<path d="M113.181 132.826H98.5479V133.131H113.181V132.826Z" fill="white"/>
<path d="M113.181 133.554H98.5479V133.859H113.181V133.554Z" fill="white"/>
<path d="M113.181 134.283H98.5479V134.587H113.181V134.283Z" fill="white"/>
<path d="M113.181 135.008H98.5479V135.313H113.181V135.008Z" fill="white"/>
<path d="M113.181 135.737H98.5479V136.041H113.181V135.737Z" fill="white"/>
<path d="M113.181 136.465H98.5479V136.769H113.181V136.465Z" fill="white"/>
<path d="M113.181 137.193H98.5479V137.498H113.181V137.193Z" fill="white"/>
<path d="M113.181 137.921H98.5479V138.226H113.181V137.921Z" fill="white"/>
<path d="M113.181 138.647H98.5479V138.951H113.181V138.647Z" fill="white"/>
<path d="M113.181 139.375H98.5479V139.68H113.181V139.375Z" fill="white"/>
<path d="M113.181 140.104H98.5479V140.408H113.181V140.104Z" fill="white"/>
<path d="M113.181 141.56H98.5479V141.865H113.181V141.56Z" fill="white"/>
<path d="M113.181 142.286H98.5479V142.59H113.181V142.286Z" fill="white"/>
<path d="M113.181 143.014H98.5479V143.318H113.181V143.014Z" fill="white"/>
<path d="M113.181 143.742H98.5479V144.047H113.181V143.742Z" fill="white"/>
<path d="M113.181 144.47H98.5479V144.775H113.181V144.47Z" fill="white"/>
<path d="M113.181 145.196H98.5479V145.501H113.181V145.196Z" fill="white"/>
<path d="M113.181 145.924H98.5479V146.229H113.181V145.924Z" fill="white"/>
<path d="M113.181 146.653H98.5479V146.957H113.181V146.653Z" fill="white"/>
<path d="M113.181 147.381H98.5479V147.685H113.181V147.381Z" fill="white"/>
<path d="M113.181 148.109H98.5479V148.414H113.181V148.109Z" fill="white"/>
<path d="M113.181 148.835H98.5479V149.139H113.181V148.835Z" fill="white"/>
<path d="M132.643 133.494H118.469V149.068H132.643V133.494Z" fill="#F2F3F5"/>
<path d="M137.535 138.102H134.508V149.068H137.535V138.102Z" fill="#F2F3F5"/>
<path d="M138.132 135.98H136.937V149.068H138.132V135.98Z" fill="#F2F3F5"/>
<path d="M121.263 111.187C117.018 126.477 116.645 143.158 116.645 143.158L121.263 145.343L125.878 143.158C125.878 143.158 125.505 126.477 121.263 111.187Z" fill="#F2F3F5"/>
<path d="M121.263 123.359C122.364 123.359 123.257 122.466 123.257 121.365C123.257 120.263 122.364 119.37 121.263 119.37C120.161 119.37 119.269 120.263 119.269 121.365C119.269 122.466 120.161 123.359 121.263 123.359Z" fill="white"/>
<path d="M84.5363 130.644H79.3066V148.721H84.5363V130.644Z" fill="white"/>
<path d="M83.2828 136.237H78.0532V148.901H83.2828V136.237Z" fill="#F2F3F5"/>
<path d="M81.8362 142.567H82.0088V129.903H81.8362V142.567Z" fill="#F2F3F5"/>
<path d="M88.2534 134.671V134.498H75.5892V134.671H88.2534Z" fill="#F2F3F5"/>
<path d="M88.251 136.323V136.15H75.5867V136.323H88.251Z" fill="#F2F3F5"/>
<path d="M88.2534 137.972V137.8H75.5892V137.972H88.2534Z" fill="#F2F3F5"/>
<path d="M88.2534 139.624V139.451H75.5892V139.624H88.2534Z" fill="#F2F3F5"/>
<path d="M88.2534 141.273V141.101H75.5892V141.273H88.2534Z" fill="#F2F3F5"/>
<path d="M88.2534 142.925V142.753H75.5892V142.925H88.2534Z" fill="#F2F3F5"/>
<path d="M88.2534 144.574V144.402H75.5892V144.574H88.2534Z" fill="#F2F3F5"/>
<path d="M88.2534 146.224V146.051H75.5892V146.224H88.2534Z" fill="#F2F3F5"/>
<path d="M154.884 11.8015C154.884 11.8015 156.152 5.57216 161.674 7.92942C161.674 7.92942 165.046 1.05809 172.656 5.89949C172.656 5.89949 174.252 -1.76098 184.163 0.360304C191.626 1.95888 193.044 11.7914 218.357 11.7914L154.884 11.8015Z" fill="#F2F3F5"/>
<path d="M49.7077 141.38C46.0639 129.068 61.7731 121.727 70.6896 130.723C75.9725 136.051 50.0655 131.902 54.983 147.216C56.2517 151.144 50.2634 143.262 49.7077 141.38Z" fill="#F2F3F5"/>
<path d="M50.7861 145.219C50.7546 145.219 50.7241 145.208 50.7006 145.186C50.6771 145.165 50.6624 145.136 50.6592 145.105C49.971 139.769 48.6945 134.526 46.8531 129.472C44.1229 122.126 38.9694 112.933 29.9285 110.847C25.5007 109.832 22.7806 110.723 21.8418 113.517C19.5581 120.307 28.6776 135.524 35.4271 138.543C35.4433 138.549 35.4581 138.559 35.4705 138.571C35.483 138.583 35.4928 138.597 35.4994 138.613C35.5061 138.629 35.5093 138.646 35.5091 138.664C35.5088 138.681 35.505 138.698 35.4979 138.714C35.4908 138.73 35.4805 138.744 35.4677 138.755C35.4549 138.767 35.4399 138.776 35.4235 138.782C35.4071 138.787 35.3898 138.79 35.3725 138.788C35.3552 138.787 35.3384 138.782 35.3231 138.774C31.9965 137.274 28.0305 132.961 24.978 127.477C21.8189 121.806 20.5578 116.567 21.6058 113.435C22.8339 109.776 26.843 109.883 29.9793 110.601C39.1292 112.712 44.3309 121.981 47.084 129.378C48.9279 134.452 50.2044 139.714 50.8901 145.069C50.8937 145.103 50.884 145.136 50.8631 145.162C50.8422 145.188 50.8118 145.205 50.7785 145.209L50.7861 145.219Z" fill="#676F7C"/>
<path d="M43.0849 135.617C43.062 135.618 43.0395 135.612 43.0198 135.6C43.0001 135.588 42.984 135.572 42.9732 135.551C42.887 135.394 34.3105 119.685 27.4239 115.64C27.3956 115.623 27.3751 115.595 27.3671 115.563C27.359 115.531 27.3639 115.496 27.3808 115.468C27.3889 115.453 27.3999 115.441 27.4131 115.43C27.4262 115.42 27.4413 115.413 27.4574 115.408C27.4735 115.404 27.4903 115.403 27.5068 115.406C27.5232 115.408 27.5391 115.414 27.5533 115.422C34.4983 119.5 43.1103 135.272 43.1965 135.432C43.2045 135.447 43.2095 135.463 43.2113 135.479C43.2131 135.495 43.2115 135.512 43.2068 135.528C43.2021 135.544 43.1943 135.558 43.1838 135.571C43.1733 135.584 43.1604 135.594 43.1458 135.602C43.127 135.612 43.1061 135.617 43.0849 135.617Z" fill="#B3B9C3"/>
<path d="M53.2067 144.937L55.8304 148.254H45.7619C45.7619 148.254 40.507 140.098 35.3585 141.765C30.2101 143.433 30.5806 137.317 30.5806 137.317L41.2377 135.201L48.7155 139.954L53.2067 144.937Z" fill="#A8C5D6"/>
<path d="M36.4141 131.25C44.7876 134.021 51.3849 140.847 56.3405 148.251H55.2849C55.2849 148.251 40.5197 128.485 34.5441 143.491C29.1267 157.089 22.8973 155.924 19.9209 154.034C11.8266 148.86 14.3107 123.94 36.4141 131.25Z" fill="#519BC6"/>
<path d="M48.2207 26.4729C48.2207 26.4729 49.2357 19.1955 57.6903 22.6008C57.6903 22.6008 61.1285 17.8938 67.4264 20.5708C67.4264 20.5708 72.7245 10.4973 81.2706 22.0755C81.2706 22.0755 83.3893 26.4627 105.541 26.4627L48.2207 26.4729Z" fill="#F2F3F5"/>
<path d="M118.685 17.3254L118.134 17.9293C118.134 17.9293 118.492 23.1463 118.525 24.9631H119.088V17.7619L118.685 17.3254Z" fill="#676F7C"/>
<path d="M119.324 18.6931C119.324 18.6931 117.563 24.1587 119.113 27.092C120.664 30.0252 121.301 18.9443 121.301 18.9443L119.324 18.6931Z" fill="#676F7C"/>
<path d="M115.584 141.098H114.65C114.339 141.098 114.032 141.166 113.75 141.298C113.468 141.429 113.218 141.621 113.019 141.859C112.458 142.534 111.565 143.448 110.656 143.735L114.16 142.689L115.584 141.098Z" fill="#9AA2AF"/>
<path d="M120.664 133.983H115.211V142.118H120.664V133.983Z" fill="#F2F3F5"/>
<path d="M120.664 140.507H116.533C116.263 140.506 115.996 140.562 115.749 140.672C115.503 140.782 115.282 140.943 115.102 141.144C113.526 142.92 110.266 143.829 108.297 144.257C107.282 144.476 105.841 145.217 105.549 147.279H120.664V140.507Z" fill="#B3B9C3"/>
<path d="M105.622 147.196H120.593C120.721 147.196 120.844 147.246 120.934 147.337C121.024 147.427 121.075 147.55 121.075 147.678V148.523H105.14V147.678C105.14 147.55 105.191 147.427 105.281 147.337C105.372 147.246 105.494 147.196 105.622 147.196Z" fill="#9AA2AF"/>
<path d="M108.297 144.257C107.282 144.476 105.841 145.216 105.549 147.279H110.025C109.284 144.509 108.297 144.257 108.297 144.257Z" fill="#818B9B"/>
<path d="M120.664 142.806V141.362L112.544 143.519C112.814 143.671 113.073 143.841 113.321 144.026L120.664 142.806Z" fill="#9AA2AF"/>
<path d="M114.546 145.239L120.664 144.661V143.425L113.919 144.557C114.144 144.77 114.353 144.998 114.546 145.239Z" fill="#9AA2AF"/>
<path d="M115.165 146.155H120.664V145.28L114.965 145.818C115.033 145.927 115.102 146.041 115.165 146.155Z" fill="#9AA2AF"/>
<path d="M142.27 141.098H143.204C143.515 141.098 143.822 141.166 144.104 141.298C144.386 141.429 144.636 141.621 144.835 141.859C145.396 142.534 146.289 143.448 147.198 143.735L143.694 142.689L142.27 141.098Z" fill="#9AA2AF"/>
<path d="M137.183 142.118H142.636V133.983H137.183V142.118Z" fill="#F2F3F5"/>
<path d="M137.195 140.507H141.326C141.596 140.506 141.863 140.562 142.109 140.672C142.355 140.782 142.575 140.943 142.755 141.144C144.333 142.92 147.594 143.829 149.563 144.257C150.578 144.476 152.019 145.217 152.311 147.279H137.195V140.507Z" fill="#B3B9C3"/>
<path d="M152.709 148.52H136.779V147.675C136.779 147.547 136.83 147.425 136.921 147.334C137.011 147.244 137.134 147.193 137.261 147.193H152.232C152.36 147.193 152.483 147.244 152.573 147.334C152.664 147.425 152.714 147.547 152.714 147.675V148.52H152.709Z" fill="#9AA2AF"/>
<path d="M149.553 144.257C150.568 144.476 152.009 145.216 152.301 147.279H147.825C148.561 144.509 149.553 144.257 149.553 144.257Z" fill="#818B9B"/>
<path d="M137.195 142.806V141.362L145.315 143.519C145.046 143.671 144.786 143.841 144.539 144.026L137.195 142.806Z" fill="#9AA2AF"/>
<path d="M143.303 145.239L137.195 144.661V143.425L143.94 144.557C143.712 144.769 143.499 144.997 143.303 145.239Z" fill="#9AA2AF"/>
<path d="M142.681 146.155H137.195V145.28L142.894 145.818C142.816 145.927 142.747 146.041 142.681 146.155Z" fill="#9AA2AF"/>
<path d="M120.664 145.28V142.118V139.979L115.211 138.726V141.035L115.148 141.098H114.64C114.329 141.098 114.022 141.166 113.74 141.297C113.458 141.429 113.208 141.621 113.009 141.859C112.897 141.991 112.773 142.133 112.638 142.281L120.664 145.28Z" fill="#9AA2AF"/>
<path d="M113.019 141.87L120.664 145.28L128.834 90.4463L137.185 145.28L144.83 141.87L139.872 76.9852L119.012 72.5295L113.019 141.87Z" fill="#676F7C"/>
<path d="M151.016 54.7398L142.313 41.02C140.616 38.3453 138.033 36.3516 135.015 35.3869L128.789 33.395L119.941 34.7322L115.437 36.6049C113.377 37.4608 111.54 38.7778 110.069 40.4547C108.597 42.1315 107.53 44.1235 106.949 46.2775L103.379 59.5127C102.58 62.4782 102.402 65.5769 102.856 68.6144L105.627 85.407L110.047 85.1533L109.233 64.2779L113.765 55.468L119.015 72.5423L117.657 84.6686L124.193 83.2933C126.747 82.7557 129.029 81.3364 130.641 79.2842L130.945 78.8985L140.222 82.1667L139.36 52.3064L150.227 61.875L151.016 54.7398Z" fill="#B3B9C3"/>
<path d="M126.17 34.7346L131.176 47.2593L133.486 60.5934L132.932 78.2539L131.725 78.8984L132.23 60.9994L129.908 48.0231L124.731 35.0569L126.17 34.7346Z" fill="#9AA2AF"/>
<path d="M113.762 55.4553L117.198 48.7769L117.193 66.6073L113.762 55.4553Z" fill="#9AA2AF"/>
<path d="M111.979 87.8733L111.573 87.2212C111.386 86.939 111.137 86.7037 110.844 86.5336C110.553 86.3523 110.336 86.0722 110.233 85.7444L110.045 85.1405L107.66 83.7043L105.445 84.666L106.726 89.9033C106.731 90.0501 106.783 90.1914 106.875 90.3064C106.966 90.4215 107.092 90.5043 107.234 90.5427C107.326 90.568 107.423 90.5732 107.518 90.5579C107.61 90.5465 107.704 90.5566 107.792 90.5874C107.88 90.6182 107.96 90.6689 108.025 90.7355C108.109 90.8218 108.215 90.8841 108.331 90.9157C108.447 90.9474 108.569 90.9474 108.685 90.9157C108.783 90.8903 108.885 90.8909 108.982 90.9177C109.079 90.9444 109.168 90.9962 109.238 91.0679C109.323 91.153 109.429 91.2142 109.545 91.2456C109.716 91.2931 109.898 91.2721 110.053 91.1872C110.199 91.1209 110.365 91.1136 110.517 91.1669C110.58 91.1837 110.645 91.1905 110.71 91.1872C110.929 91.2141 111.15 91.1629 111.334 91.0426C111.403 90.9874 111.46 90.9184 111.5 90.8399C111.54 90.7613 111.564 90.6752 111.569 90.587C111.573 90.4989 111.56 90.4107 111.528 90.3283C111.496 90.2459 111.448 90.1711 111.385 90.1088C111.323 90.0309 111.283 89.9382 111.268 89.8398L111.136 89.0025L110.928 90.4488C111.24 90.4336 111.74 89.482 112.034 88.8629C112.108 88.7064 112.142 88.5339 112.132 88.361C112.123 88.1882 112.07 88.0205 111.979 87.8733Z" fill="#F2F3F5"/>
<path d="M110.045 85.1405L107.678 84.6685L105.625 85.4069L104.98 82.7046L107.348 82.0017L109.992 82.5067L110.045 85.1405Z" fill="#9AA2AF"/>
<path d="M139.362 52.3063C138.989 46.7823 138.474 43.877 138.474 43.877L145.102 57.3608L139.362 52.3063Z" fill="#9AA2AF"/>
<path d="M139.558 59.1903C139.524 59.1903 139.492 59.1769 139.468 59.1531C139.444 59.1293 139.431 59.097 139.431 59.0634C139.431 58.9517 139.413 47.815 137.941 41.9561C137.934 41.9232 137.939 41.8885 137.957 41.8596C137.974 41.8306 138.002 41.8097 138.035 41.8013C138.068 41.7936 138.102 41.7989 138.13 41.8159C138.158 41.833 138.179 41.8606 138.187 41.8927C139.667 47.782 139.685 58.9517 139.685 59.0634C139.685 59.097 139.671 59.1293 139.647 59.1531C139.624 59.1769 139.591 59.1903 139.558 59.1903Z" fill="#676F7C"/>
<path d="M119.259 78.3858C119.245 78.3882 119.231 78.3882 119.218 78.3858C119.186 78.3743 119.16 78.3509 119.146 78.3206C119.131 78.2902 119.129 78.2554 119.139 78.2234C120.568 74.2473 113.714 55.6937 113.646 55.5059C113.638 55.49 113.633 55.4725 113.632 55.4547C113.631 55.4369 113.634 55.419 113.64 55.4024C113.647 55.3857 113.657 55.3706 113.669 55.358C113.682 55.3455 113.697 55.3357 113.714 55.3294C113.731 55.3231 113.749 55.3204 113.766 55.3215C113.784 55.3226 113.802 55.3275 113.817 55.3357C113.833 55.344 113.847 55.3555 113.858 55.3695C113.869 55.3836 113.877 55.3998 113.882 55.4171C114.168 56.1783 120.839 74.2473 119.378 78.3097C119.368 78.3328 119.351 78.3523 119.33 78.3659C119.308 78.3795 119.284 78.3864 119.259 78.3858Z" fill="#676F7C"/>
<path d="M110.184 62.5398C110.164 62.54 110.144 62.5347 110.126 62.5246C110.096 62.5094 110.073 62.483 110.063 62.4511C110.053 62.4193 110.055 62.3846 110.07 62.3546L118.243 46.4704C118.25 46.4553 118.261 46.4419 118.273 46.4309C118.286 46.4199 118.3 46.4116 118.316 46.4063C118.332 46.4011 118.349 46.3992 118.366 46.4006C118.382 46.402 118.398 46.4067 118.413 46.4145C118.443 46.4297 118.466 46.4562 118.476 46.488C118.487 46.5199 118.484 46.5546 118.469 46.5845L110.299 62.4713C110.288 62.4922 110.271 62.5097 110.251 62.5218C110.231 62.5339 110.208 62.5401 110.184 62.5398Z" fill="#676F7C"/>
<path d="M130.375 16.9805L131.468 17.3103L130.902 21.1012L129.108 18.0639L130.375 16.9805Z" fill="#34383E"/>
<path d="M128.484 31.6746L129.037 33.3189L128.022 35.4351H125.706L123.171 36.0897L119.651 34.4227V24.0269H128.332L128.484 31.6746Z" fill="#F2F3F5"/>
<path d="M123.63 28.2109L123.993 30.1672C123.993 30.1672 126.277 31.8521 128.482 31.6744L128.332 27.9546L123.63 28.2109Z" fill="#9AA2AF"/>
<path d="M118.396 16.8889L119.256 21.8445L120.971 21.5958L120.999 16.2368L118.396 16.8889Z" fill="#676F7C"/>
<path d="M119.088 24.0269C120.02 24.0269 120.776 23.2714 120.776 22.3395C120.776 21.4076 120.02 20.6521 119.088 20.6521C118.156 20.6521 117.401 21.4076 117.401 22.3395C117.401 23.2714 118.156 24.0269 119.088 24.0269Z" fill="#F2F3F5"/>
<path d="M120.037 23.268C120.007 23.2678 119.977 23.2567 119.954 23.2367C119.931 23.2168 119.915 23.1892 119.911 23.1589L119.801 22.3977C119.764 22.1438 119.627 21.9152 119.421 21.762C119.215 21.6088 118.957 21.5436 118.703 21.5806C118.669 21.585 118.636 21.5759 118.609 21.5555C118.583 21.535 118.565 21.5048 118.561 21.4715C118.556 21.4386 118.565 21.4053 118.585 21.3787C118.605 21.3522 118.634 21.3345 118.667 21.3294C118.826 21.3061 118.988 21.3142 119.143 21.3533C119.298 21.3925 119.445 21.4618 119.573 21.5575C119.702 21.6532 119.811 21.7732 119.893 21.9109C119.975 22.0485 120.029 22.201 120.053 22.3596L120.162 23.1209C120.164 23.1374 120.164 23.1542 120.16 23.1704C120.156 23.1866 120.148 23.2018 120.139 23.2153C120.129 23.2287 120.116 23.2401 120.102 23.2487C120.088 23.2573 120.072 23.263 120.055 23.2655L120.037 23.268Z" fill="#676F7C"/>
<path d="M119.926 22.5145L118.728 22.4079C118.711 22.4067 118.695 22.4021 118.68 22.3945C118.665 22.3869 118.652 22.3764 118.641 22.3637C118.63 22.351 118.622 22.3362 118.617 22.3203C118.612 22.3044 118.61 22.2876 118.611 22.2709C118.616 22.2375 118.632 22.207 118.658 22.1854C118.684 22.1638 118.717 22.1526 118.751 22.1542L119.948 22.2633C119.965 22.2646 119.981 22.2692 119.996 22.2768C120.011 22.2844 120.024 22.2949 120.035 22.3077C120.045 22.3205 120.053 22.3352 120.058 22.3512C120.063 22.3671 120.064 22.3838 120.063 22.4003C120.059 22.4336 120.043 22.4642 120.018 22.4856C119.992 22.5069 119.959 22.5173 119.926 22.5145Z" fill="#676F7C"/>
<path d="M130.77 19.6802C130.689 19.1499 130.641 18.6145 130.58 18.0816C130.433 16.8366 129.833 15.6888 128.896 14.856C127.959 14.0232 126.749 13.5632 125.495 13.5632C124.241 13.5632 123.031 14.0232 122.094 14.856C121.157 15.6888 120.557 16.8366 120.41 18.0816C120.349 18.6145 120.301 19.1499 120.22 19.6802C120.007 21.0834 119.651 23.5675 119.651 24.5216C119.651 26.0714 120.267 27.5578 121.363 28.6537C122.459 29.7496 123.945 30.3653 125.495 30.3653C127.045 30.3653 128.531 29.7496 129.627 28.6537C130.723 27.5578 131.339 26.0714 131.339 24.5216C131.339 23.5675 130.983 21.0834 130.77 19.6802Z" fill="#F2F3F5"/>
<path d="M127.578 24.6587C127.558 24.6584 127.538 24.6535 127.52 24.6442C127.502 24.635 127.486 24.6217 127.474 24.6054C127.465 24.5918 127.458 24.5764 127.454 24.56C127.45 24.5437 127.45 24.5268 127.453 24.5103C127.455 24.4938 127.461 24.478 127.47 24.4638C127.479 24.4497 127.491 24.4374 127.505 24.4278L128.137 23.9762C128.302 23.859 128.429 23.6948 128.501 23.5048C128.572 23.3149 128.585 23.1078 128.537 22.9105L127.644 19.1652C127.637 19.1316 127.643 19.0962 127.661 19.067C127.679 19.0377 127.708 19.0169 127.742 19.0092C127.776 19.0014 127.811 19.0074 127.84 19.0257C127.87 19.044 127.89 19.0732 127.898 19.1069L128.791 22.8521C128.849 23.0991 128.832 23.3577 128.741 23.5948C128.651 23.8318 128.492 24.0362 128.284 24.1817L127.652 24.6334C127.631 24.65 127.605 24.6589 127.578 24.6587Z" fill="#676F7C"/>
<path d="M127.16 26.4602C124.298 26.4602 123.516 23.6691 123.506 23.6259C123.502 23.6098 123.501 23.5929 123.503 23.5764C123.506 23.5599 123.511 23.5439 123.52 23.5296C123.528 23.5152 123.539 23.5026 123.553 23.4926C123.566 23.4826 123.581 23.4753 123.597 23.4711C123.613 23.4665 123.63 23.4652 123.647 23.4672C123.663 23.4692 123.679 23.4745 123.694 23.4828C123.708 23.4911 123.721 23.5022 123.731 23.5154C123.741 23.5287 123.748 23.5438 123.752 23.5599C123.785 23.6817 124.592 26.5541 127.711 26.1709C127.727 26.1689 127.744 26.1702 127.76 26.1748C127.776 26.1793 127.792 26.187 127.805 26.1973C127.818 26.2077 127.829 26.2206 127.837 26.2352C127.845 26.2498 127.851 26.2659 127.853 26.2826C127.855 26.2993 127.853 26.3161 127.849 26.3323C127.844 26.3485 127.837 26.3636 127.826 26.3768C127.816 26.39 127.803 26.401 127.788 26.4092C127.774 26.4174 127.758 26.4227 127.741 26.4247C127.548 26.4486 127.354 26.4604 127.16 26.4602Z" fill="#676F7C"/>
<path d="M125.777 21.4969C126.175 21.4969 126.497 21.1743 126.497 20.7763C126.497 20.3783 126.175 20.0557 125.777 20.0557C125.379 20.0557 125.056 20.3783 125.056 20.7763C125.056 21.1743 125.379 21.4969 125.777 21.4969Z" fill="#676F7C"/>
<path d="M129.522 21.4969C129.92 21.4969 130.243 21.1743 130.243 20.7763C130.243 20.3783 129.92 20.0557 129.522 20.0557C129.124 20.0557 128.802 20.3783 128.802 20.7763C128.802 21.1743 129.124 21.4969 129.522 21.4969Z" fill="#676F7C"/>
<path d="M126.008 19.4898H125.148C125.013 19.4898 124.884 19.4364 124.789 19.3412C124.694 19.246 124.64 19.1169 124.64 18.9823C124.64 18.8477 124.694 18.7187 124.789 18.6235C124.884 18.5283 125.013 18.4749 125.148 18.4749H126.008C126.142 18.4749 126.271 18.5283 126.367 18.6235C126.462 18.7187 126.515 18.8477 126.515 18.9823C126.515 19.1169 126.462 19.246 126.367 19.3412C126.271 19.4364 126.142 19.4898 126.008 19.4898Z" fill="#34383E"/>
<path d="M129.662 18.9444H128.801C128.667 18.9444 128.538 18.8909 128.443 18.7958C128.347 18.7006 128.294 18.5715 128.294 18.4369C128.294 18.3023 128.347 18.1733 128.443 18.0781C128.538 17.9829 128.667 17.9294 128.801 17.9294H129.662C129.796 17.9294 129.925 17.9829 130.02 18.0781C130.116 18.1733 130.169 18.3023 130.169 18.4369C130.169 18.5715 130.116 18.7006 130.02 18.7958C129.925 18.8909 129.796 18.9444 129.662 18.9444Z" fill="#34383E"/>
<path d="M119.327 15.3362C116.713 16.2522 118.982 20.2638 118.982 20.2638C119.58 19.2489 119.926 17.4118 121.605 17.7721C122.846 18.069 123.793 17.8254 125.059 16.4602C125.059 16.4602 129.484 20.6546 133.211 17.1529C134.719 15.7345 129.659 14.646 128.834 13.56C124.762 8.22124 125.016 13.3468 119.327 15.3362Z" fill="#676F7C"/>
<path d="M119.651 20.6521L119.991 20.9059C119.991 20.9059 122.222 20.6064 122.473 17.861C122.724 15.1155 119.327 16.3182 119.327 16.3182L119.651 20.6521Z" fill="#676F7C"/>
<path d="M119.768 23.1414H119.748C119.715 23.1357 119.685 23.1175 119.665 23.0906C119.645 23.0636 119.637 23.03 119.641 22.9967C120.052 20.3324 119.806 19.1754 119.804 19.1627C119.8 19.146 119.8 19.1288 119.803 19.112C119.806 19.0952 119.812 19.0792 119.821 19.0648C119.83 19.0504 119.842 19.038 119.856 19.0283C119.87 19.0185 119.886 19.0116 119.903 19.0079C119.919 19.0043 119.936 19.0039 119.953 19.0069C119.97 19.0099 119.986 19.0162 120.001 19.0253C120.015 19.0345 120.027 19.0465 120.037 19.0604C120.047 19.0744 120.054 19.0902 120.057 19.1069C120.057 19.1551 120.311 20.3147 119.9 23.0348C119.896 23.066 119.88 23.0943 119.855 23.1141C119.831 23.1339 119.8 23.1436 119.768 23.1414Z" fill="#676F7C"/>
<path d="M119.652 35.3563C119.618 35.3563 119.586 35.343 119.562 35.3192C119.538 35.2954 119.525 35.2631 119.525 35.2295V24.0268C119.526 23.9933 119.539 23.9614 119.563 23.9378C119.586 23.9141 119.618 23.9006 119.652 23.8999C119.685 23.8999 119.718 23.9133 119.741 23.9371C119.765 23.9609 119.779 23.9931 119.779 24.0268V35.2295C119.779 35.2631 119.765 35.2954 119.741 35.3192C119.718 35.343 119.685 35.3563 119.652 35.3563Z" fill="#676F7C"/>
<path d="M131.027 67.0157V101.816C131.027 101.903 131.128 111.687 135.939 122.268C142.077 135.767 152.816 144.404 167.86 147.947H171.92C173.118 147.467 177.989 144.516 179.119 143.958C188.378 139.375 195.305 132.116 199.783 122.268C204.604 111.687 204.693 101.903 204.696 101.804V67.0157C190.707 65.2395 181.324 61.9003 175.112 58.5686C174.237 58.0992 171.92 53.6511 171.92 53.6511H167.86C162.823 58.0586 152.202 64.326 131.027 67.0157Z" fill="#A8C5D6"/>
<path d="M143.881 101.816H131.027C131.027 101.903 131.128 111.687 135.939 122.268L149.712 116.995L143.881 101.816Z" fill="#519BC6"/>
<path d="M158.908 68.7285L164.49 61.8774H153.204C147.561 63.9733 140.306 65.8383 131.027 67.0182H137.117L158.908 68.7285Z" fill="#519BC6"/>
<path d="M135.087 67.0157V101.816C135.087 101.903 135.188 111.687 139.999 122.268C146.137 135.767 156.876 144.404 171.92 147.947C186.967 144.394 197.703 135.767 203.843 122.268C208.664 111.687 208.756 101.903 208.756 101.804V67.0157C187.581 64.326 176.954 58.0586 171.92 53.6511C166.883 58.0586 156.262 64.326 135.087 67.0157Z" fill="#519BC6"/>
<path d="M171.92 148.074H171.892C156.807 144.521 146.038 135.856 139.883 122.324C135.061 111.71 134.96 101.915 134.96 101.819V67.0158C134.96 66.9846 134.971 66.9545 134.992 66.9311C135.012 66.9077 135.041 66.8927 135.072 66.8889C155.878 64.2449 166.556 58.1805 171.836 53.5573C171.859 53.5365 171.889 53.5249 171.92 53.5249C171.951 53.5249 171.981 53.5365 172.004 53.5573C177.287 58.1805 187.944 64.2449 208.771 66.8889C208.802 66.8927 208.83 66.9077 208.851 66.9311C208.872 66.9545 208.883 66.9846 208.883 67.0158V101.804C208.883 101.903 208.801 111.672 203.957 122.321C197.804 135.853 187.035 144.519 171.958 148.071L171.92 148.074ZM135.214 67.13V101.816C135.214 101.915 135.31 111.654 140.113 122.217C146.231 135.666 156.931 144.293 171.92 147.82C186.909 144.28 197.611 135.668 203.727 122.217C208.548 111.619 208.629 101.903 208.629 101.806V67.1274C187.926 64.4809 177.249 58.4495 171.92 53.8212C166.594 58.4495 155.914 64.4809 135.214 67.1274V67.13Z" fill="white"/>
<path d="M171.92 141.535H171.887C165.931 139.949 160.758 137.416 156.515 134.004C151.96 130.337 148.307 125.526 145.657 119.7C141.554 110.677 141.311 102.134 141.303 101.776V72.4914C141.303 72.4614 141.313 72.4321 141.332 72.4089C141.351 72.3857 141.378 72.37 141.407 72.3646C154.016 70.2357 164.259 66.5818 171.856 61.5044C171.878 61.4908 171.902 61.4836 171.927 61.4836C171.953 61.4836 171.977 61.4908 171.998 61.5044C179.59 66.5792 189.834 70.2357 202.447 72.3646C202.477 72.3699 202.504 72.3855 202.524 72.4087C202.543 72.4319 202.554 72.4612 202.554 72.4914V101.75C202.554 102.113 202.3 110.657 198.197 119.69C195.551 125.526 191.897 130.327 187.34 133.993C183.097 137.406 177.926 139.939 171.968 141.524L171.92 141.535ZM141.557 72.598V101.778C141.557 102.131 141.811 110.624 145.888 119.599C148.522 125.389 152.151 130.169 156.675 133.808C160.882 137.191 166.01 139.708 171.92 141.283C177.829 139.708 182.957 137.191 187.167 133.808C191.691 130.167 195.32 125.386 197.951 119.599C202.039 110.614 202.265 102.121 202.285 101.763V72.598C189.73 70.4666 179.514 66.8203 171.92 61.7632C164.328 66.8203 154.112 70.4666 141.557 72.598Z" fill="white"/>
<g opacity="0.32">
<path opacity="0.7" d="M141.43 72.4915C141.923 72.4086 142.409 72.324 142.889 72.2378L137.363 66.7087C136.617 66.8153 135.856 66.9185 135.079 67.0183V80.766L141.423 87.0766L141.43 72.4915Z" fill="#A8C5D6"/>
<path opacity="0.7" d="M187.928 133.331L192.44 137.817C195.309 135.32 197.833 132.452 199.945 129.289L195.355 124.699C193.34 127.942 190.835 130.854 187.928 133.331Z" fill="#A8C5D6"/>
<path opacity="0.7" d="M166.883 64.5646L162.151 59.8323C159.871 60.8963 157.532 61.8282 155.145 62.6234L160.121 67.5714C162.43 66.697 164.687 65.6931 166.883 64.5646Z" fill="#A8C5D6"/>
<path opacity="0.7" d="M202.407 101.75C202.301 104.097 202.007 106.431 201.529 108.731L206.809 113.981C207.519 111.386 208.049 108.745 208.395 106.077L202.407 100.094V101.75Z" fill="#A8C5D6"/>
<path opacity="0.7" d="M201.364 72.3165L192.99 63.943C185.269 61.8065 179.796 59.1727 175.99 56.7063L188.636 69.2716C192.811 70.5514 197.062 71.5684 201.364 72.3165Z" fill="#A8C5D6"/>
<path opacity="0.7" d="M202.412 73.3542V82.9584L208.756 89.2639V79.6978L202.412 73.3542Z" fill="#A8C5D6"/>
<path opacity="0.7" d="M145.774 119.642C144.588 117.014 143.636 114.287 142.93 111.491L135.193 103.755C135.379 105.938 135.694 108.108 136.137 110.253L145.942 119.999C145.886 119.88 145.823 119.766 145.774 119.642Z" fill="#A8C5D6"/>
<path opacity="0.7" d="M171.92 141.408C169.577 140.788 167.286 139.985 165.069 139.007L173.628 147.515C175.027 147.141 176.385 146.719 177.703 146.247L172.651 141.192L171.92 141.408Z" fill="#A8C5D6"/>
<path opacity="0.7" d="M141.43 72.4916V83.7933L189.656 131.768C192.408 129.088 194.741 126.009 196.576 122.634L145.655 71.7C144.295 71.9791 142.887 72.243 141.43 72.4916Z" fill="#A8C5D6"/>
<path opacity="0.7" d="M162.471 66.6274L202.014 105.935C202.22 104.548 202.352 103.151 202.407 101.75V96.7948L169.022 63.4023C166.906 64.6087 164.718 65.6857 162.471 66.6274Z" fill="#A8C5D6"/>
<path opacity="0.7" d="M193.242 70.563L202.407 79.6749V72.4914C199.108 71.9307 196.063 71.2811 193.242 70.563Z" fill="#A8C5D6"/>
<path opacity="0.7" d="M143.835 114.628L170.313 140.948C170.844 141.108 171.377 141.263 171.92 141.408C173.028 141.113 174.109 140.785 175.162 140.423L142.042 107.302C142.464 109.784 143.064 112.232 143.835 114.628Z" fill="#A8C5D6"/>
</g>
<path d="M171.92 148.074H171.892C156.807 144.521 146.038 135.856 139.883 122.324C135.061 111.71 134.96 101.915 134.96 101.819V67.0158C134.96 66.9846 134.971 66.9545 134.992 66.9311C135.012 66.9077 135.041 66.8927 135.072 66.8889C155.878 64.2449 166.556 58.1805 171.836 53.5573C171.859 53.5365 171.889 53.5249 171.92 53.5249C171.951 53.5249 171.981 53.5365 172.004 53.5573C177.287 58.1805 187.944 64.2449 208.771 66.8889C208.802 66.8927 208.83 66.9077 208.851 66.9311C208.872 66.9545 208.883 66.9846 208.883 67.0158V101.804C208.883 101.903 208.801 111.672 203.957 122.321C197.804 135.853 187.035 144.519 171.958 148.071L171.92 148.074ZM135.214 67.13V101.816C135.214 101.915 135.31 111.654 140.113 122.217C146.231 135.666 156.931 144.293 171.92 147.82C186.909 144.28 197.611 135.668 203.727 122.217C208.548 111.619 208.629 101.903 208.629 101.806V67.1274C187.926 64.4809 177.249 58.4495 171.92 53.8212C166.594 58.4495 155.914 64.4809 135.214 67.1274V67.13Z" fill="white"/>
<path d="M157.043 87.7007C156.937 87.8328 156.879 87.9963 156.877 88.1654C156.874 88.3345 156.928 88.4995 157.03 88.6345C157.101 88.7258 158.822 90.9334 162.529 90.9334C164.376 90.9334 165.896 90.0859 167.35 89.2637C168.804 88.4416 170.21 87.6753 171.902 87.6753C173.594 87.6753 174.924 88.4898 176.355 89.3526C177.837 90.2483 179.367 91.1668 181.296 91.1668C185.152 91.1668 186.766 88.6827 186.827 88.5812C186.914 88.4483 186.956 88.2914 186.947 88.1331C186.938 87.9747 186.879 87.8233 186.779 87.7007C184.985 85.4841 182.719 83.6964 180.145 82.4684C177.572 81.2403 174.756 80.603 171.905 80.603C169.053 80.603 166.238 81.2403 163.664 82.4684C161.091 83.6964 158.824 85.4841 157.03 87.7007H157.043Z" fill="white"/>
<path d="M153.98 92.8694C152.958 95.5315 152.543 98.3884 152.766 101.231C152.99 104.074 153.846 106.831 155.272 109.301C156.698 111.771 158.658 113.89 161.008 115.505C163.359 117.12 166.04 118.189 168.857 118.634C169.023 118.659 169.193 118.628 169.34 118.547C169.487 118.465 169.603 118.337 169.669 118.183C169.715 118.074 170.768 115.47 168.908 112.26C167.984 110.667 166.49 109.774 165.048 108.913C163.607 108.053 162.24 107.236 161.392 105.767C160.555 104.321 160.585 102.742 160.631 101.07C160.664 99.3398 160.697 97.5484 159.733 95.8838C157.807 92.537 154.843 92.3873 154.721 92.3822C154.562 92.3758 154.405 92.4194 154.272 92.5068C154.14 92.5942 154.037 92.721 153.98 92.8694Z" fill="white"/>
<path d="M189.063 92.4279C188.946 92.4456 186.17 92.8339 184.31 96.0437C183.394 97.6473 183.366 99.3829 183.343 101.068C183.321 102.753 183.293 104.339 182.443 105.8C181.593 107.262 180.23 108.013 178.766 108.817C177.244 109.652 175.683 110.517 174.721 112.189C174.057 113.294 173.699 114.556 173.684 115.846C173.665 116.687 173.838 117.521 174.191 118.284C174.264 118.424 174.379 118.537 174.521 118.608C174.662 118.678 174.822 118.701 174.978 118.675C177.793 118.227 180.473 117.156 182.822 115.54C185.171 113.924 187.13 111.805 188.556 109.336C189.981 106.867 190.838 104.111 191.063 101.269C191.288 98.4266 190.876 95.5701 189.857 92.9074C189.796 92.7512 189.685 92.6194 189.541 92.5327C189.398 92.446 189.23 92.4091 189.063 92.4279Z" fill="white"/>
<path d="M149.712 52.7173L141.029 70.3752L145.089 71.2912L151.225 63.0471C152.017 61.9803 152.469 60.6991 152.521 59.3711C152.573 58.0431 152.223 56.7304 151.516 55.6049L149.712 52.7173Z" fill="#B3B9C3"/>
<path d="M120.621 16.7622C120.621 16.7622 122.486 17.6833 122.128 19.226C121.925 20.1116 124.508 17.4118 120.621 16.7622Z" fill="#F2F3F5"/>
<path d="M126.388 12.6871C126.388 12.6871 132.169 10.8932 131.463 15.288C130.758 19.6828 126.239 14.0116 126.388 12.6871Z" fill="#676F7C"/>
<path d="M125.523 19.7031C125.523 19.7031 123.592 19.5204 123.415 21.1977C123.237 22.8749 124.463 23.7985 126.064 23.0094C127.287 22.4055 128.365 20.3958 126.457 19.8148C126.152 19.7382 125.838 19.7007 125.523 19.7031Z" fill="#519BC6"/>
<path d="M130.745 19.7031C130.745 19.7031 132.676 19.5204 132.856 21.1977C133.036 22.8749 131.806 23.7985 130.205 23.0094C128.982 22.4055 127.903 20.3958 129.814 19.8148C130.118 19.7382 130.431 19.7007 130.745 19.7031Z" fill="#519BC6"/>
<g opacity="0.32">
<path opacity="0.32" d="M123.414 21.1976C123.399 21.3433 123.395 21.4901 123.402 21.6365L125.061 23.2884C125.411 23.2637 125.752 23.1687 126.063 23.0093C126.159 22.9629 126.25 22.9094 126.337 22.8494L123.785 20.2993C123.57 20.5521 123.44 20.8666 123.414 21.1976Z" fill="#A8C5D6"/>
<path opacity="0.32" d="M132.863 21.3397L131.242 19.7182C131.074 19.6977 130.904 19.6926 130.735 19.703C130.421 19.7006 130.108 19.7381 129.803 19.8147C129.478 19.8971 129.187 20.081 128.974 20.3399L131.866 23.1996C132.521 22.9611 132.919 22.281 132.863 21.3397Z" fill="#A8C5D6"/>
<path opacity="0.32" d="M125.353 19.698C125.095 19.6985 124.839 19.7361 124.592 19.8096L127.018 22.2202C127.147 22.0525 127.257 21.8703 127.345 21.6772L125.353 19.698Z" fill="#A8C5D6"/>
</g>
<path d="M124.957 23.4203C124.617 23.4261 124.283 23.3269 124.001 23.1361C123.455 22.753 123.194 22.0425 123.285 21.1848C123.47 19.4569 125.386 19.5634 125.526 19.5761C125.851 19.5728 126.175 19.6129 126.49 19.6954C127.363 19.9491 127.583 20.4845 127.616 20.8804C127.687 21.7735 126.896 22.7403 126.119 23.1234C125.759 23.3094 125.362 23.4109 124.957 23.4203ZM125.343 19.8222C124.889 19.8222 123.676 19.944 123.539 21.2102C123.458 21.9714 123.681 22.6007 124.148 22.928C124.615 23.2554 125.297 23.2452 126.008 22.8951C126.718 22.5449 127.426 21.6644 127.365 20.9007C127.327 20.4414 127.01 20.1166 126.419 19.9364C126.127 19.8626 125.827 19.8268 125.526 19.8299H125.523C125.463 19.8234 125.403 19.8208 125.343 19.8222Z" fill="#6E9FBB"/>
<path d="M131.311 23.4203C130.906 23.4112 130.509 23.3097 130.149 23.1234C129.37 22.7377 128.581 21.7456 128.652 20.8804C128.685 20.4845 128.906 19.9593 129.776 19.6954C130.091 19.6144 130.415 19.5743 130.74 19.5761C130.882 19.5761 132.798 19.4594 132.983 21.1848C133.075 22.0425 132.813 22.753 132.265 23.1361C131.984 23.3267 131.651 23.4259 131.311 23.4203ZM130.728 19.8299C130.432 19.8282 130.137 19.864 129.85 19.9364C129.261 20.1166 128.941 20.4439 128.906 20.9007C128.842 21.6619 129.555 22.5474 130.261 22.8951C130.966 23.2427 131.649 23.2579 132.121 22.928C132.593 22.5982 132.811 21.974 132.73 21.2102C132.565 19.6878 130.832 19.8223 130.758 19.8299H130.728Z" fill="#6E9FBB"/>
<path d="M128.789 20.8829C128.758 20.8826 128.728 20.8712 128.704 20.8507C128.681 20.8302 128.666 20.802 128.662 20.7713C128.662 20.7484 128.583 20.1851 128.134 20.1851C127.685 20.1851 127.609 20.7484 127.606 20.7713C127.604 20.7879 127.599 20.804 127.591 20.8187C127.583 20.8333 127.571 20.8462 127.558 20.8565C127.545 20.8669 127.53 20.8746 127.514 20.8791C127.498 20.8836 127.481 20.8849 127.464 20.8829C127.447 20.8809 127.431 20.8757 127.417 20.8674C127.402 20.8592 127.389 20.8482 127.379 20.835C127.369 20.8218 127.361 20.8067 127.356 20.7905C127.352 20.7744 127.35 20.7575 127.352 20.7408C127.385 20.4617 127.591 19.9314 128.131 19.9314C128.672 19.9314 128.877 20.4617 128.91 20.7408C128.915 20.7741 128.906 20.8078 128.885 20.8344C128.865 20.8611 128.835 20.8785 128.801 20.8829H128.789Z" fill="#6E9FBB"/>
<path d="M126.65 20.0049C126.633 20.0061 126.616 20.004 126.601 19.9987C126.585 19.9934 126.57 19.985 126.557 19.9741C126.532 19.9519 126.516 19.9206 126.514 19.8869C126.512 19.8533 126.523 19.8201 126.545 19.7946C126.567 19.7692 126.598 19.7536 126.632 19.7512C127.626 19.5719 128.645 19.5719 129.639 19.7512C129.655 19.7537 129.671 19.7594 129.685 19.768C129.7 19.7766 129.712 19.788 129.722 19.8014C129.732 19.8148 129.739 19.8301 129.743 19.8463C129.747 19.8625 129.748 19.8793 129.745 19.8958C129.74 19.9289 129.722 19.9584 129.695 19.9783C129.668 19.9982 129.634 20.0068 129.601 20.0024C128.631 19.8265 127.637 19.8265 126.667 20.0024L126.65 20.0049Z" fill="#6E9FBB"/>
<path d="M118.685 35.2549L119.652 32.7327C119.652 32.7327 122.189 35.6761 125.706 35.435C125.706 35.435 123.993 37.2112 124.278 40.3119C121.913 39.279 119.95 37.5037 118.685 35.2549Z" fill="#9AA2AF"/>
<path d="M129.38 33.1946L128.482 31.6721C128.482 31.6721 129.375 33.5803 125.706 35.4326C125.706 35.4326 128.091 36.955 128.835 38.8911C128.835 38.8936 130.677 36.0314 129.38 33.1946Z" fill="#9AA2AF"/>
<path d="M142.869 80.8702C142.755 80.941 142.628 80.9901 142.496 81.0148L140.748 76.2673C140.725 76.1912 141.953 75.907 141.956 75.907L143.285 79.5533C143.377 79.7872 143.386 80.0457 143.311 80.2855C143.235 80.5253 143.079 80.7317 142.869 80.8702Z" fill="#F2F3F5"/>
<path d="M144.239 79.2589C144.107 79.283 143.971 79.283 143.838 79.2589L143.909 74.1993C143.909 74.1206 145.165 74.2957 145.165 74.2957L145.087 78.1703C145.093 78.4216 145.011 78.6672 144.857 78.8656C144.702 79.0639 144.484 79.2028 144.239 79.2589Z" fill="#F2F3F5"/>
<path d="M144.554 80.8928C144.452 80.9808 144.335 81.0488 144.209 81.0933L141.77 76.6604C141.737 76.5868 142.907 76.1225 142.91 76.125L144.757 79.5302C144.883 79.7464 144.932 79.9995 144.895 80.2473C144.858 80.4951 144.738 80.7229 144.554 80.8928Z" fill="#F2F3F5"/>
<path d="M146.838 80.9766C146.765 81.089 146.672 81.187 146.564 81.2659L142.968 77.7135C142.917 77.6551 143.907 76.8761 143.91 76.8787L146.645 79.6216C146.826 79.7921 146.944 80.0191 146.979 80.2653C147.014 80.5115 146.964 80.7624 146.838 80.9766Z" fill="#F2F3F5"/>
<path d="M148.106 77.8303C148.13 77.962 148.13 78.097 148.106 78.2287L144.99 78.1526L145.208 76.9143L147.043 76.9777C147.291 76.9785 147.531 77.0633 147.724 77.2182C147.917 77.373 148.052 77.5889 148.106 77.8303Z" fill="#F2F3F5"/>
<path d="M139.88 78.2895C139.746 78.283 139.614 78.2521 139.492 78.1982L140.271 75.1736L141.43 75.6608L140.961 77.437C140.905 77.6812 140.768 77.899 140.571 78.0541C140.374 78.2092 140.13 78.2923 139.88 78.2895Z" fill="#F2F3F5"/>
<path d="M111.39 90.2382C111.367 90.238 111.344 90.2315 111.324 90.2194C111.305 90.2074 111.289 90.1902 111.278 90.1697L110.74 89.1547C110.639 88.9644 110.575 88.756 110.555 88.5414C110.534 88.3267 110.555 88.11 110.618 87.9037L110.687 87.6805C110.692 87.6645 110.699 87.6495 110.71 87.6366C110.72 87.6236 110.733 87.6127 110.748 87.6047C110.762 87.5967 110.778 87.5917 110.795 87.5899C110.811 87.5881 110.828 87.5895 110.844 87.5942C110.86 87.5988 110.876 87.6067 110.889 87.6173C110.902 87.6279 110.913 87.641 110.921 87.6559C110.929 87.6708 110.934 87.6872 110.936 87.704C110.937 87.7209 110.936 87.7379 110.93 87.754L110.862 87.9773C110.808 88.1517 110.79 88.3349 110.807 88.5165C110.824 88.6981 110.878 88.8745 110.963 89.0354L111.501 90.0504C111.509 90.0651 111.514 90.0812 111.516 90.0978C111.518 90.1144 111.517 90.1312 111.512 90.1472C111.507 90.1633 111.499 90.1782 111.489 90.1912C111.478 90.2042 111.465 90.215 111.451 90.223C111.432 90.2328 111.411 90.238 111.39 90.2382Z" fill="#676F7C"/>
<path d="M110.717 91.314H110.684C110.255 91.1847 109.861 90.9571 109.535 90.6492C109.523 90.6378 109.513 90.624 109.507 90.6088C109.5 90.5935 109.497 90.577 109.497 90.5604C109.497 90.5437 109.5 90.5273 109.507 90.512C109.513 90.4967 109.523 90.483 109.535 90.4716C109.559 90.4483 109.591 90.4353 109.624 90.4353C109.657 90.4353 109.689 90.4483 109.713 90.4716C110.009 90.7472 110.364 90.9527 110.75 91.0729C110.767 91.0768 110.782 91.0838 110.795 91.0936C110.808 91.1034 110.82 91.1157 110.828 91.1299C110.837 91.1441 110.842 91.1598 110.845 91.1761C110.847 91.1925 110.846 91.2092 110.842 91.2252C110.834 91.2515 110.817 91.2744 110.794 91.2904C110.772 91.3064 110.745 91.3147 110.717 91.314Z" fill="#676F7C"/>
<path d="M142.978 70.4615L141.029 70.3752L140.197 73.7348C140.013 74.4784 140.11 75.264 140.471 75.9398L141.029 76.9852L146.434 77.5663L146.18 75.4856C146.11 74.9056 145.841 74.3678 145.419 73.9631C145.32 73.8697 145.24 73.7569 145.186 73.6317C145.132 73.5064 145.104 73.3714 145.105 73.2349V71.3014L142.978 70.4615Z" fill="#F2F3F5"/>
<path d="M145.102 71.6998L142.976 70.4616L141.029 70.3753L142.09 68.2185H143.838L146.3 69.7156L145.102 71.6998Z" fill="#9AA2AF"/>
<path d="M146.18 60.0253C146.154 60.0251 146.128 60.0172 146.107 60.0024C146.08 59.9822 146.062 59.9524 146.057 59.9193C146.052 59.8861 146.059 59.8523 146.079 59.8248C146.079 59.8096 147.144 58.3024 146.665 56.856C146.654 56.8241 146.657 56.7893 146.672 56.7593C146.688 56.7293 146.714 56.7066 146.746 56.6962C146.778 56.6858 146.813 56.6885 146.843 56.7037C146.873 56.7189 146.895 56.7454 146.906 56.7774C147.426 58.3607 146.33 59.9085 146.284 59.9745C146.272 59.9905 146.256 60.0034 146.238 60.0122C146.22 60.021 146.2 60.0255 146.18 60.0253Z" fill="#676F7C"/>
<path d="M145.762 80.5884C145.727 80.5883 145.695 80.5746 145.67 80.5503L143.181 78.0839C143.169 78.0721 143.16 78.0581 143.153 78.0426C143.147 78.0272 143.144 78.0106 143.144 77.9939C143.144 77.9771 143.147 77.9605 143.153 77.9451C143.16 77.9296 143.169 77.9156 143.181 77.9038C143.193 77.892 143.206 77.8826 143.222 77.8762C143.237 77.8698 143.253 77.8665 143.27 77.8665C143.286 77.8665 143.303 77.8698 143.318 77.8762C143.333 77.8826 143.347 77.892 143.359 77.9038L145.85 80.3701C145.874 80.3943 145.887 80.4266 145.887 80.4602C145.887 80.4939 145.874 80.5262 145.85 80.5503C145.827 80.5742 145.795 80.5879 145.762 80.5884Z" fill="#676F7C"/>
<path d="M143.617 80.1291C143.595 80.129 143.573 80.1228 143.554 80.1112C143.534 80.0996 143.519 80.083 143.508 80.0632L141.669 76.7214C141.653 76.6917 141.65 76.657 141.659 76.6249C141.669 76.5927 141.69 76.5654 141.719 76.5488C141.734 76.5408 141.75 76.5357 141.767 76.5339C141.783 76.5321 141.8 76.5336 141.816 76.5384C141.832 76.5431 141.847 76.5509 141.86 76.5614C141.873 76.5719 141.884 76.5849 141.892 76.5996L143.729 79.9414C143.737 79.9559 143.743 79.9721 143.745 79.9887C143.747 80.0054 143.745 80.0224 143.74 80.0385C143.736 80.0546 143.728 80.0696 143.717 80.0826C143.706 80.0955 143.693 80.1062 143.678 80.1139C143.66 80.1242 143.639 80.1295 143.617 80.1291Z" fill="#676F7C"/>
<path d="M141.473 78.3555C141.448 78.3556 141.423 78.3481 141.402 78.3341C141.381 78.3202 141.364 78.3002 141.354 78.2769L140.152 75.2193C140.139 75.1876 140.14 75.1525 140.154 75.1216C140.168 75.0906 140.193 75.0665 140.225 75.0543C140.257 75.0422 140.292 75.0432 140.323 75.057C140.354 75.0708 140.378 75.0963 140.39 75.1279L141.59 78.1728C141.596 78.1883 141.599 78.2049 141.599 78.2216C141.599 78.2382 141.596 78.2547 141.589 78.27C141.582 78.2854 141.573 78.2992 141.561 78.3108C141.549 78.3225 141.535 78.3316 141.519 78.3378C141.505 78.3462 141.49 78.3522 141.473 78.3555Z" fill="#676F7C"/>
<path d="M143.115 24.2348C145.223 24.2348 146.931 22.5262 146.931 20.4186C146.931 18.3109 145.223 16.6023 143.115 16.6023C141.007 16.6023 139.299 18.3109 139.299 20.4186C139.299 22.5262 141.007 24.2348 143.115 24.2348Z" fill="#F2F3F5"/>
<path d="M102.608 39.3959L100.667 40.4108C100.528 40.4837 100.372 40.5164 100.217 40.5052C100.061 40.4939 99.9109 40.4393 99.7844 40.3474C99.6579 40.2555 99.5596 40.13 99.5008 39.9852C99.4419 39.8403 99.4248 39.6819 99.4514 39.5278L99.8218 37.3659L98.2512 35.8435C98.1392 35.7344 98.06 35.5962 98.0225 35.4444C97.985 35.2927 97.9907 35.1334 98.0391 34.9848C98.0874 34.8361 98.1763 34.704 98.2959 34.6032C98.4154 34.5025 98.5608 34.4373 98.7155 34.4149L100.888 34.1003L101.857 32.1312C101.926 31.991 102.033 31.8729 102.166 31.7904C102.298 31.7078 102.452 31.6641 102.608 31.6641C102.764 31.6641 102.917 31.7078 103.05 31.7904C103.183 31.8729 103.29 31.991 103.359 32.1312L104.331 34.1003L106.5 34.4149C106.655 34.4373 106.8 34.5025 106.92 34.6032C107.039 34.704 107.128 34.8361 107.177 34.9848C107.225 35.1334 107.231 35.2927 107.193 35.4444C107.156 35.5962 107.077 35.7344 106.965 35.8435L105.394 37.3659L105.764 39.5278C105.791 39.6819 105.774 39.8403 105.715 39.9852C105.656 40.13 105.558 40.2555 105.431 40.3474C105.305 40.4393 105.155 40.4939 104.999 40.5052C104.843 40.5164 104.687 40.4837 104.549 40.4108L102.608 39.3959Z" fill="#F2F3F5"/>
<path d="M152.3 38.2414L150.369 39.2563C150.232 39.3287 150.077 39.3611 149.922 39.35C149.767 39.3388 149.618 39.2844 149.492 39.193C149.367 39.1017 149.269 38.9769 149.211 38.833C149.152 38.689 149.135 38.5315 149.161 38.3784L149.529 36.2292L147.966 34.7067C147.856 34.5979 147.778 34.4605 147.741 34.3097C147.704 34.159 147.71 34.001 147.758 33.8534C147.806 33.7058 147.894 33.5745 148.012 33.4742C148.131 33.374 148.275 33.3087 148.428 33.2858L150.588 32.9711L151.554 31.0148C151.623 30.8757 151.729 30.7586 151.861 30.6768C151.993 30.5949 152.145 30.5515 152.3 30.5515C152.455 30.5515 152.608 30.5949 152.739 30.6768C152.871 30.7586 152.977 30.8757 153.046 31.0148L154.013 32.9711L156.172 33.2858C156.326 33.3078 156.471 33.3726 156.59 33.4728C156.709 33.5729 156.798 33.7044 156.846 33.8524C156.894 34.0004 156.9 34.1588 156.862 34.3098C156.825 34.4609 156.746 34.5983 156.634 34.7067L155.071 36.2292L155.439 38.3784C155.465 38.5315 155.448 38.689 155.39 38.833C155.332 38.9769 155.234 39.1017 155.108 39.193C154.983 39.2844 154.834 39.3388 154.679 39.35C154.524 39.3611 154.369 39.3287 154.231 39.2563L152.3 38.2414Z" fill="#F2F3F5"/>
<path d="M107.512 20.9183C108.349 20.9183 109.027 20.2401 109.027 19.4035C109.027 18.5669 108.349 17.8887 107.512 17.8887C106.676 17.8887 105.998 18.5669 105.998 19.4035C105.998 20.2401 106.676 20.9183 107.512 20.9183Z" fill="#F2F3F5"/>
<path d="M164.681 34.953C165.361 34.953 165.911 34.402 165.911 33.7223C165.911 33.0427 165.361 32.4917 164.681 32.4917C164.001 32.4917 163.45 33.0427 163.45 33.7223C163.45 34.402 164.001 34.953 164.681 34.953Z" fill="#F2F3F5"/>
<path d="M235.203 121.312C235.18 121.311 235.157 121.304 235.136 121.292C235.116 121.279 235.1 121.261 235.089 121.24C228.57 108.114 217.132 98.7615 208.685 93.2274C208.657 93.2088 208.638 93.1799 208.631 93.1471C208.624 93.1143 208.631 93.0803 208.649 93.0523C208.658 93.038 208.67 93.0257 208.683 93.016C208.697 93.0064 208.712 92.9996 208.729 92.996C208.745 92.9924 208.762 92.9922 208.778 92.9954C208.795 92.9985 208.81 93.0049 208.824 93.0142C217.299 98.5661 228.773 107.949 235.317 121.126C235.333 121.156 235.335 121.191 235.325 121.223C235.314 121.255 235.292 121.281 235.262 121.296C235.244 121.306 235.224 121.311 235.203 121.312Z" fill="#B3B9C3"/>
<path d="M208.75 93.2477C208.725 93.2472 208.701 93.2402 208.679 93.2274C205.716 91.2827 202.65 89.4972 199.496 87.8785C199.471 87.8606 199.452 87.8341 199.445 87.8037C199.437 87.7733 199.441 87.7412 199.455 87.7133C199.469 87.6855 199.493 87.6637 199.522 87.6521C199.551 87.6404 199.584 87.6398 199.613 87.6501C202.774 89.2745 205.847 91.065 208.819 93.0142C208.847 93.0324 208.867 93.0611 208.874 93.0939C208.881 93.1267 208.875 93.161 208.857 93.1893C208.845 93.207 208.83 93.2216 208.811 93.2318C208.792 93.242 208.772 93.2474 208.75 93.2477Z" fill="white"/>
<path d="M194.955 85.7166C194.929 85.7164 194.903 85.7081 194.882 85.6929C194.86 85.6777 194.844 85.6562 194.836 85.6314C194.827 85.6067 194.826 85.5799 194.834 85.5547C194.841 85.5295 194.856 85.5071 194.876 85.4907C199.211 82.1339 203.835 79.1686 208.695 76.6301C208.725 76.6154 208.76 76.6127 208.792 76.6226C208.824 76.6325 208.851 76.6542 208.867 76.6834C208.883 76.7134 208.886 76.7482 208.876 76.7805C208.866 76.8127 208.844 76.8398 208.814 76.8559C203.967 79.3854 199.355 82.3422 195.033 85.6912C195.01 85.7075 194.983 85.7164 194.955 85.7166Z" fill="white"/>
<path d="M208.75 76.8838C208.721 76.8852 208.692 76.8764 208.669 76.859C208.645 76.8416 208.629 76.8165 208.622 76.7882C208.614 76.7598 208.617 76.7299 208.63 76.7034C208.642 76.6769 208.663 76.6555 208.69 76.6428C243.371 58.4825 260.529 35.7345 260.707 35.5087C260.716 35.4933 260.728 35.4799 260.742 35.4695C260.757 35.4591 260.773 35.4518 260.791 35.4482C260.808 35.4446 260.826 35.4447 260.843 35.4485C260.861 35.4523 260.877 35.4597 260.892 35.4703C260.906 35.4809 260.918 35.4944 260.927 35.5099C260.935 35.5254 260.941 35.5426 260.943 35.5604C260.944 35.5781 260.942 35.596 260.937 35.6129C260.931 35.6298 260.922 35.6453 260.91 35.6584C260.74 35.8868 243.546 58.6804 208.816 76.8686C208.796 76.8801 208.773 76.8854 208.75 76.8838Z" fill="#B3B9C3"/>
<path d="M231.788 127.462C231.759 127.462 231.73 127.452 231.708 127.433C231.685 127.415 231.669 127.389 231.664 127.361C231.638 127.234 228.989 114.559 222.158 107.246C222.147 107.234 222.138 107.22 222.132 107.204C222.126 107.189 222.123 107.172 222.124 107.155C222.124 107.139 222.128 107.122 222.135 107.107C222.141 107.092 222.151 107.078 222.163 107.066C222.176 107.055 222.19 107.046 222.206 107.04C222.221 107.034 222.238 107.031 222.255 107.032C222.271 107.032 222.288 107.036 222.303 107.043C222.318 107.049 222.332 107.059 222.344 107.071C229.225 114.43 231.887 127.18 231.912 127.31C231.916 127.326 231.916 127.343 231.912 127.359C231.909 127.376 231.903 127.391 231.894 127.405C231.885 127.419 231.873 127.431 231.859 127.44C231.845 127.45 231.83 127.456 231.813 127.46L231.788 127.462Z" fill="#B3B9C3"/>
<path d="M241.407 121.312C241.384 121.311 241.361 121.305 241.341 121.292C241.321 121.28 241.306 121.262 241.295 121.24C238.4 115.607 231.4 108.942 226.025 104.339C220.204 99.3502 215.003 95.6481 214.952 95.6125C214.938 95.6029 214.927 95.5907 214.918 95.5765C214.909 95.5624 214.903 95.5466 214.9 95.5301C214.897 95.5136 214.897 95.4966 214.901 95.4803C214.905 95.464 214.912 95.4486 214.922 95.4349C214.941 95.4077 214.971 95.3894 215.004 95.3837C215.037 95.378 215.071 95.3855 215.099 95.4045C215.15 95.4425 220.362 99.1497 226.19 104.146C231.587 108.761 238.608 115.453 241.521 121.126C241.536 121.156 241.539 121.191 241.528 121.223C241.518 121.255 241.495 121.281 241.465 121.296C241.448 121.306 241.428 121.312 241.407 121.312Z" fill="#B3B9C3"/>
<path d="M194.259 85.4476H194.236C194.204 85.4414 194.174 85.4225 194.155 85.3949C194.136 85.3673 194.129 85.3334 194.135 85.3004C194.541 82.9914 193.229 82.6843 193.216 82.6818C193.184 82.6739 193.155 82.6537 193.137 82.6254C193.118 82.5971 193.111 82.5628 193.117 82.5296C193.121 82.5132 193.128 82.4977 193.137 82.484C193.147 82.4703 193.159 82.4586 193.173 82.4496C193.188 82.4407 193.203 82.4346 193.22 82.4318C193.236 82.4289 193.253 82.4294 193.27 82.4331C193.285 82.4331 194.833 82.796 194.384 85.3436C194.379 85.3729 194.364 85.3995 194.341 85.4186C194.318 85.4377 194.289 85.448 194.259 85.4476Z" fill="white"/>
<path d="M194.955 84.5646H194.924C194.892 84.5568 194.864 84.5364 194.846 84.5078C194.828 84.4793 194.823 84.445 194.83 84.4124C195.11 83.0898 195.11 81.7233 194.83 80.4007C194.824 80.3681 194.829 80.3341 194.847 80.3057C194.864 80.2774 194.892 80.2569 194.924 80.2485C194.957 80.2408 194.991 80.2464 195.02 80.264C195.048 80.2816 195.069 80.3097 195.077 80.3423C195.371 81.7035 195.371 83.112 195.077 84.4732C195.069 84.4998 195.053 84.5232 195.031 84.5397C195.009 84.5563 194.982 84.565 194.955 84.5646Z" fill="white"/>
<path d="M196.028 86.0185C196.001 86.0187 195.974 86.0103 195.952 85.9944C195.93 85.9785 195.914 85.956 195.906 85.9302C195.898 85.9044 195.898 85.8766 195.907 85.851C195.915 85.8253 195.932 85.8031 195.954 85.7876C196.01 85.7496 197.304 84.8488 199.253 85.4755C199.269 85.4804 199.283 85.4884 199.296 85.499C199.308 85.5096 199.319 85.5226 199.326 85.5372C199.334 85.5518 199.338 85.5678 199.34 85.5842C199.341 85.6007 199.339 85.6172 199.334 85.6328C199.329 85.6489 199.321 85.6638 199.31 85.6767C199.3 85.6896 199.286 85.7003 199.272 85.7081C199.257 85.7159 199.24 85.7206 199.224 85.7221C199.207 85.7235 199.19 85.7217 199.174 85.7166C197.352 85.133 196.111 85.9855 196.099 85.9931C196.079 86.0092 196.054 86.0182 196.028 86.0185Z" fill="white"/>
<path d="M233.973 130.438C233.985 130.53 234.007 130.62 234.039 130.707C234.108 130.885 234.219 131.044 234.362 131.171C234.505 131.298 234.676 131.39 234.861 131.438C235.051 132.565 235.216 133.808 235.302 135.079L237.048 134.531L236.761 132.164C236.709 131.802 236.791 131.434 236.992 131.129C237.109 131.796 237.274 132.74 237.624 134.354L239.654 133.717L238.281 130.116C238.405 130.065 238.532 130.022 238.662 129.987L240.06 133.59L242.153 132.933C241.29 131.436 240.758 130.586 240.377 129.989C240.756 130.105 241.084 130.348 241.306 130.677L242.77 132.747L244.698 132.141C243.823 131.045 243.044 129.931 242.376 128.901C242.501 128.743 242.581 128.554 242.61 128.355C242.638 128.156 242.614 127.953 242.539 127.766C242.503 127.677 242.456 127.591 242.399 127.513C245.487 126.551 245.81 123.691 244.155 120.139C241.872 115.209 236.289 114.25 232.96 115.749C229.788 117.185 226.985 121.603 228.464 126.29C229.522 129.629 231.382 131.438 233.973 130.438ZM237.837 124.232C236.601 123.057 235.975 122.684 236.15 122.133C236.586 120.771 240.651 120.865 241.501 123.301C242.366 125.77 240.138 126.424 237.837 124.232ZM236.431 125.929C236.451 125.848 236.49 125.774 236.545 125.711C236.6 125.649 236.67 125.601 236.747 125.572C236.825 125.543 236.909 125.534 236.992 125.544C237.074 125.555 237.153 125.587 237.22 125.635C237.774 125.983 238.489 126.528 238.235 126.883C237.847 127.439 237.599 126.949 237.309 127.056C237.02 127.163 237.165 127.685 236.505 127.513C236.094 127.401 236.256 126.543 236.431 125.929ZM231.973 126.901C231.044 124.676 233.693 121.951 234.891 122.636C235.383 122.92 235.175 123.618 235.059 125.292C234.848 128.332 232.92 129.17 231.973 126.901Z" fill="#519BC6"/>
<path d="M219.23 106.064C219.204 106.063 219.179 106.055 219.158 106.04C219.137 106.025 219.12 106.004 219.111 105.98C217.789 102.339 213.021 99.1166 212.983 99.0836C212.958 99.0638 212.942 99.0354 212.937 99.0042C212.932 98.973 212.939 98.9411 212.957 98.9147C212.974 98.8883 213.001 98.8695 213.031 98.8617C213.062 98.854 213.095 98.858 213.122 98.873C213.173 98.906 217.999 102.172 219.349 105.894C219.361 105.926 219.359 105.961 219.345 105.991C219.33 106.021 219.305 106.045 219.273 106.056C219.259 106.062 219.245 106.064 219.23 106.064Z" fill="#B3B9C3"/>
<path d="M245.764 117.056C245.79 117.085 245.82 117.112 245.852 117.135C245.921 117.183 246 117.216 246.083 117.231C246.165 117.246 246.25 117.244 246.332 117.224C246.672 117.571 247.03 117.964 247.362 118.381L247.895 117.85L247.22 117.089C247.167 117.035 247.126 116.971 247.098 116.901C247.07 116.831 247.057 116.756 247.058 116.681C247.261 116.889 247.552 117.188 248.073 117.675L248.709 117.038L247.301 116.049C247.337 116.006 247.375 115.962 247.415 115.922L248.841 116.906L249.527 116.224C248.811 115.869 248.387 115.678 248.09 115.546C248.269 115.505 248.456 115.519 248.626 115.587L249.73 116.018L250.387 115.361C249.747 115.156 249.151 114.92 248.611 114.691C248.621 114.602 248.607 114.512 248.568 114.431C248.53 114.35 248.47 114.281 248.395 114.232C248.356 114.207 248.316 114.186 248.273 114.168C249.313 113.055 248.717 111.862 247.108 110.905C244.888 109.586 242.526 110.7 241.737 112.083C241.016 113.351 241.186 115.478 242.813 116.757C243.992 117.663 245.073 117.911 245.764 117.056ZM245.677 114.011C244.916 113.869 244.594 113.879 244.52 113.638C244.338 113.037 245.911 112.083 246.867 112.791C247.824 113.499 247.116 114.29 245.677 114.021V114.011ZM245.571 114.942C245.56 114.909 245.557 114.873 245.564 114.838C245.57 114.802 245.585 114.77 245.607 114.742C245.629 114.714 245.658 114.692 245.69 114.678C245.723 114.664 245.759 114.658 245.794 114.661C246.091 114.661 246.499 114.696 246.492 114.882C246.492 115.168 246.266 115.049 246.182 115.15C246.099 115.252 246.281 115.404 245.992 115.49C245.797 115.551 245.657 115.211 245.571 114.945V114.942ZM244.19 116.239C243.323 115.666 243.581 114.133 244.19 114.108C244.444 114.108 244.538 114.397 244.911 115.019C245.573 116.145 245.076 116.833 244.19 116.249V116.239Z" fill="#B3B9C3"/>
<path d="M247.451 131.575L244.427 130.624L244.376 130.243C244.328 129.884 244.404 129.52 244.592 129.21C245.099 128.383 246.5 126.807 250.209 125.427C255.538 123.448 260.651 130.586 260.331 134.732C260.011 138.878 252.364 131.197 252.364 131.197L247.451 131.575Z" fill="#818B9B"/>
<path d="M248.758 133.699C248.758 133.699 247.997 135.541 248.938 135.897C249.879 136.252 251.711 136.468 251.711 136.468L247.936 137.64L246.667 135.557L248.758 133.699Z" fill="#818B9B"/>
<path d="M253.886 127.292C251.316 126.899 249.461 128.381 247.725 129.429C244.592 131.322 244.404 129.921 244.379 129.809C244.379 129.809 243.775 132.76 245.85 141.481C246.216 143.004 250.925 139.383 250.131 141.583C249.649 142.905 251.115 142.456 251.547 142.484C251.547 142.484 250.956 143.212 251.232 143.658C251.509 144.105 252.262 143.76 252.501 144.014C252.739 144.267 254.163 146.686 254.163 146.686C254.163 146.686 254.906 148.208 256.122 147.47C256.754 147.081 260.07 144.245 261.704 140.459C263.244 133.014 257.368 127.825 253.886 127.292ZM247.637 136.427C248.04 133.273 251.821 134.118 251.821 134.118C250.067 137.482 247.637 136.432 247.637 136.432V136.427Z" fill="#D1D5DB"/>
<path d="M254.84 136.041C254.897 136.6 254.842 137.165 254.68 137.703C254.518 138.24 254.25 138.741 253.894 139.175L253.325 139.868C253.147 140.09 252.924 140.272 252.671 140.403C252.418 140.535 252.141 140.611 251.856 140.629C251.61 140.642 251.367 140.689 251.133 140.768C250.999 140.818 250.888 140.915 250.821 141.041C250.754 141.167 250.736 141.313 250.769 141.452C250.803 141.591 250.886 141.713 251.003 141.794C251.12 141.876 251.263 141.912 251.405 141.895C252.441 141.762 253.385 141.227 254.031 140.406L254.226 140.152C254.678 139.577 254.972 138.895 255.079 138.173C255.187 137.45 255.105 136.712 254.84 136.031V136.041Z" fill="#818B9B"/>
<path d="M252.747 144.379C252.632 144.675 252.62 145.001 252.712 145.305C252.804 145.609 252.995 145.873 253.254 146.056L254.14 146.67L252.747 144.379Z" fill="#818B9B"/>
<path d="M258.207 133.862C258.517 133.862 258.768 133.61 258.768 133.301C258.768 132.991 258.517 132.74 258.207 132.74C257.898 132.74 257.646 132.991 257.646 133.301C257.646 133.61 257.898 133.862 258.207 133.862Z" fill="#818B9B"/>
<path d="M259.474 133.722C259.01 133.74 258.551 133.635 258.141 133.417C258.113 133.4 258.092 133.371 258.084 133.339C258.076 133.306 258.081 133.271 258.098 133.242C258.115 133.213 258.143 133.193 258.175 133.184C258.207 133.175 258.242 133.18 258.271 133.197C259.461 133.897 261.805 133.174 263.599 132.146C265.444 131.093 266.644 129.802 266.644 128.848C266.644 128.414 266.391 128.051 265.903 127.767C263.739 126.518 258.596 129.218 258.545 129.246C258.53 129.254 258.514 129.259 258.498 129.26C258.481 129.262 258.464 129.26 258.449 129.255C258.433 129.25 258.418 129.242 258.405 129.231C258.393 129.221 258.382 129.207 258.375 129.193C258.367 129.178 258.362 129.162 258.36 129.146C258.358 129.129 258.36 129.113 258.365 129.097C258.369 129.081 258.377 129.066 258.388 129.054C258.398 129.041 258.411 129.03 258.426 129.023C258.644 128.908 263.754 126.231 266.038 127.546C266.614 127.878 266.906 128.307 266.906 128.848C266.906 130.104 265.266 131.484 263.736 132.357C262.397 133.123 260.768 133.722 259.474 133.722Z" fill="#B3B9C3"/>
<path d="M263.711 135.559L262.544 144.171C262.51 144.412 262.542 144.657 262.636 144.881C262.73 145.105 262.882 145.299 263.077 145.444C263.271 145.589 263.502 145.679 263.743 145.705C263.985 145.73 264.228 145.69 264.449 145.59L272.899 141.73C273.119 141.629 273.309 141.471 273.447 141.271C273.586 141.072 273.669 140.84 273.687 140.598C273.705 140.356 273.658 140.113 273.551 139.896C273.443 139.678 273.279 139.493 273.076 139.36L265.799 134.605C265.607 134.479 265.387 134.403 265.158 134.386C264.929 134.368 264.7 134.409 264.491 134.504C264.282 134.6 264.101 134.747 263.965 134.931C263.828 135.115 263.741 135.332 263.711 135.559Z" fill="#F2F3F5"/>
<path d="M266.667 136.409C266.607 136.26 266.517 136.124 266.403 136.011C266.289 135.897 266.153 135.808 266.004 135.749C265.854 135.689 265.694 135.661 265.534 135.665C265.373 135.669 265.215 135.705 265.068 135.772C264.922 135.839 264.791 135.935 264.683 136.054C264.575 136.173 264.492 136.313 264.439 136.465C264.386 136.617 264.365 136.778 264.377 136.939C264.388 137.099 264.432 137.256 264.505 137.399C264.739 137.838 265.011 138.255 265.32 138.645C265.826 139.305 266.251 140.023 266.588 140.784C266.67 140.95 266.813 141.077 266.988 141.14C267.162 141.202 267.354 141.193 267.522 141.116C267.69 141.039 267.822 140.9 267.889 140.727C267.956 140.555 267.953 140.363 267.88 140.192C267.524 139.442 267.257 138.653 267.086 137.84C266.99 137.351 266.85 136.872 266.667 136.409Z" fill="white"/>
<path d="M268.035 143.131C268.514 143.131 268.903 142.742 268.903 142.263C268.903 141.784 268.514 141.395 268.035 141.395C267.556 141.395 267.167 141.784 267.167 142.263C267.167 142.742 267.556 143.131 268.035 143.131Z" fill="white"/>
<path d="M224.884 64.6305C224.857 64.6302 224.831 64.6213 224.809 64.6052C224.788 64.5891 224.772 64.5666 224.764 64.541C224.756 64.5153 224.756 64.4878 224.765 64.4624C224.774 64.437 224.791 64.415 224.813 64.3996C236.391 56.5818 242.514 45.4578 245.619 37.503C248.979 28.8758 249.606 22.0247 249.611 21.9511C249.612 21.9345 249.617 21.9182 249.624 21.9033C249.632 21.8884 249.642 21.8751 249.655 21.8643C249.668 21.8534 249.682 21.8452 249.698 21.8401C249.714 21.835 249.731 21.833 249.748 21.8344C249.781 21.8376 249.812 21.8537 249.834 21.8793C249.856 21.9049 249.867 21.9379 249.865 21.9714C249.865 22.04 249.23 28.9341 245.86 37.5892C242.75 45.5796 236.599 56.7518 224.962 64.6102C224.939 64.6244 224.911 64.6314 224.884 64.6305Z" fill="#B3B9C3"/>
<path d="M246.654 55.1786C246.627 55.1783 246.6 55.169 246.578 55.152C246.556 55.1351 246.54 55.1114 246.533 55.0847C246.526 55.0579 246.528 55.0296 246.538 55.0039C246.549 54.9783 246.567 54.9567 246.591 54.9426C252.338 51.6021 257.828 47.8398 263.018 43.6866C270.991 37.3202 281.414 27.3837 285.799 16.1912C285.805 16.1754 285.814 16.161 285.826 16.1488C285.837 16.1366 285.851 16.1267 285.866 16.1199C285.882 16.113 285.898 16.1093 285.915 16.1089C285.932 16.1085 285.948 16.1115 285.964 16.1176C285.995 16.1301 286.021 16.1543 286.034 16.1851C286.048 16.2159 286.049 16.2509 286.038 16.2825C281.63 27.5283 271.171 37.5029 263.173 43.8972C257.973 48.0575 252.472 51.8266 246.715 55.1735C246.696 55.1799 246.675 55.1816 246.654 55.1786Z" fill="#B3B9C3"/>
<path d="M196.028 88.4164C195.994 88.4145 195.962 88.3997 195.939 88.3752C195.916 88.3506 195.903 88.3182 195.903 88.2845C195.911 87.996 195.841 87.7107 195.703 87.4576C195.564 87.2045 195.361 86.9926 195.114 86.8432C195.087 86.8258 195.067 86.7985 195.059 86.767C195.052 86.7356 195.056 86.7023 195.072 86.674C195.088 86.6457 195.114 86.6246 195.145 86.615C195.176 86.6055 195.21 86.6081 195.239 86.6225C195.526 86.7943 195.763 87.0395 195.924 87.3329C196.085 87.6263 196.166 87.9573 196.157 88.2921C196.156 88.3255 196.142 88.3571 196.118 88.3803C196.093 88.4035 196.061 88.4164 196.028 88.4164Z" fill="white"/>
</g>
<defs>
<clipPath id="clip0_8179_31409">
<rect width="295.571" height="155.171" fill="white" transform="translate(0.428711)"/>
</clipPath>
</defs>
</svg>
