<svg width="10" height="10" viewBox="0 0 10 10" fill="none" xmlns="http://www.w3.org/2000/svg">
<path d="M9.28239 4.4675C9.21267 4.3972 9.12972 4.34141 9.03833 4.30333C8.94693 4.26526 8.8489 4.24565 8.7499 4.24565C8.65089 4.24565 8.55286 4.26526 8.46146 4.30333C8.37007 4.34141 8.28712 4.3972 8.2174 4.4675L5.7499 6.9425V1.25C5.7499 1.05109 5.67088 0.860322 5.53023 0.71967C5.38957 0.579018 5.19881 0.5 4.9999 0.5C4.80098 0.5 4.61022 0.579018 4.46957 0.71967C4.32891 0.860322 4.2499 1.05109 4.2499 1.25V6.9425L1.7824 4.4675C1.64117 4.32627 1.44962 4.24693 1.2499 4.24693C1.05017 4.24693 0.858623 4.32627 0.717395 4.4675C0.576167 4.60873 0.496826 4.80027 0.496826 5C0.496826 5.19973 0.576167 5.39127 0.717395 5.5325L4.4674 9.2825C4.53872 9.35078 4.62283 9.4043 4.7149 9.44C4.80467 9.47968 4.90174 9.50017 4.9999 9.50017C5.09805 9.50017 5.19512 9.47968 5.2849 9.44C5.37696 9.4043 5.46107 9.35078 5.5324 9.2825L9.28239 5.5325C9.35269 5.46278 9.40849 5.37983 9.44656 5.28843C9.48464 5.19704 9.50424 5.09901 9.50424 5C9.50424 4.90099 9.48464 4.80296 9.44656 4.71157C9.40849 4.62017 9.35269 4.53722 9.28239 4.4675Z" fill="#F47B20"/>
</svg>
