<svg width="32" height="32" viewBox="0 0 32 32" fill="none" xmlns="http://www.w3.org/2000/svg">
<path d="M13.875 22C14.2202 22 14.5 21.7202 14.5 21.375C14.5 21.0298 14.2202 20.75 13.875 20.75C13.5298 20.75 13.25 21.0298 13.25 21.375C13.25 21.7202 13.5298 22 13.875 22Z" fill="#EE7500"/>
<path d="M13.875 24.5C14.2202 24.5 14.5 24.2202 14.5 23.875C14.5 23.5298 14.2202 23.25 13.875 23.25C13.5298 23.25 13.25 23.5298 13.25 23.875C13.25 24.2202 13.5298 24.5 13.875 24.5Z" fill="#EE7500"/>
<path d="M13.875 27C14.2202 27 14.5 26.7202 14.5 26.375C14.5 26.0298 14.2202 25.75 13.875 25.75C13.5298 25.75 13.25 26.0298 13.25 26.375C13.25 26.7202 13.5298 27 13.875 27Z" fill="#EE7500"/>
<path d="M13.875 29.5C14.2202 29.5 14.5 29.2202 14.5 28.875C14.5 28.5298 14.2202 28.25 13.875 28.25C13.5298 28.25 13.25 28.5298 13.25 28.875C13.25 29.2202 13.5298 29.5 13.875 29.5Z" fill="#EE7500"/>
<path d="M29.5 21.375C29.5 21.0299 29.2201 20.75 28.875 20.75H26.375C26.0299 20.75 25.75 21.0299 25.75 21.375V23.875C25.75 24.2201 26.0299 24.5 26.375 24.5H28.875C29.2201 24.5 29.5 24.2201 29.5 23.875V21.375ZM28.25 23.25H27V22H28.25V23.25Z" fill="#EE7500"/>
<path d="M28.875 25.75H26.375C26.0299 25.75 25.75 26.0299 25.75 26.375V28.875C25.75 29.2201 26.0299 29.5 26.375 29.5H28.875C29.2201 29.5 29.5 29.2201 29.5 28.875V26.375C29.5 26.0299 29.2201 25.75 28.875 25.75ZM28.25 28.25H27V27H28.25V28.25Z" fill="#EE7500"/>
<path d="M24.5 21.375C24.5 21.0299 24.2201 20.75 23.875 20.75H21.375C21.0299 20.75 20.75 21.0299 20.75 21.375V23.875C20.75 24.2201 21.0299 24.5 21.375 24.5H23.875C24.2201 24.5 24.5 24.2201 24.5 23.875V21.375ZM23.25 23.25H22V22H23.25V23.25Z" fill="#EE7500"/>
<path d="M23.875 25.75H21.375C21.0299 25.75 20.75 26.0299 20.75 26.375V28.875C20.75 29.2201 21.0299 29.5 21.375 29.5H23.875C24.2201 29.5 24.5 29.2201 24.5 28.875V26.375C24.5 26.0299 24.2201 25.75 23.875 25.75ZM23.25 28.25H22V27H23.25V28.25Z" fill="#EE7500"/>
<path d="M19.5 21.375C19.5 21.0299 19.2201 20.75 18.875 20.75H16.375C16.0299 20.75 15.75 21.0299 15.75 21.375V23.875C15.75 24.2201 16.0299 24.5 16.375 24.5H18.875C19.2201 24.5 19.5 24.2201 19.5 23.875V21.375ZM18.25 23.25H17V22H18.25V23.25Z" fill="#EE7500"/>
<path d="M18.875 25.75H16.375C16.0299 25.75 15.75 26.0299 15.75 26.375V28.875C15.75 29.2201 16.0299 29.5 16.375 29.5H18.875C19.2201 29.5 19.5 29.2201 19.5 28.875V26.375C19.5 26.0299 19.2201 25.75 18.875 25.75ZM18.25 28.25H17V27H18.25V28.25Z" fill="#EE7500"/>
<path d="M31.375 25.75C31.7202 25.75 32 25.4702 32 25.125C32 24.7798 31.7202 24.5 31.375 24.5C31.0298 24.5 30.75 24.7798 30.75 25.125C30.75 25.4702 31.0298 25.75 31.375 25.75Z" fill="#EE7500"/>
<path d="M31.75 18.375L29.4038 16.6154C29.2001 14.4493 28.4963 6.9645 28.2472 4.3165C28.2171 3.99544 27.9475 3.75 27.625 3.75H27V3.125C27 1.40188 25.5981 0 23.875 0C22.8544 0 21.9056 0.502938 21.3259 1.31763C21.1379 1.27313 20.9443 1.25 20.75 1.25C19.8354 1.25 19.0087 1.75069 18.5727 2.52069C18.4662 2.50688 18.3585 2.5 18.25 2.5C17.7169 2.5 17.2051 2.669 16.7827 2.9755C16.2893 2.66613 15.7171 2.5 15.125 2.5C13.4019 2.5 12 3.90188 12 5.625C12 7.34812 13.4019 8.75 15.125 8.75C15.4283 8.75 15.728 8.70456 16.0158 8.61913C16.4319 9.44175 17.2903 10 18.25 10C19.2653 10 20.1494 9.38762 20.5384 8.50519C20.9962 8.66625 21.4904 8.75 22 8.75C22.7812 8.75 23.5184 8.55156 24.1301 8.20125C24.1313 8.211 24.1329 8.22062 24.1346 8.23025C24.0648 8.849 23.4664 15.254 23.4154 15.8741L21.75 14.625C21.5606 14.4831 21.3073 14.4601 21.0955 14.566C20.8838 14.6719 20.75 14.8883 20.75 15.125V17.625L16.75 14.625C16.5607 14.4831 16.3071 14.4602 16.0955 14.566C15.8838 14.6719 15.75 14.8883 15.75 15.125V17.625L14.5 16.6875V12.25C14.5 11.2161 13.6589 10.375 12.625 10.375H7.25C6.21613 10.375 5.375 11.2161 5.375 12.25V13.3129C3.95031 13.6032 2.875 14.8659 2.875 16.375V23.25H0.625C0.279875 23.25 0 23.5299 0 23.875V31.375C0 31.7201 0.279875 32 0.625 32H31.375C31.7201 32 32 31.7201 32 31.375V27.9375C32 27.5924 31.7201 27.3125 31.375 27.3125C31.0299 27.3125 30.75 27.5924 30.75 27.9375V30.75H12V16.375L16 19.375C16.1894 19.517 16.4429 19.5399 16.6545 19.434C16.8662 19.3281 17 19.1117 17 18.875V16.375L21 19.375C21.1894 19.517 21.4429 19.5399 21.6545 19.434C21.8662 19.3281 22 19.1117 22 18.875V16.3751L26 19.375C26.1894 19.517 26.4428 19.5399 26.6546 19.434C26.8662 19.3281 27 19.1117 27 18.875V16.375L30.75 19.1875V22.3125C30.75 22.6576 31.0299 22.9375 31.375 22.9375C31.7201 22.9375 32 22.6576 32 22.3125V18.875C32 18.6783 31.9074 18.4931 31.75 18.375ZM4.125 16.375C4.125 15.3411 4.96613 14.5 6 14.5C7.03387 14.5 7.875 15.3411 7.875 16.375V23.25H4.125V16.375ZM7.875 30.75H4.125V27H7.875V30.75ZM10.75 30.75H9.125V26.375C9.125 26.0299 8.84513 25.75 8.5 25.75H3.5C3.15488 25.75 2.875 26.0299 2.875 26.375V30.75H1.25V24.5H10.75V30.75ZM13.25 15.75L11.75 14.625C11.3389 14.3168 10.75 14.6104 10.75 15.125V23.25H9.125V16.375C9.125 14.8659 8.04969 13.6032 6.625 13.3129V12.25C6.625 11.9054 6.90538 11.625 7.25 11.625H12.625C12.9696 11.625 13.25 11.9054 13.25 12.25V15.75ZM27.5262 10H25.2236L25.3412 8.75H27.4087L27.5262 10ZM27.056 5L27.2911 7.5H25.4589L25.6941 5H27.056ZM24.3137 6.32625C23.9286 7.03063 23.0109 7.5 22 7.5C21.5481 7.5 21.1178 7.40931 20.7362 7.23831C20.605 5.98238 19.5401 5 18.25 5C17.9049 5 17.625 5.27987 17.625 5.625C17.625 5.97013 17.9049 6.25 18.25 6.25C18.9864 6.25 19.5519 6.88856 19.4975 7.57387C19.4972 7.57681 19.4971 7.57975 19.4969 7.58269C19.4551 8.23725 18.9074 8.75 18.25 8.75C17.6354 8.75 17.104 8.29294 17.0137 7.68575C17.0046 7.6255 17 7.563 17 7.5C17 7.15487 16.7201 6.875 16.375 6.875C16.0678 6.875 15.8129 7.09681 15.7604 7.38888C15.5578 7.46169 15.3429 7.5 15.125 7.5C14.0911 7.5 13.25 6.65887 13.25 5.625C13.25 4.59113 14.0911 3.75 15.125 3.75C15.5976 3.75 16.049 3.92644 16.3961 4.24675C16.5214 4.36237 16.6891 4.42188 16.8582 4.41131C17.0283 4.40088 17.1867 4.3215 17.2969 4.19156C17.5347 3.91094 17.8821 3.75 18.25 3.75C18.4088 3.75 18.5639 3.7795 18.7112 3.83756C19.057 3.97419 19.4457 3.77981 19.5436 3.42044C19.6913 2.87856 20.1873 2.5 20.75 2.5C21.4301 2.5 22 3.04806 22 3.75C22 4.09513 22.2799 4.375 22.625 4.375C22.9701 4.375 23.25 4.09513 23.25 3.75C23.25 3.03775 22.9523 2.37756 22.4461 1.91231C22.7977 1.49981 23.3184 1.25 23.875 1.25C24.9089 1.25 25.75 2.09113 25.75 3.125V3.75H25.125C24.8025 3.75 24.5329 3.99544 24.5028 4.3165L24.3137 6.32625ZM26.75 14.625C26.5606 14.4831 26.3072 14.4602 26.0955 14.566C25.8838 14.6719 25.75 14.8883 25.75 15.125V17.6251L24.5882 16.7537L25.106 11.25H27.6437L28.0531 15.6023L26.75 14.625Z" fill="#EE7500"/>
</svg>
