<svg width="32" height="35" viewBox="0 0 32 35" fill="none" xmlns="http://www.w3.org/2000/svg">
<path d="M7.54997 9.16489C7.6079 9.22288 7.67669 9.26889 7.75241 9.30028C7.82813 9.33167 7.90929 9.34783 7.99126 9.34783C8.07323 9.34783 8.15439 9.33167 8.23011 9.30028C8.30584 9.26889 8.37463 9.22288 8.43255 9.16489C8.49055 9.10696 8.53655 9.03817 8.56794 8.96245C8.59933 8.88673 8.61549 8.80557 8.61549 8.7236C8.61549 8.64163 8.59933 8.56047 8.56794 8.48475C8.53655 8.40903 8.49055 8.34024 8.43255 8.28231C8.34519 8.19524 8.23397 8.13602 8.11296 8.11215C7.99194 8.08828 7.86657 8.10083 7.75268 8.1482C7.67653 8.17834 7.60749 8.22401 7.54997 8.28231C7.46237 8.36932 7.40257 8.48038 7.37815 8.60141C7.35372 8.72244 7.36576 8.848 7.41275 8.96218C7.44404 9.03848 7.49076 9.10749 7.54997 9.16489Z" fill="#679AB4"/>
<path d="M15.2188 20.442C15.4328 20.6231 15.7041 20.7225 15.9844 20.7225C16.2648 20.7225 16.5361 20.6231 16.7501 20.442C18.8146 18.6924 18.8583 18.6425 18.8988 18.5958C19.2903 18.1709 19.5074 17.6142 19.507 17.0364C19.517 16.4463 19.293 15.8762 18.8839 15.4508C18.4748 15.0253 17.914 14.7791 17.3239 14.766C16.8388 14.7661 16.3681 14.9311 15.9891 15.2338C15.6115 14.9306 15.1417 14.7656 14.6574 14.766C14.0674 14.7791 13.5065 15.0253 13.0974 15.4508C12.6883 15.8762 12.4643 16.4463 12.4744 17.0364C12.4731 17.5882 12.6689 18.1224 13.0264 18.5428C13.0607 18.5958 13.1199 18.6581 15.2188 20.442ZM14.6512 16.0073C14.8138 16.0108 14.9727 16.0567 15.1121 16.1404C15.2516 16.224 15.3668 16.3426 15.4465 16.4844C15.5015 16.5782 15.5801 16.656 15.6745 16.71C15.7688 16.7641 15.8757 16.7925 15.9844 16.7925C16.0932 16.7925 16.2 16.7641 16.2944 16.71C16.3888 16.656 16.4674 16.5782 16.5224 16.4844C16.6021 16.3426 16.7173 16.224 16.8567 16.1404C16.9962 16.0567 17.1551 16.0108 17.3177 16.0073C17.5769 16.0202 17.8205 16.1349 17.9957 16.3264C18.1709 16.5179 18.2634 16.7708 18.2533 17.0302C18.2572 17.2866 18.1661 17.5355 17.9975 17.7288C17.957 17.7662 17.6857 18.0126 15.9797 19.4534C14.8664 18.5178 14.0805 17.8348 13.9401 17.7069C13.7892 17.5162 13.7078 17.2797 13.7094 17.0364C13.7035 16.907 13.7232 16.7776 13.7674 16.6558C13.8116 16.534 13.8793 16.4221 13.9668 16.3265C14.0543 16.2309 14.1598 16.1535 14.2772 16.0987C14.3947 16.044 14.5217 16.0129 14.6512 16.0073Z" fill="#679AB4"/>
<path d="M11.439 28.5755H20.5299C21.0358 28.5747 21.5208 28.3734 21.8786 28.0156C22.2364 27.6578 22.4377 27.1728 22.4385 26.6669V13.8803C22.4377 13.3744 22.2364 12.8894 21.8786 12.5316C21.5208 12.1739 21.0358 11.9725 20.5299 11.9717H14.6699L18.2221 10.6338C18.3772 10.5759 18.5029 10.4588 18.5716 10.3082C18.6403 10.1575 18.6464 9.98582 18.5885 9.83073C18.5306 9.67564 18.4135 9.54991 18.2629 9.48119C18.1123 9.41247 17.9405 9.40639 17.7855 9.46428L10.915 12.0465C10.5166 12.1608 10.1662 12.4014 9.91642 12.7322C9.66667 13.0629 9.53117 13.4659 9.53033 13.8803V26.6669C9.53115 27.1728 9.7325 27.6578 10.0903 28.0156C10.448 28.3734 10.933 28.5747 11.439 28.5755ZM11.439 13.2223H20.5299C20.7052 13.2223 20.8734 13.2919 20.9974 13.4159C21.1214 13.5399 21.1911 13.7081 21.1911 13.8834V26.67C21.1902 26.8448 21.1202 27.0122 20.9963 27.1355C20.8724 27.2588 20.7047 27.3281 20.5299 27.3281H11.439C11.2636 27.3281 11.0954 27.2584 10.9714 27.1344C10.8475 27.0104 10.7778 26.8422 10.7778 26.6669V13.8803C10.7781 13.7591 10.8117 13.6403 10.8749 13.5369C10.9382 13.4335 11.0287 13.3495 11.1364 13.294L11.3017 13.2316C11.3467 13.2208 11.3927 13.2145 11.439 13.2129V13.2223Z" fill="#679AB4"/>
<path d="M19.1265 22.1698C19.0126 22.1224 18.8872 22.1098 18.7662 22.1337C18.6452 22.1576 18.534 22.2168 18.4466 22.3039C18.3886 22.3618 18.3426 22.4306 18.3112 22.5063C18.2798 22.582 18.2637 22.6632 18.2637 22.7452C18.2637 22.8271 18.2798 22.9083 18.3112 22.984C18.3426 23.0597 18.3886 23.1285 18.4466 23.1865C18.5637 23.3035 18.7224 23.3692 18.8879 23.3692C19.0534 23.3692 19.2122 23.3035 19.3292 23.1865C19.4462 23.0694 19.512 22.9107 19.512 22.7452C19.512 22.5796 19.4462 22.4209 19.3292 22.3039C19.2711 22.2463 19.2022 22.2007 19.1265 22.1698Z" fill="#679AB4"/>
<path d="M13.0856 23.3705H16.0795C16.245 23.3705 16.4036 23.3047 16.5206 23.1878C16.6376 23.0708 16.7033 22.9121 16.7033 22.7467C16.7033 22.5813 16.6376 22.4226 16.5206 22.3057C16.4036 22.1887 16.245 22.123 16.0795 22.123H13.0856C12.9202 22.123 12.7615 22.1887 12.6446 22.3057C12.5276 22.4226 12.4619 22.5813 12.4619 22.7467C12.4619 22.9121 12.5276 23.0708 12.6446 23.1878C12.7615 23.3047 12.9202 23.3705 13.0856 23.3705Z" fill="#679AB4"/>
<path d="M13.0856 25.9028H18.8832C19.0487 25.9028 19.2073 25.8371 19.3243 25.7201C19.4413 25.6032 19.507 25.4445 19.507 25.2791C19.507 25.1137 19.4413 24.955 19.3243 24.838C19.2073 24.7211 19.0487 24.6554 18.8832 24.6554H13.0856C12.9202 24.6554 12.7615 24.7211 12.6446 24.838C12.5276 24.955 12.4619 25.1137 12.4619 25.2791C12.4619 25.4445 12.5276 25.6032 12.6446 25.7201C12.7615 25.8371 12.9202 25.9028 13.0856 25.9028Z" fill="#679AB4"/>
<path d="M29.4181 7.76772C29.3382 7.70976 29.2456 7.67162 29.148 7.65644C29.0504 7.64126 28.9506 7.64947 28.8568 7.6804C26.7922 8.38522 18.7959 9.08381 16.5661 3.39846C16.5206 3.28113 16.4407 3.18028 16.3369 3.10917C16.2331 3.03806 16.1103 3 15.9844 3C15.8586 3 15.7357 3.03806 15.6319 3.10917C15.5281 3.18028 15.4482 3.28113 15.4028 3.39846C14.5919 5.47238 12.9765 6.89138 10.6125 7.61491C10.5306 7.63565 10.4538 7.67282 10.3867 7.72415C10.3195 7.77549 10.2636 7.83993 10.2221 7.91355C10.1807 7.98718 10.1546 8.06846 10.1455 8.15246C10.1364 8.23646 10.1445 8.32144 10.1692 8.40222C10.194 8.48301 10.2349 8.55793 10.2895 8.62244C10.344 8.68694 10.4111 8.73968 10.4867 8.77746C10.5623 8.81525 10.6447 8.83728 10.7291 8.84223C10.8134 8.84717 10.8979 8.83493 10.9774 8.80624C13.2509 8.11078 14.9288 6.85083 15.986 5.06383C18.7928 9.78239 25.3638 9.78239 28.4357 9.11811V18.5958C28.4357 28.3697 17.6358 33.0477 15.9829 33.7089C14.33 33.0352 3.53311 28.3541 3.53311 18.5958V9.08069C4.06054 9.18936 4.59362 9.26849 5.12988 9.31771C5.21179 9.32549 5.29443 9.31706 5.37308 9.2929C5.45173 9.26875 5.52486 9.22934 5.58828 9.17692C5.6517 9.1245 5.70418 9.06011 5.74271 8.98741C5.78125 8.91471 5.80509 8.83514 5.81287 8.75323C5.82065 8.67132 5.81222 8.58868 5.78806 8.51002C5.76391 8.43137 5.7245 8.35825 5.67208 8.29482C5.61966 8.2314 5.55527 8.17893 5.48257 8.14039C5.40987 8.10186 5.3303 8.07802 5.24839 8.07024C4.52457 8.01574 3.80851 7.88507 3.11209 7.6804C3.01809 7.64851 2.91784 7.63951 2.81966 7.65415C2.72148 7.6688 2.62821 7.70667 2.54761 7.76461C2.46657 7.82231 2.40051 7.89856 2.35494 7.98699C2.30936 8.07542 2.28561 8.17347 2.28564 8.27295V18.5958C2.28564 30.1536 15.8488 35 15.9829 35C16.0552 34.9999 16.127 34.9873 16.1949 34.9626C16.3197 34.9033 29.6832 29.9945 29.6832 18.5958V8.27295C29.6824 8.17372 29.6579 8.07612 29.6118 7.98825C29.5657 7.90038 29.4993 7.82478 29.4181 7.76772Z" fill="#679AB4"/>
</svg>
