<svg width="37" height="37" viewBox="0 0 37 37" fill="none" xmlns="http://www.w3.org/2000/svg">
<path d="M21.3867 14.1571H18.4961C18.097 14.1571 17.7734 14.4807 17.7734 14.8798V17.7704C17.7734 18.1695 18.097 18.4931 18.4961 18.4931H21.3867C21.7858 18.4931 22.1094 18.1695 22.1094 17.7704V14.8798C22.1094 14.4807 21.7858 14.1571 21.3867 14.1571ZM20.6641 17.0478H19.2188V15.6024H20.6641V17.0478Z" fill="#679AB4"/>
<path d="M34.2043 0H21.5084C21.1094 0 20.7858 0.323533 20.7858 0.722656C20.7858 1.12178 21.1094 1.44531 21.5084 1.44531H33.4817V3.48248H3.03125V1.44531H15.0045C15.4036 1.44531 15.7272 1.12178 15.7272 0.722656C15.7272 0.323533 15.4036 0 15.0045 0H2.30859C1.90954 0 1.58594 0.323533 1.58594 0.722656V36.2773C1.58594 36.6765 1.90947 37 2.30859 37H34.2043C34.6033 37 34.9269 36.6765 34.9269 36.2773V0.722656C34.927 0.323533 34.6034 0 34.2043 0ZM25 14.1571C24.6009 14.1571 24.2773 14.4807 24.2773 14.8798V17.7704C24.2773 18.1695 24.6009 18.4931 25 18.4931H33.4816V28.4589H15.6055V16.3251C15.6055 15.926 15.2819 15.6024 14.8828 15.6024H5.92187C5.52282 15.6024 5.19922 15.926 5.19922 16.3251V28.4589H3.03125V9.90256H33.4816V14.1571H25ZM33.4817 15.6024V17.0478H25.7227V15.6024H33.4817ZM14.1602 28.4589H6.64453V17.0478H14.1602V28.4589ZM33.4817 29.9042V32.0722H3.03125V29.9042H33.4817ZM33.4817 4.92779V8.45725H3.03125V4.92779H33.4817ZM3.03125 35.5547V33.5175H33.4816V35.5547H3.03125Z" fill="#679AB4"/>
<path d="M18.2565 1.44531C18.6556 1.44531 18.9791 1.12177 18.9791 0.722656C18.9791 0.323544 18.6556 0 18.2565 0C17.8573 0 17.5338 0.323544 17.5338 0.722656C17.5338 1.12177 17.8573 1.44531 18.2565 1.44531Z" fill="#679AB4"/>
</svg>
