<svg width="25" height="25" viewBox="0 0 25 25" fill="none" xmlns="http://www.w3.org/2000/svg">
<path opacity="0.3" d="M7.48181 13.5H17.4818V21.656C17.4818 22.3258 16.8361 22.8063 16.1945 22.6138L12.4818 21.5L8.76916 22.6138C8.12755 22.8063 7.48181 22.3258 7.48181 21.656L7.48181 13.5Z" fill="white"/>
<circle opacity="0.3" cx="12.4818" cy="10.5" r="3" fill="white"/>
<path fill-rule="evenodd" clip-rule="evenodd" d="M14.4276 3.15831C13.3063 2.20276 11.6572 2.20277 10.5359 3.15831L10.4656 3.21823C9.98509 3.6277 9.38767 3.87516 8.75837 3.92538L8.66627 3.93273C7.19774 4.04992 6.03161 5.21605 5.91442 6.68458L5.90707 6.77668C5.85685 7.40598 5.60939 8.0034 5.19992 8.48389L5.14 8.55421C4.18445 9.67548 4.18445 11.3246 5.14 12.4459L5.19992 12.5162C5.60939 12.9967 5.85685 13.5941 5.90707 14.2234L5.91442 14.3155C6.03161 15.7841 7.19774 16.9502 8.66627 17.0674L8.75837 17.0747C9.38767 17.125 9.98509 17.3724 10.4656 17.7819L10.5359 17.8418C11.6572 18.7974 13.3063 18.7974 14.4276 17.8418L14.4979 17.7819C14.9784 17.3724 15.5758 17.125 16.2051 17.0747L16.2972 17.0674C17.7658 16.9502 18.9319 15.7841 19.0491 14.3155L19.0564 14.2234C19.1067 13.5941 19.3541 12.9967 19.7636 12.5162L19.8235 12.4459C20.779 11.3246 20.779 9.67548 19.8235 8.55421L19.7636 8.48389C19.3541 8.0034 19.1067 7.40598 19.0564 6.77668L19.0491 6.68458C18.9319 5.21605 17.7658 4.04992 16.2972 3.93273L16.2051 3.92538C15.5758 3.87516 14.9784 3.6277 14.4979 3.21823L14.4276 3.15831ZM12.4818 13.5001C14.1386 13.5001 15.4818 12.1569 15.4818 10.5001C15.4818 8.84321 14.1386 7.50006 12.4818 7.50006C10.8249 7.50006 9.48175 8.84321 9.48175 10.5001C9.48175 12.1569 10.8249 13.5001 12.4818 13.5001Z" fill="white"/>
</svg>
