<svg width="42" height="42" viewBox="0 0 42 42" fill="none" xmlns="http://www.w3.org/2000/svg">
<circle cx="21" cy="21" r="21" fill="#679AB4"/>
<circle cx="21" cy="21" r="21" stroke="white"/>
<path d="M28.875 19.6083H26.6875C26.5717 19.6088 26.4572 19.6323 26.3506 19.6773C26.2439 19.7224 26.1473 19.7882 26.0663 19.8708L24.9813 20.9996L22.5313 18.2083C22.4494 18.1209 22.3505 18.0512 22.2406 18.0036C22.1307 17.9559 22.0123 17.9314 21.8925 17.9314C21.7728 17.9314 21.6543 17.9559 21.5444 18.0036C21.4345 18.0512 21.3356 18.1209 21.2538 18.2083L19.7663 19.6958H18.375C18.1429 19.6958 17.9204 19.788 17.7563 19.9521C17.5922 20.1162 17.5 20.3388 17.5 20.5708C17.5 20.8029 17.5922 21.0255 17.7563 21.1896C17.9204 21.3537 18.1429 21.4458 18.375 21.4458H20.125C20.2402 21.4465 20.3543 21.4244 20.4609 21.3809C20.5675 21.3373 20.6645 21.2732 20.7463 21.1921L21.875 20.0196L24.325 22.8108C24.404 22.9009 24.5008 22.9738 24.6091 23.025C24.7175 23.0762 24.8352 23.1045 24.955 23.1083C25.0702 23.109 25.1843 23.0869 25.2909 23.0434C25.3975 22.9999 25.4945 22.9357 25.5763 22.8546L27.0638 21.3583H28.875C29.1071 21.3583 29.3296 21.2662 29.4937 21.1021C29.6578 20.938 29.75 20.7154 29.75 20.4833C29.75 20.2513 29.6578 20.0287 29.4937 19.8646C29.3296 19.7005 29.1071 19.6083 28.875 19.6083ZM22.4088 24.2458L20.7463 25.9083C20.6649 25.9904 20.5681 26.0555 20.4615 26.0999C20.3549 26.1443 20.2405 26.1672 20.125 26.1672C20.0095 26.1672 19.8951 26.1443 19.7885 26.0999C19.6819 26.0555 19.5851 25.9904 19.5038 25.9083L14.945 21.3496C14.645 21.0498 14.407 20.6937 14.2446 20.3019C14.0822 19.91 13.9987 19.49 13.9987 19.0658C13.9987 18.6417 14.0822 18.2217 14.2446 17.8298C14.407 17.438 14.645 17.0819 14.945 16.7821C15.5502 16.1788 16.3699 15.8401 17.2244 15.8401C18.0789 15.8401 18.8986 16.1788 19.5038 16.7821C19.5851 16.8641 19.6819 16.9292 19.7885 16.9736C19.8951 17.018 20.0095 17.0409 20.125 17.0409C20.2405 17.0409 20.3549 17.018 20.4615 16.9736C20.5681 16.9292 20.6649 16.8641 20.7463 16.7821C21.3611 16.1974 22.1771 15.8713 23.0256 15.8713C23.8741 15.8713 24.6902 16.1974 25.305 16.7821C25.5 16.9796 25.6704 17.2 25.8125 17.4383C25.9399 17.6135 26.1278 17.7352 26.3397 17.7799C26.5517 17.8246 26.7727 17.789 26.96 17.6801C27.1472 17.5713 27.2874 17.3968 27.3535 17.1905C27.4195 16.9842 27.4067 16.7607 27.3175 16.5633C27.1012 16.2042 26.8427 15.8723 26.5475 15.5746C25.7171 14.7345 24.6147 14.2176 23.4377 14.1165C22.2608 14.0155 21.0864 14.337 20.125 15.0233C19.382 14.4881 18.5056 14.1685 17.5924 14.0999C16.6793 14.0313 15.765 14.2163 14.9503 14.6345C14.1357 15.0527 13.4524 15.6878 12.9759 16.4697C12.4994 17.2517 12.2482 18.1501 12.25 19.0658C12.2497 19.7169 12.3788 20.3616 12.6296 20.9624C12.8805 21.5632 13.2481 22.1082 13.7113 22.5658L18.27 27.1246C18.7622 27.6162 19.4294 27.8923 20.125 27.8923C20.8206 27.8923 21.4878 27.6162 21.98 27.1246L23.625 25.4796C23.788 25.3157 23.8795 25.0939 23.8795 24.8627C23.8795 24.6316 23.788 24.4098 23.625 24.2458C23.4619 24.0881 23.2438 24 23.0169 24C22.79 24 22.5719 24.0881 22.4088 24.2458Z" fill="white"/>
</svg>
