<svg width="32" height="32" viewBox="0 0 32 32" fill="none" xmlns="http://www.w3.org/2000/svg">
<path d="M0 16C0 7.16344 7.16344 0 16 0C24.8366 0 32 7.16344 32 16C32 24.8366 24.8366 32 16 32C7.16344 32 0 24.8366 0 16Z" fill="white"/>
<path d="M17.0579 16.0001L21.7829 11.2826C21.9242 11.1414 22.0035 10.9499 22.0035 10.7501C22.0035 10.5504 21.9242 10.3589 21.7829 10.2176C21.6417 10.0764 21.4502 9.99707 21.2504 9.99707C21.0507 9.99707 20.8592 10.0764 20.7179 10.2176L16.0004 14.9426L11.2829 10.2176C11.1417 10.0764 10.9502 9.99707 10.7504 9.99707C10.5507 9.99707 10.3592 10.0764 10.2179 10.2176C10.0767 10.3589 9.99737 10.5504 9.99737 10.7501C9.99737 10.9499 10.0767 11.1414 10.2179 11.2826L14.9429 16.0001L10.2179 20.7176C10.1476 20.7874 10.0919 20.8703 10.0538 20.9617C10.0157 21.0531 9.99609 21.1511 9.99609 21.2501C9.99609 21.3491 10.0157 21.4472 10.0538 21.5386C10.0919 21.63 10.1476 21.7129 10.2179 21.7826C10.2877 21.8529 10.3706 21.9087 10.462 21.9468C10.5534 21.9849 10.6514 22.0045 10.7504 22.0045C10.8495 22.0045 10.9475 21.9849 11.0389 21.9468C11.1303 21.9087 11.2132 21.8529 11.2829 21.7826L16.0004 17.0576L20.7179 21.7826C20.7877 21.8529 20.8706 21.9087 20.962 21.9468C21.0534 21.9849 21.1514 22.0045 21.2504 22.0045C21.3495 22.0045 21.4475 21.9849 21.5389 21.9468C21.6303 21.9087 21.7132 21.8529 21.7829 21.7826C21.8532 21.7129 21.909 21.63 21.9471 21.5386C21.9852 21.4472 22.0048 21.3491 22.0048 21.2501C22.0048 21.1511 21.9852 21.0531 21.9471 20.9617C21.909 20.8703 21.8532 20.7874 21.7829 20.7176L17.0579 16.0001Z" fill="#1A1C1F"/>
</svg>
