<svg width="45" height="45" viewBox="0 0 45 45" fill="none" xmlns="http://www.w3.org/2000/svg">
<rect width="45" height="45" rx="22.5" fill="#F47B20"/>
<path fill-rule="evenodd" clip-rule="evenodd" d="M22.5 30.4754C26.8681 30.4754 30.4091 26.9049 30.4091 22.5004C30.4091 18.0959 26.8681 14.5254 22.5 14.5254C18.1319 14.5254 14.5909 18.0959 14.5909 22.5004C14.5909 26.9049 18.1319 30.4754 22.5 30.4754ZM22.5 28.7665C25.9321 28.7665 28.7143 25.961 28.7143 22.5004C28.7143 19.0397 25.9321 16.2343 22.5 16.2343C19.0679 16.2343 16.2857 19.0397 16.2857 22.5004C16.2857 25.961 19.0679 28.7665 22.5 28.7665Z" fill="white"/>
<path d="M12.0829 26.6692C12.1998 26.9661 12.4917 27.1524 12.8108 27.1524C13.4273 27.1524 13.8258 26.4849 13.6082 25.9081C13.2089 24.8492 12.9903 23.7006 12.9903 22.5004C12.9903 21.3002 13.2089 20.1515 13.6083 19.0926C13.8259 18.5158 13.4273 17.8483 12.8108 17.8483C12.4917 17.8483 12.1999 18.0346 12.0829 18.3315C11.5748 19.6214 11.2955 21.028 11.2955 22.5004C11.2955 23.9728 11.5748 25.3793 12.0829 26.6692Z" fill="white"/>
<path d="M31.3917 25.9081C31.1742 26.4849 31.5727 27.1524 32.1892 27.1524C32.5083 27.1524 32.8002 26.9661 32.9171 26.6692C33.4252 25.3793 33.7045 23.9728 33.7045 22.5004C33.7045 21.028 33.4252 19.6214 32.917 18.3315C32.8001 18.0346 32.5083 17.8483 32.1892 17.8483C31.5727 17.8483 31.1741 18.5158 31.3917 19.0926C31.7911 20.1515 32.0097 21.3002 32.0097 22.5004C32.0097 23.7006 31.7911 24.8492 31.3917 25.9081Z" fill="white"/>
<path d="M11.1558 28.4954C11.4566 29.073 11.0606 29.8109 10.4093 29.8109C10.1189 29.8109 9.84921 29.6564 9.71289 29.4C8.6199 27.3448 8 24.9956 8 22.5003C8 20.0052 8.61986 17.656 9.71278 15.6009C9.8491 15.3445 10.1188 15.19 10.4092 15.19C11.0605 15.19 11.4565 15.9279 11.1557 16.5055C10.2227 18.2969 9.69481 20.3365 9.69481 22.5003C9.69481 24.6643 10.2227 26.7039 11.1558 28.4954Z" fill="white"/>
<path d="M35.2871 29.4C35.1508 29.6564 34.8811 29.8109 34.5907 29.8109C33.9394 29.8109 33.5434 29.073 33.8442 28.4954C34.7773 26.7039 35.3052 24.6643 35.3052 22.5003C35.3052 20.3365 34.7773 18.2969 33.8443 16.5055C33.5435 15.9279 33.9395 15.19 34.5908 15.19C34.8812 15.19 35.1509 15.3445 35.2872 15.6009C36.3801 17.656 37 20.0052 37 22.5003C37 24.9956 36.3801 27.3448 35.2871 29.4Z" fill="white"/>
<path d="M25.4 22.3754C25.4 23.9494 24.124 25.2254 22.55 25.2254C20.976 25.2254 19.7 23.9494 19.7 22.3754C19.7 20.8014 20.976 19.5254 22.55 19.5254C24.124 19.5254 25.4 20.8014 25.4 22.3754Z" fill="white"/>
</svg>
