<svg width="20" height="21" viewBox="0 0 20 21" fill="none" xmlns="http://www.w3.org/2000/svg">
<path d="M19.1498 1.86025C18.7678 1.47082 18.2833 1.19747 17.7524 1.07183C17.2215 0.946185 16.6659 0.973375 16.1498 1.15025L1.9998 5.88025C1.42912 6.06705 0.930494 6.4264 0.572758 6.90869C0.215023 7.39098 0.0158211 7.97242 0.00265102 8.57276C-0.010519 9.17309 0.162992 9.76271 0.499233 10.2602C0.835473 10.7577 1.31786 11.1386 1.87981 11.3503L7.1198 13.3503C7.23912 13.3959 7.34776 13.4656 7.43895 13.5551C7.53014 13.6445 7.60191 13.7518 7.6498 13.8703L9.64981 19.1203C9.85339 19.6742 10.2228 20.152 10.7078 20.4884C11.1927 20.8248 11.7696 21.0036 12.3598 21.0003H12.4298C13.0308 20.9893 13.6134 20.7906 14.0958 20.4319C14.5781 20.0733 14.9362 19.5727 15.1198 19.0003L19.8498 4.83025C20.0218 4.31919 20.0474 3.7702 19.9237 3.24534C19.8 2.72048 19.5319 2.24071 19.1498 1.86025V1.86025ZM17.9998 4.20025L13.2198 18.3803C13.1643 18.5597 13.0528 18.7167 12.9017 18.8283C12.7505 18.9398 12.5677 19.0001 12.3798 19.0003C12.1931 19.0033 12.0098 18.9495 11.8544 18.8459C11.699 18.7423 11.5788 18.5938 11.5098 18.4203L9.50981 13.1703C9.36481 12.7888 9.14119 12.4421 8.85349 12.1526C8.56578 11.8632 8.22041 11.6375 7.83981 11.4903L2.58981 9.49025C2.4127 9.42536 2.26046 9.30645 2.15459 9.15034C2.04872 8.99423 1.99458 8.8088 1.9998 8.62025C1.99996 8.4324 2.06022 8.24952 2.17178 8.09838C2.28334 7.94724 2.44034 7.83576 2.6198 7.78025L16.7998 3.05025C16.9626 2.9839 17.1411 2.96613 17.3138 2.99908C17.4865 3.03203 17.646 3.1143 17.7729 3.23594C17.8998 3.35758 17.9888 3.51338 18.0291 3.68451C18.0693 3.85565 18.0592 4.03478 17.9998 4.20025V4.20025Z" fill="#F47B20"/>
</svg>
