<svg width="39" height="40" viewBox="0 0 39 40" fill="none" xmlns="http://www.w3.org/2000/svg">
<circle cx="19.5" cy="20" r="19.5" fill="#EE7500"/>
<path d="M25.708 18.2683C27.0413 19.0381 27.0413 20.9626 25.708 21.7324L17.8955 26.2429C16.5622 27.0127 14.8955 26.0505 14.8955 24.5109L14.8955 15.4898C14.8955 13.9502 16.5622 12.9879 17.8955 13.7577L25.708 18.2683Z" fill="white"/>
</svg>
