<svg width="18" height="18" viewBox="0 0 18 18" fill="none" xmlns="http://www.w3.org/2000/svg">
<path d="M10.668 5.66699H11.5013C11.7223 5.66699 11.9343 5.5792 12.0906 5.42291C12.2468 5.26663 12.3346 5.05467 12.3346 4.83366C12.3346 4.61265 12.2468 4.40068 12.0906 4.2444C11.9343 4.08812 11.7223 4.00033 11.5013 4.00033H10.668C10.447 4.00033 10.235 4.08812 10.0787 4.2444C9.92243 4.40068 9.83464 4.61265 9.83464 4.83366C9.83464 5.05467 9.92243 5.26663 10.0787 5.42291C10.235 5.5792 10.447 5.66699 10.668 5.66699ZM10.668 9.00033H11.5013C11.7223 9.00033 11.9343 8.91253 12.0906 8.75625C12.2468 8.59997 12.3346 8.38801 12.3346 8.16699C12.3346 7.94598 12.2468 7.73402 12.0906 7.57774C11.9343 7.42146 11.7223 7.33366 11.5013 7.33366H10.668C10.447 7.33366 10.235 7.42146 10.0787 7.57774C9.92243 7.73402 9.83464 7.94598 9.83464 8.16699C9.83464 8.38801 9.92243 8.59997 10.0787 8.75625C10.235 8.91253 10.447 9.00033 10.668 9.00033ZM6.5013 5.66699H7.33464C7.55565 5.66699 7.76761 5.5792 7.92389 5.42291C8.08017 5.26663 8.16797 5.05467 8.16797 4.83366C8.16797 4.61265 8.08017 4.40068 7.92389 4.2444C7.76761 4.08812 7.55565 4.00033 7.33464 4.00033H6.5013C6.28029 4.00033 6.06833 4.08812 5.91205 4.2444C5.75577 4.40068 5.66797 4.61265 5.66797 4.83366C5.66797 5.05467 5.75577 5.26663 5.91205 5.42291C6.06833 5.5792 6.28029 5.66699 6.5013 5.66699ZM6.5013 9.00033H7.33464C7.55565 9.00033 7.76761 8.91253 7.92389 8.75625C8.08017 8.59997 8.16797 8.38801 8.16797 8.16699C8.16797 7.94598 8.08017 7.73402 7.92389 7.57774C7.76761 7.42146 7.55565 7.33366 7.33464 7.33366H6.5013C6.28029 7.33366 6.06833 7.42146 5.91205 7.57774C5.75577 7.73402 5.66797 7.94598 5.66797 8.16699C5.66797 8.38801 5.75577 8.59997 5.91205 8.75625C6.06833 8.91253 6.28029 9.00033 6.5013 9.00033ZM16.5013 15.667H15.668V1.50033C15.668 1.27931 15.5802 1.06735 15.4239 0.91107C15.2676 0.75479 15.0556 0.666992 14.8346 0.666992H3.16797C2.94696 0.666992 2.73499 0.75479 2.57871 0.91107C2.42243 1.06735 2.33464 1.27931 2.33464 1.50033V15.667H1.5013C1.28029 15.667 1.06833 15.7548 0.912046 15.9111C0.755766 16.0674 0.667969 16.2793 0.667969 16.5003C0.667969 16.7213 0.755766 16.9333 0.912046 17.0896C1.06833 17.2459 1.28029 17.3337 1.5013 17.3337H16.5013C16.7223 17.3337 16.9343 17.2459 17.0906 17.0896C17.2468 16.9333 17.3346 16.7213 17.3346 16.5003C17.3346 16.2793 17.2468 16.0674 17.0906 15.9111C16.9343 15.7548 16.7223 15.667 16.5013 15.667ZM9.83464 15.667H8.16797V12.3337H9.83464V15.667ZM14.0013 15.667H11.5013V11.5003C11.5013 11.2793 11.4135 11.0674 11.2572 10.9111C11.1009 10.7548 10.889 10.667 10.668 10.667H7.33464C7.11362 10.667 6.90166 10.7548 6.74538 10.9111C6.5891 11.0674 6.5013 11.2793 6.5013 11.5003V15.667H4.0013V2.33366H14.0013V15.667Z" fill="#F47B20"/>
</svg>
