<svg width="19" height="20" viewBox="0 0 19 20" fill="none" xmlns="http://www.w3.org/2000/svg">
<path d="M4.7513 8.16634C4.57 8.16634 4.39277 8.2201 4.24203 8.32083C4.09128 8.42155 3.97379 8.56471 3.90441 8.73221C3.83503 8.89971 3.81688 9.08402 3.85225 9.26184C3.88762 9.43966 3.97492 9.60299 4.10312 9.73119C4.23132 9.85939 4.39465 9.94669 4.57247 9.98206C4.75029 10.0174 4.9346 9.99928 5.10209 9.9299C5.26959 9.86052 5.41276 9.74303 5.51348 9.59228C5.61421 9.44153 5.66797 9.26431 5.66797 9.08301C5.66797 8.83989 5.57139 8.60673 5.39948 8.43483C5.22757 8.26292 4.99442 8.16634 4.7513 8.16634ZM15.7513 4.49967H14.8346V1.74967C14.8346 1.50656 14.7381 1.2734 14.5661 1.10149C14.3942 0.929585 14.1611 0.833008 13.918 0.833008H4.7513C4.50819 0.833008 4.27503 0.929585 4.10312 1.10149C3.93121 1.2734 3.83464 1.50656 3.83464 1.74967V4.49967H2.91797C2.18862 4.49967 1.48915 4.78941 0.973425 5.30513C0.4577 5.82086 0.167969 6.52033 0.167969 7.24967V12.7497C0.167969 13.479 0.4577 14.1785 0.973425 14.6942C1.48915 15.2099 2.18862 15.4997 2.91797 15.4997H3.83464V18.2497C3.83464 18.4928 3.93121 18.7259 4.10312 18.8979C4.27503 19.0698 4.50819 19.1663 4.7513 19.1663H13.918C14.1611 19.1663 14.3942 19.0698 14.5661 18.8979C14.7381 18.7259 14.8346 18.4928 14.8346 18.2497V15.4997H15.7513C16.4806 15.4997 17.1801 15.2099 17.6958 14.6942C18.2116 14.1785 18.5013 13.479 18.5013 12.7497V7.24967C18.5013 6.52033 18.2116 5.82086 17.6958 5.30513C17.1801 4.78941 16.4806 4.49967 15.7513 4.49967ZM5.66797 2.66634H13.0013V4.49967H5.66797V2.66634ZM13.0013 17.333H5.66797V13.6663H13.0013V17.333ZM16.668 12.7497C16.668 12.9928 16.5714 13.2259 16.3995 13.3979C16.2276 13.5698 15.9944 13.6663 15.7513 13.6663H14.8346V12.7497C14.8346 12.5066 14.7381 12.2734 14.5661 12.1015C14.3942 11.9296 14.1611 11.833 13.918 11.833H4.7513C4.50819 11.833 4.27503 11.9296 4.10312 12.1015C3.93121 12.2734 3.83464 12.5066 3.83464 12.7497V13.6663H2.91797C2.67485 13.6663 2.4417 13.5698 2.26979 13.3979C2.09788 13.2259 2.0013 12.9928 2.0013 12.7497V7.24967C2.0013 7.00656 2.09788 6.7734 2.26979 6.60149C2.4417 6.42958 2.67485 6.33301 2.91797 6.33301H15.7513C15.9944 6.33301 16.2276 6.42958 16.3995 6.60149C16.5714 6.7734 16.668 7.00656 16.668 7.24967V12.7497Z" fill="#EE7500"/>
</svg>
