<svg width="119" height="31" viewBox="0 0 119 31" fill="none" xmlns="http://www.w3.org/2000/svg">
<rect width="119" height="31" rx="15.5" fill="#F2F3F5"/>
<path d="M19.096 16.712V21H17.552V9.536H20.936C21.6613 9.536 22.2907 9.62133 22.824 9.792C23.3627 9.95733 23.808 10.1947 24.16 10.504C24.512 10.8133 24.7733 11.1867 24.944 11.624C25.12 12.0613 25.208 12.5493 25.208 13.088C25.208 13.6213 25.1147 14.1093 24.928 14.552C24.7413 14.9947 24.4667 15.376 24.104 15.696C23.7467 16.016 23.3013 16.2667 22.768 16.448C22.2347 16.624 21.624 16.712 20.936 16.712H19.096ZM19.096 15.48H20.936C21.3787 15.48 21.768 15.4213 22.104 15.304C22.4453 15.1867 22.7307 15.024 22.96 14.816C23.1893 14.6027 23.3627 14.3493 23.48 14.056C23.5973 13.7627 23.656 13.44 23.656 13.088C23.656 12.3573 23.4293 11.7867 22.976 11.376C22.528 10.9653 21.848 10.76 20.936 10.76H19.096V15.48ZM26.9493 21V12.896H27.7653C27.9199 12.896 28.0266 12.9253 28.0853 12.984C28.1439 13.0427 28.1839 13.144 28.2053 13.288L28.3013 14.552C28.5786 13.9867 28.9199 13.5467 29.3253 13.232C29.7359 12.912 30.2159 12.752 30.7653 12.752C30.9893 12.752 31.1919 12.7787 31.3733 12.832C31.5546 12.88 31.7226 12.9493 31.8773 13.04L31.6933 14.104C31.6559 14.2373 31.5733 14.304 31.4453 14.304C31.3706 14.304 31.2559 14.28 31.1013 14.232C30.9466 14.1787 30.7306 14.152 30.4533 14.152C29.9573 14.152 29.5413 14.296 29.2053 14.584C28.8746 14.872 28.5973 15.2907 28.3733 15.84V21H26.9493ZM36.6824 12.768C37.2744 12.768 37.8077 12.8667 38.2824 13.064C38.7624 13.2613 39.1677 13.5413 39.4984 13.904C39.8344 14.2667 40.0904 14.7067 40.2664 15.224C40.4477 15.736 40.5384 16.3093 40.5384 16.944C40.5384 17.584 40.4477 18.16 40.2664 18.672C40.0904 19.184 39.8344 19.6213 39.4984 19.984C39.1677 20.3467 38.7624 20.6267 38.2824 20.824C37.8077 21.016 37.2744 21.112 36.6824 21.112C36.0904 21.112 35.5544 21.016 35.0744 20.824C34.5997 20.6267 34.1944 20.3467 33.8584 19.984C33.5224 19.6213 33.2637 19.184 33.0824 18.672C32.901 18.16 32.8104 17.584 32.8104 16.944C32.8104 16.3093 32.901 15.736 33.0824 15.224C33.2637 14.7067 33.5224 14.2667 33.8584 13.904C34.1944 13.5413 34.5997 13.2613 35.0744 13.064C35.5544 12.8667 36.0904 12.768 36.6824 12.768ZM36.6824 20C37.4824 20 38.0797 19.7333 38.4744 19.2C38.869 18.6613 39.0664 17.912 39.0664 16.952C39.0664 15.9867 38.869 15.2347 38.4744 14.696C38.0797 14.1573 37.4824 13.888 36.6824 13.888C36.277 13.888 35.925 13.9573 35.6264 14.096C35.3277 14.2347 35.077 14.4347 34.8744 14.696C34.677 14.9573 34.5277 15.28 34.4264 15.664C34.3304 16.0427 34.2824 16.472 34.2824 16.952C34.2824 17.432 34.3304 17.8613 34.4264 18.24C34.5277 18.6187 34.677 18.9387 34.8744 19.2C35.077 19.456 35.3277 19.6533 35.6264 19.792C35.925 19.9307 36.277 20 36.6824 20ZM47.997 21C47.7943 21 47.6663 20.9013 47.613 20.704L47.485 19.72C47.1383 20.1413 46.741 20.48 46.293 20.736C45.8503 20.9867 45.341 21.112 44.765 21.112C44.301 21.112 43.8797 21.024 43.501 20.848C43.1223 20.6667 42.7997 20.4027 42.533 20.056C42.2663 19.7093 42.061 19.2773 41.917 18.76C41.773 18.2427 41.701 17.648 41.701 16.976C41.701 16.3787 41.781 15.824 41.941 15.312C42.101 14.7947 42.3303 14.3467 42.629 13.968C42.933 13.5893 43.301 13.2933 43.733 13.08C44.165 12.8613 44.6557 12.752 45.205 12.752C45.701 12.752 46.125 12.8373 46.477 13.008C46.829 13.1733 47.1437 13.408 47.421 13.712V9.216H48.845V21H47.997ZM45.237 19.96C45.701 19.96 46.1063 19.8533 46.453 19.64C46.805 19.4267 47.1277 19.1253 47.421 18.736V14.816C47.1597 14.464 46.8717 14.2187 46.557 14.08C46.2477 13.936 45.9037 13.864 45.525 13.864C44.7677 13.864 44.1863 14.1333 43.781 14.672C43.3757 15.2107 43.173 15.9787 43.173 16.976C43.173 17.504 43.2183 17.9573 43.309 18.336C43.3997 18.7093 43.533 19.0187 43.709 19.264C43.885 19.504 44.101 19.68 44.357 19.792C44.613 19.904 44.9063 19.96 45.237 19.96ZM52.4625 12.896V18.064C52.4625 18.6773 52.6038 19.152 52.8865 19.488C53.1692 19.824 53.5958 19.992 54.1665 19.992C54.5825 19.992 54.9745 19.8933 55.3425 19.696C55.7105 19.4987 56.0492 19.224 56.3585 18.872V12.896H57.7825V21H56.9345C56.7318 21 56.6038 20.9013 56.5505 20.704L56.4385 19.832C56.0865 20.2213 55.6918 20.536 55.2545 20.776C54.8172 21.0107 54.3158 21.128 53.7505 21.128C53.3078 21.128 52.9158 21.056 52.5745 20.912C52.2385 20.7627 51.9558 20.5547 51.7265 20.288C51.4972 20.0213 51.3238 19.6987 51.2065 19.32C51.0945 18.9413 51.0385 18.5227 51.0385 18.064V12.896H52.4625ZM65.6491 14.336C65.6065 14.3947 65.5638 14.44 65.5211 14.472C65.4785 14.504 65.4171 14.52 65.3371 14.52C65.2571 14.52 65.1691 14.488 65.0731 14.424C64.9825 14.3547 64.8651 14.28 64.7211 14.2C64.5771 14.12 64.4011 14.048 64.1931 13.984C63.9905 13.9147 63.7398 13.88 63.4411 13.88C63.0465 13.88 62.6971 13.952 62.3931 14.096C62.0891 14.2347 61.8331 14.4373 61.6251 14.704C61.4225 14.9707 61.2678 15.2933 61.1611 15.672C61.0598 16.0507 61.0091 16.4747 61.0091 16.944C61.0091 17.4347 61.0651 17.872 61.1771 18.256C61.2891 18.6347 61.4465 18.9547 61.6491 19.216C61.8518 19.472 62.0971 19.6693 62.3851 19.808C62.6785 19.9413 63.0065 20.008 63.3691 20.008C63.7158 20.008 64.0011 19.968 64.2251 19.888C64.4491 19.8027 64.6358 19.7093 64.7851 19.608C64.9345 19.5067 65.0571 19.416 65.1531 19.336C65.2491 19.2507 65.3451 19.208 65.4411 19.208C65.5638 19.208 65.6545 19.2533 65.7131 19.344L66.1131 19.864C65.7611 20.296 65.3211 20.6133 64.7931 20.816C64.2651 21.0133 63.7078 21.112 63.1211 21.112C62.6145 21.112 62.1425 21.0187 61.7051 20.832C61.2731 20.6453 60.8971 20.376 60.5771 20.024C60.2571 19.6667 60.0038 19.2293 59.8171 18.712C59.6358 18.1947 59.5451 17.6053 59.5451 16.944C59.5451 16.3413 59.6278 15.784 59.7931 15.272C59.9638 14.76 60.2091 14.32 60.5291 13.952C60.8545 13.5787 61.2545 13.288 61.7291 13.08C62.2038 12.872 62.7478 12.768 63.3611 12.768C63.9265 12.768 64.4278 12.8613 64.8651 13.048C65.3025 13.2293 65.6891 13.488 66.0251 13.824L65.6491 14.336ZM70.0459 21.128C69.4059 21.128 68.9125 20.9493 68.5659 20.592C68.2245 20.2347 68.0539 19.72 68.0539 19.048V14.088H67.0779C66.9925 14.088 66.9205 14.064 66.8619 14.016C66.8032 13.9627 66.7739 13.8827 66.7739 13.776V13.208L68.1019 13.04L68.4299 10.536C68.4405 10.456 68.4752 10.392 68.5339 10.344C68.5925 10.2907 68.6672 10.264 68.7579 10.264H69.4779V13.056H71.7979V14.088H69.4779V18.952C69.4779 19.2933 69.5605 19.5467 69.7259 19.712C69.8912 19.8773 70.1045 19.96 70.3659 19.96C70.5152 19.96 70.6432 19.9413 70.7499 19.904C70.8619 19.8613 70.9579 19.816 71.0379 19.768C71.1179 19.72 71.1845 19.6773 71.2379 19.64C71.2965 19.5973 71.3472 19.576 71.3899 19.576C71.4645 19.576 71.5312 19.6213 71.5899 19.712L72.0059 20.392C71.7605 20.6213 71.4645 20.8027 71.1179 20.936C70.7712 21.064 70.4139 21.128 70.0459 21.128ZM75.1426 12.896V21H73.7186V12.896H75.1426ZM75.4626 10.352C75.4626 10.4907 75.4333 10.6213 75.3746 10.744C75.3213 10.8613 75.2466 10.968 75.1506 11.064C75.06 11.1547 74.9533 11.2267 74.8306 11.28C74.708 11.3333 74.5773 11.36 74.4386 11.36C74.3 11.36 74.1693 11.3333 74.0466 11.28C73.9293 11.2267 73.8226 11.1547 73.7266 11.064C73.636 10.968 73.564 10.8613 73.5106 10.744C73.4573 10.6213 73.4306 10.4907 73.4306 10.352C73.4306 10.2133 73.4573 10.0827 73.5106 9.96C73.564 9.832 73.636 9.72267 73.7266 9.632C73.8226 9.536 73.9293 9.46133 74.0466 9.408C74.1693 9.35467 74.3 9.328 74.4386 9.328C74.5773 9.328 74.708 9.35467 74.8306 9.408C74.9533 9.46133 75.06 9.536 75.1506 9.632C75.2466 9.72267 75.3213 9.832 75.3746 9.96C75.4333 10.0827 75.4626 10.2133 75.4626 10.352ZM76.6284 12.896H77.7964C77.9084 12.896 78.0017 12.9253 78.0764 12.984C78.151 13.0427 78.2044 13.112 78.2364 13.192L80.2924 18.408C80.367 18.6 80.4257 18.792 80.4684 18.984C80.511 19.176 80.551 19.3653 80.5884 19.552C80.631 19.3653 80.6764 19.176 80.7244 18.984C80.7724 18.792 80.8337 18.6 80.9084 18.408L82.9884 13.192C83.0204 13.1067 83.071 13.0373 83.1404 12.984C83.215 12.9253 83.3057 12.896 83.4124 12.896H84.5244L81.2204 21H79.9324L76.6284 12.896ZM87.4239 12.896V21H85.9999V12.896H87.4239ZM87.7439 10.352C87.7439 10.4907 87.7145 10.6213 87.6559 10.744C87.6025 10.8613 87.5279 10.968 87.4319 11.064C87.3412 11.1547 87.2345 11.2267 87.1119 11.28C86.9892 11.3333 86.8585 11.36 86.7199 11.36C86.5812 11.36 86.4505 11.3333 86.3279 11.28C86.2105 11.2267 86.1039 11.1547 86.0079 11.064C85.9172 10.968 85.8452 10.8613 85.7919 10.744C85.7385 10.6213 85.7119 10.4907 85.7119 10.352C85.7119 10.2133 85.7385 10.0827 85.7919 9.96C85.8452 9.832 85.9172 9.72267 86.0079 9.632C86.1039 9.536 86.2105 9.46133 86.3279 9.408C86.4505 9.35467 86.5812 9.328 86.7199 9.328C86.8585 9.328 86.9892 9.35467 87.1119 9.408C87.2345 9.46133 87.3412 9.536 87.4319 9.632C87.5279 9.72267 87.6025 9.832 87.6559 9.96C87.7145 10.0827 87.7439 10.2133 87.7439 10.352ZM92.3896 21.128C91.7496 21.128 91.2563 20.9493 90.9096 20.592C90.5683 20.2347 90.3976 19.72 90.3976 19.048V14.088H89.4216C89.3363 14.088 89.2643 14.064 89.2056 14.016C89.147 13.9627 89.1176 13.8827 89.1176 13.776V13.208L90.4456 13.04L90.7736 10.536C90.7843 10.456 90.819 10.392 90.8776 10.344C90.9363 10.2907 91.011 10.264 91.1016 10.264H91.8216V13.056H94.1416V14.088H91.8216V18.952C91.8216 19.2933 91.9043 19.5467 92.0696 19.712C92.235 19.8773 92.4483 19.96 92.7096 19.96C92.859 19.96 92.987 19.9413 93.0936 19.904C93.2056 19.8613 93.3016 19.816 93.3816 19.768C93.4616 19.72 93.5283 19.6773 93.5816 19.64C93.6403 19.5973 93.691 19.576 93.7336 19.576C93.8083 19.576 93.875 19.6213 93.9336 19.712L94.3496 20.392C94.1043 20.6213 93.8083 20.8027 93.4616 20.936C93.115 21.064 92.7576 21.128 92.3896 21.128ZM98.2784 23.392C98.2304 23.4987 98.169 23.584 98.0944 23.648C98.025 23.712 97.9157 23.744 97.7664 23.744H96.7104L98.1904 20.528L94.8464 12.896H96.0784C96.201 12.896 96.297 12.928 96.3664 12.992C96.4357 13.0507 96.4864 13.1173 96.5184 13.192L98.6864 18.296C98.7344 18.4133 98.7744 18.5307 98.8064 18.648C98.8437 18.7653 98.8757 18.8853 98.9024 19.008C98.9397 18.8853 98.977 18.7653 99.0144 18.648C99.0517 18.5307 99.0944 18.4107 99.1424 18.288L101.246 13.192C101.278 13.1067 101.332 13.0373 101.406 12.984C101.486 12.9253 101.572 12.896 101.662 12.896H102.798L98.2784 23.392Z" fill="#1A1C1F"/>
</svg>
