<svg width="34" height="21" viewBox="0 0 34 21" fill="none" xmlns="http://www.w3.org/2000/svg">
<path d="M32.5591 7.23389H27.7466V5.85889C27.7466 5.31188 27.5293 4.78727 27.1425 4.40048C26.7557 4.01368 26.2311 3.79639 25.6841 3.79639H24.9966V2.42139C24.9966 1.87438 24.7793 1.34977 24.3925 0.962979C24.0057 0.576185 23.4811 0.358887 22.9341 0.358887H18.8091C18.2621 0.358887 17.7375 0.576185 17.3507 0.962979C16.9639 1.34977 16.7466 1.87438 16.7466 2.42139V5.17139H10.5591C10.0121 5.17139 9.48747 5.38868 9.10067 5.77548C8.71388 6.16227 8.49658 6.68688 8.49658 7.23389H0.934082C0.751746 7.23389 0.576877 7.30632 0.447946 7.43525C0.319015 7.56418 0.246582 7.73905 0.246582 7.92139L0.246582 13.4214C0.246582 13.6037 0.319015 13.7786 0.447946 13.9075C0.576877 14.0365 0.751746 14.1089 0.934082 14.1089H8.49658C8.49658 14.6559 8.71388 15.1805 9.10067 15.5673C9.48747 15.9541 10.0121 16.1714 10.5591 16.1714H16.7466V18.9214C16.7466 19.4684 16.9639 19.993 17.3507 20.3798C17.7375 20.7666 18.2621 20.9839 18.8091 20.9839H22.9341C23.4811 20.9839 24.0057 20.7666 24.3925 20.3798C24.7793 19.993 24.9966 19.4684 24.9966 18.9214V17.5464H25.6841C26.2311 17.5464 26.7557 17.3291 27.1425 16.9423C27.5293 16.5555 27.7466 16.0309 27.7466 15.4839V14.1089H32.5591C32.7414 14.1089 32.9163 14.0365 33.0452 13.9075C33.1741 13.7786 33.2466 13.6037 33.2466 13.4214V7.92139C33.2466 7.73905 33.1741 7.56418 33.0452 7.43525C32.9163 7.30632 32.7414 7.23389 32.5591 7.23389ZM1.62158 12.7339V8.60889H8.49658V12.7339H1.62158ZM15.3716 14.7964V12.0464C15.3716 11.864 15.2991 11.6892 15.1702 11.5603C15.0413 11.4313 14.8664 11.3589 14.6841 11.3589C14.5017 11.3589 14.3269 11.4313 14.1979 11.5603C14.069 11.6892 13.9966 11.864 13.9966 12.0464V14.7964H10.5591C10.3767 14.7964 10.2019 14.724 10.0729 14.595C9.94401 14.4661 9.87158 14.2912 9.87158 14.1089V7.23389C9.87158 7.05155 9.94401 6.87668 10.0729 6.74775C10.2019 6.61882 10.3767 6.54639 10.5591 6.54639H13.9966V9.29639C13.9966 9.47872 14.069 9.65359 14.1979 9.78252C14.3269 9.91145 14.5017 9.98389 14.6841 9.98389C14.8664 9.98389 15.0413 9.91145 15.1702 9.78252C15.2991 9.65359 15.3716 9.47872 15.3716 9.29639V6.54639H16.7466V14.7964H15.3716ZM22.9341 19.6089H18.8091C18.6267 19.6089 18.4519 19.5365 18.3229 19.4075C18.194 19.2786 18.1216 19.1037 18.1216 18.9214V15.4839H20.1841C20.3664 15.4839 20.5413 15.4115 20.6702 15.2825C20.7992 15.1536 20.8716 14.9787 20.8716 14.7964C20.8716 14.614 20.7992 14.4392 20.6702 14.3103C20.5413 14.1813 20.3664 14.1089 20.1841 14.1089H18.1216V9.98389H20.1841C20.3664 9.98389 20.5413 9.91145 20.6702 9.78252C20.7992 9.65359 20.8716 9.47872 20.8716 9.29639C20.8716 9.11405 20.7992 8.93918 20.6702 8.81025C20.5413 8.68132 20.3664 8.60889 20.1841 8.60889H18.1216V4.48389H20.1841C20.3664 4.48389 20.5413 4.41145 20.6702 4.28252C20.7992 4.15359 20.8716 3.97872 20.8716 3.79639C20.8716 3.61405 20.7992 3.43918 20.6702 3.31025C20.5413 3.18132 20.3664 3.10889 20.1841 3.10889H18.1216V2.42139C18.1216 2.23905 18.194 2.06418 18.3229 1.93525C18.4519 1.80632 18.6267 1.73389 18.8091 1.73389H22.9341C23.1164 1.73389 23.2913 1.80632 23.4202 1.93525C23.5492 2.06418 23.6216 2.23905 23.6216 2.42139V5.85889H21.5591C21.3767 5.85889 21.2019 5.93132 21.0729 6.06025C20.944 6.18918 20.8716 6.36405 20.8716 6.54639C20.8716 6.72872 20.944 6.90359 21.0729 7.03252C21.2019 7.16145 21.3767 7.23389 21.5591 7.23389H23.6216V11.3589H21.5591C21.3767 11.3589 21.2019 11.4313 21.0729 11.5603C20.944 11.6892 20.8716 11.864 20.8716 12.0464C20.8716 12.2287 20.944 12.4036 21.0729 12.5325C21.2019 12.6615 21.3767 12.7339 21.5591 12.7339H23.6216V16.8589H21.5591C21.3767 16.8589 21.2019 16.9313 21.0729 17.0602C20.944 17.1892 20.8716 17.364 20.8716 17.5464C20.8716 17.7287 20.944 17.9036 21.0729 18.0325C21.2019 18.1615 21.3767 18.2339 21.5591 18.2339H23.6216V18.9214C23.6216 19.1037 23.5492 19.2786 23.4202 19.4075C23.2913 19.5365 23.1164 19.6089 22.9341 19.6089ZM26.3716 15.4839C26.3716 15.6662 26.2992 15.8411 26.1702 15.97C26.0413 16.099 25.8664 16.1714 25.6841 16.1714H24.9966V5.17139H25.6841C25.8664 5.17139 26.0413 5.24382 26.1702 5.37275C26.2992 5.50168 26.3716 5.67655 26.3716 5.85889V15.4839ZM31.8716 12.7339H27.7466V8.60889H31.8716V12.7339Z" fill="#F4812F"/>
</svg>
