<svg width="41" height="36" viewBox="0 0 41 36" fill="none" xmlns="http://www.w3.org/2000/svg">
<mask id="path-1-outside-1_4590_120712" maskUnits="userSpaceOnUse" x="0" y="-0.121094" width="41" height="36" fill="black">
<rect fill="white" y="-0.121094" width="41" height="36"/>
<path d="M25.1834 3.76474C25.501 3.76474 25.7583 3.50735 25.7583 3.18986V1.45379C25.7583 1.1363 25.501 0.878906 25.1834 0.878906C24.8659 0.878906 24.6085 1.1363 24.6085 1.45379V3.18986C24.6085 3.50735 24.8659 3.76474 25.1834 3.76474ZM22.3547 3.87144C22.5122 4.15091 22.8655 4.24328 23.1378 4.08967C23.4144 3.93368 23.5121 3.58308 23.3561 3.30652L22.6271 2.01419C22.4712 1.7377 22.1204 1.64005 21.844 1.79596C21.5674 1.95194 21.4697 2.30255 21.6257 2.5791L22.3547 3.87144ZM27.2291 4.08967C27.5008 4.24289 27.8546 4.15091 28.0122 3.87144L28.7413 2.5791C28.8972 2.30255 28.7996 1.95194 28.5229 1.79596C28.2466 1.63997 27.8958 1.7377 27.7398 2.01419L27.0108 3.30652C26.8548 3.58308 26.9524 3.93368 27.2291 4.08967ZM38.2801 19.8809L33.6197 18.328C33.3556 18.2399 33.143 18.0412 33.0368 17.7825L30.4399 11.4643C29.9955 10.3822 28.9519 9.6829 27.781 9.6829H27.7512V8.64795C27.7512 7.23205 26.5993 6.08014 25.1834 6.08014C23.7675 6.08014 22.6156 7.23205 22.6156 8.64795V9.6829H18.7094C18.7084 9.6829 18.7074 9.68274 18.7064 9.68274C18.7054 9.68274 18.7044 9.6829 18.7034 9.6829H3.87442C2.28942 9.6829 1 10.9723 1 12.5573V16.3514C1 16.6689 1.25732 16.9263 1.57488 16.9263C1.89245 16.9263 2.14977 16.6689 2.14977 16.3514V12.5573C2.14977 11.6063 2.92348 10.8327 3.87442 10.8327H18.1315V23.25H2.14977V19.0342C2.14977 18.7167 1.89245 18.4593 1.57488 18.4593C1.25732 18.4593 1 18.7167 1 19.0342V28.0792C1 29.6641 2.28942 30.9536 3.87442 30.9536H5.34704C5.63241 33.346 7.67255 35.2076 10.1406 35.2076C12.6087 35.2076 14.6489 33.346 14.9342 30.9536H25.4105C25.6958 33.346 27.736 35.2076 30.2041 35.2076C32.6721 35.2076 34.7123 33.346 34.9977 30.9536H37.3709C38.9559 30.9536 40.2454 29.6641 40.2454 28.0792V22.6078C40.2454 21.3683 39.4555 20.2724 38.2801 19.8809ZM10.1406 34.0578C8.11184 34.0578 6.46139 32.4073 6.46139 30.3785C6.46139 28.3498 8.11184 26.6993 10.1406 26.6993C12.1694 26.6993 13.8199 28.3498 13.8199 30.3785C13.8199 32.4073 12.1694 34.0578 10.1406 34.0578ZM18.1315 29.8038H14.9342C14.649 27.4112 12.6087 25.5495 10.1406 25.5495C7.67255 25.5495 5.63226 27.4112 5.34704 29.8038H3.87442C2.92348 29.8038 2.14977 29.0302 2.14977 28.0792V24.3998H18.1315V29.8038ZM23.7654 8.64795C23.7654 7.86603 24.4015 7.22991 25.1834 7.22991C25.9653 7.22991 26.6015 7.86603 26.6015 8.64795V9.6829H23.7654V8.64795ZM30.2041 34.0578C28.1753 34.0578 26.5248 32.4073 26.5248 30.3785C26.5248 28.3498 28.1753 26.6993 30.2041 26.6993C32.2329 26.6993 33.8833 28.3498 33.8833 30.3785C33.8833 32.4073 32.2329 34.0578 30.2041 34.0578ZM39.0956 23.25H30.3269C30.0094 23.25 29.7521 23.5074 29.7521 23.8249C29.7521 24.1424 30.0094 24.3998 30.3269 24.3998H39.0956V28.0792C39.0956 29.0302 38.3219 29.8038 37.3709 29.8038H34.9977C34.7124 27.4112 32.6721 25.5495 30.2041 25.5495C27.736 25.5495 25.6957 27.4112 25.4105 29.8038H19.2813V24.3998H27.6441C27.9617 24.3998 28.219 24.1424 28.219 23.8249C28.219 23.5074 27.9617 23.25 27.6441 23.25H19.2813V10.8327H27.7811C28.4836 10.8327 29.1099 11.252 29.3765 11.9013L31.9733 18.2196C32.2069 18.7878 32.6744 19.2248 33.2562 19.4187L37.9167 20.9717C38.6218 21.2065 39.0956 21.8641 39.0956 22.6077V23.25ZM28.3046 12.5827C28.1578 12.218 27.8089 11.9823 27.4157 11.9823H21.3892C20.8608 11.9823 20.431 12.4121 20.431 12.9404V18.2677C20.431 18.796 20.8608 19.2258 21.3892 19.2258H29.56C30.2215 19.2307 30.7013 18.5237 30.4489 17.9099L28.3046 12.5827ZM21.5808 18.076V13.132H27.2863L29.2764 18.076H21.5808ZM30.2041 28.6539C29.2531 28.6539 28.4794 29.4275 28.4794 30.3785C28.4794 31.3295 29.2531 32.1032 30.2041 32.1032C31.155 32.1032 31.9287 31.3295 31.9287 30.3785C31.9287 29.4275 31.155 28.6539 30.2041 28.6539ZM30.2041 30.9534C29.887 30.9534 29.6292 30.6956 29.6292 30.3785C29.6292 30.0615 29.887 29.8037 30.2041 29.8037C30.5211 29.8037 30.7789 30.0615 30.7789 30.3785C30.7789 30.6956 30.5211 30.9534 30.2041 30.9534ZM10.8305 11.9823H9.45078C8.88019 11.9823 8.41599 12.4465 8.41599 13.0171V15.3166H6.11646C5.54587 15.3166 5.08167 15.7808 5.08167 16.3514V17.7311C5.08167 18.3017 5.54587 18.7659 6.11646 18.7659H8.41599V21.0654C8.41599 21.636 8.88019 22.1002 9.45078 22.1002H10.8305C11.4011 22.1002 11.8653 21.636 11.8653 21.0654V18.7659H14.1648C14.7354 18.7659 15.1996 18.3017 15.1996 17.7311V16.3514C15.1996 15.7808 14.7354 15.3166 14.1648 15.3166H11.8653V13.0171C11.8653 12.4465 11.4011 11.9823 10.8305 11.9823ZM14.0498 16.4664V17.6161H11.5204C11.0766 17.6161 10.7155 17.9772 10.7155 18.421V20.9505H9.56576V18.421C9.56576 17.9772 9.20473 17.6161 8.76092 17.6161H6.23144V16.4664H8.76092C9.20473 16.4664 9.56576 16.1053 9.56576 15.6615V13.132H10.7155V15.6615C10.7155 16.1053 11.0766 16.4664 11.5204 16.4664H14.0498ZM10.1406 28.6539C9.18971 28.6539 8.41599 29.4275 8.41599 30.3785C8.41599 31.3295 9.18971 32.1032 10.1406 32.1032C11.0916 32.1032 11.8653 31.3295 11.8653 30.3785C11.8653 29.4275 11.0916 28.6539 10.1406 28.6539ZM10.1406 30.9534C9.82361 30.9534 9.56576 30.6956 9.56576 30.3785C9.56576 30.0615 9.82361 29.8037 10.1406 29.8037C10.4577 29.8037 10.7155 30.0615 10.7155 30.3785C10.7155 30.6956 10.4577 30.9534 10.1406 30.9534Z"/>
</mask>
<path d="M25.1834 3.76474C25.501 3.76474 25.7583 3.50735 25.7583 3.18986V1.45379C25.7583 1.1363 25.501 0.878906 25.1834 0.878906C24.8659 0.878906 24.6085 1.1363 24.6085 1.45379V3.18986C24.6085 3.50735 24.8659 3.76474 25.1834 3.76474ZM22.3547 3.87144C22.5122 4.15091 22.8655 4.24328 23.1378 4.08967C23.4144 3.93368 23.5121 3.58308 23.3561 3.30652L22.6271 2.01419C22.4712 1.7377 22.1204 1.64005 21.844 1.79596C21.5674 1.95194 21.4697 2.30255 21.6257 2.5791L22.3547 3.87144ZM27.2291 4.08967C27.5008 4.24289 27.8546 4.15091 28.0122 3.87144L28.7413 2.5791C28.8972 2.30255 28.7996 1.95194 28.5229 1.79596C28.2466 1.63997 27.8958 1.7377 27.7398 2.01419L27.0108 3.30652C26.8548 3.58308 26.9524 3.93368 27.2291 4.08967ZM38.2801 19.8809L33.6197 18.328C33.3556 18.2399 33.143 18.0412 33.0368 17.7825L30.4399 11.4643C29.9955 10.3822 28.9519 9.6829 27.781 9.6829H27.7512V8.64795C27.7512 7.23205 26.5993 6.08014 25.1834 6.08014C23.7675 6.08014 22.6156 7.23205 22.6156 8.64795V9.6829H18.7094C18.7084 9.6829 18.7074 9.68274 18.7064 9.68274C18.7054 9.68274 18.7044 9.6829 18.7034 9.6829H3.87442C2.28942 9.6829 1 10.9723 1 12.5573V16.3514C1 16.6689 1.25732 16.9263 1.57488 16.9263C1.89245 16.9263 2.14977 16.6689 2.14977 16.3514V12.5573C2.14977 11.6063 2.92348 10.8327 3.87442 10.8327H18.1315V23.25H2.14977V19.0342C2.14977 18.7167 1.89245 18.4593 1.57488 18.4593C1.25732 18.4593 1 18.7167 1 19.0342V28.0792C1 29.6641 2.28942 30.9536 3.87442 30.9536H5.34704C5.63241 33.346 7.67255 35.2076 10.1406 35.2076C12.6087 35.2076 14.6489 33.346 14.9342 30.9536H25.4105C25.6958 33.346 27.736 35.2076 30.2041 35.2076C32.6721 35.2076 34.7123 33.346 34.9977 30.9536H37.3709C38.9559 30.9536 40.2454 29.6641 40.2454 28.0792V22.6078C40.2454 21.3683 39.4555 20.2724 38.2801 19.8809ZM10.1406 34.0578C8.11184 34.0578 6.46139 32.4073 6.46139 30.3785C6.46139 28.3498 8.11184 26.6993 10.1406 26.6993C12.1694 26.6993 13.8199 28.3498 13.8199 30.3785C13.8199 32.4073 12.1694 34.0578 10.1406 34.0578ZM18.1315 29.8038H14.9342C14.649 27.4112 12.6087 25.5495 10.1406 25.5495C7.67255 25.5495 5.63226 27.4112 5.34704 29.8038H3.87442C2.92348 29.8038 2.14977 29.0302 2.14977 28.0792V24.3998H18.1315V29.8038ZM23.7654 8.64795C23.7654 7.86603 24.4015 7.22991 25.1834 7.22991C25.9653 7.22991 26.6015 7.86603 26.6015 8.64795V9.6829H23.7654V8.64795ZM30.2041 34.0578C28.1753 34.0578 26.5248 32.4073 26.5248 30.3785C26.5248 28.3498 28.1753 26.6993 30.2041 26.6993C32.2329 26.6993 33.8833 28.3498 33.8833 30.3785C33.8833 32.4073 32.2329 34.0578 30.2041 34.0578ZM39.0956 23.25H30.3269C30.0094 23.25 29.7521 23.5074 29.7521 23.8249C29.7521 24.1424 30.0094 24.3998 30.3269 24.3998H39.0956V28.0792C39.0956 29.0302 38.3219 29.8038 37.3709 29.8038H34.9977C34.7124 27.4112 32.6721 25.5495 30.2041 25.5495C27.736 25.5495 25.6957 27.4112 25.4105 29.8038H19.2813V24.3998H27.6441C27.9617 24.3998 28.219 24.1424 28.219 23.8249C28.219 23.5074 27.9617 23.25 27.6441 23.25H19.2813V10.8327H27.7811C28.4836 10.8327 29.1099 11.252 29.3765 11.9013L31.9733 18.2196C32.2069 18.7878 32.6744 19.2248 33.2562 19.4187L37.9167 20.9717C38.6218 21.2065 39.0956 21.8641 39.0956 22.6077V23.25ZM28.3046 12.5827C28.1578 12.218 27.8089 11.9823 27.4157 11.9823H21.3892C20.8608 11.9823 20.431 12.4121 20.431 12.9404V18.2677C20.431 18.796 20.8608 19.2258 21.3892 19.2258H29.56C30.2215 19.2307 30.7013 18.5237 30.4489 17.9099L28.3046 12.5827ZM21.5808 18.076V13.132H27.2863L29.2764 18.076H21.5808ZM30.2041 28.6539C29.2531 28.6539 28.4794 29.4275 28.4794 30.3785C28.4794 31.3295 29.2531 32.1032 30.2041 32.1032C31.155 32.1032 31.9287 31.3295 31.9287 30.3785C31.9287 29.4275 31.155 28.6539 30.2041 28.6539ZM30.2041 30.9534C29.887 30.9534 29.6292 30.6956 29.6292 30.3785C29.6292 30.0615 29.887 29.8037 30.2041 29.8037C30.5211 29.8037 30.7789 30.0615 30.7789 30.3785C30.7789 30.6956 30.5211 30.9534 30.2041 30.9534ZM10.8305 11.9823H9.45078C8.88019 11.9823 8.41599 12.4465 8.41599 13.0171V15.3166H6.11646C5.54587 15.3166 5.08167 15.7808 5.08167 16.3514V17.7311C5.08167 18.3017 5.54587 18.7659 6.11646 18.7659H8.41599V21.0654C8.41599 21.636 8.88019 22.1002 9.45078 22.1002H10.8305C11.4011 22.1002 11.8653 21.636 11.8653 21.0654V18.7659H14.1648C14.7354 18.7659 15.1996 18.3017 15.1996 17.7311V16.3514C15.1996 15.7808 14.7354 15.3166 14.1648 15.3166H11.8653V13.0171C11.8653 12.4465 11.4011 11.9823 10.8305 11.9823ZM14.0498 16.4664V17.6161H11.5204C11.0766 17.6161 10.7155 17.9772 10.7155 18.421V20.9505H9.56576V18.421C9.56576 17.9772 9.20473 17.6161 8.76092 17.6161H6.23144V16.4664H8.76092C9.20473 16.4664 9.56576 16.1053 9.56576 15.6615V13.132H10.7155V15.6615C10.7155 16.1053 11.0766 16.4664 11.5204 16.4664H14.0498ZM10.1406 28.6539C9.18971 28.6539 8.41599 29.4275 8.41599 30.3785C8.41599 31.3295 9.18971 32.1032 10.1406 32.1032C11.0916 32.1032 11.8653 31.3295 11.8653 30.3785C11.8653 29.4275 11.0916 28.6539 10.1406 28.6539ZM10.1406 30.9534C9.82361 30.9534 9.56576 30.6956 9.56576 30.3785C9.56576 30.0615 9.82361 29.8037 10.1406 29.8037C10.4577 29.8037 10.7155 30.0615 10.7155 30.3785C10.7155 30.6956 10.4577 30.9534 10.1406 30.9534Z" fill="#679AB4"/>
<path d="M25.1834 3.76474C25.501 3.76474 25.7583 3.50735 25.7583 3.18986V1.45379C25.7583 1.1363 25.501 0.878906 25.1834 0.878906C24.8659 0.878906 24.6085 1.1363 24.6085 1.45379V3.18986C24.6085 3.50735 24.8659 3.76474 25.1834 3.76474ZM22.3547 3.87144C22.5122 4.15091 22.8655 4.24328 23.1378 4.08967C23.4144 3.93368 23.5121 3.58308 23.3561 3.30652L22.6271 2.01419C22.4712 1.7377 22.1204 1.64005 21.844 1.79596C21.5674 1.95194 21.4697 2.30255 21.6257 2.5791L22.3547 3.87144ZM27.2291 4.08967C27.5008 4.24289 27.8546 4.15091 28.0122 3.87144L28.7413 2.5791C28.8972 2.30255 28.7996 1.95194 28.5229 1.79596C28.2466 1.63997 27.8958 1.7377 27.7398 2.01419L27.0108 3.30652C26.8548 3.58308 26.9524 3.93368 27.2291 4.08967ZM38.2801 19.8809L33.6197 18.328C33.3556 18.2399 33.143 18.0412 33.0368 17.7825L30.4399 11.4643C29.9955 10.3822 28.9519 9.6829 27.781 9.6829H27.7512V8.64795C27.7512 7.23205 26.5993 6.08014 25.1834 6.08014C23.7675 6.08014 22.6156 7.23205 22.6156 8.64795V9.6829H18.7094C18.7084 9.6829 18.7074 9.68274 18.7064 9.68274C18.7054 9.68274 18.7044 9.6829 18.7034 9.6829H3.87442C2.28942 9.6829 1 10.9723 1 12.5573V16.3514C1 16.6689 1.25732 16.9263 1.57488 16.9263C1.89245 16.9263 2.14977 16.6689 2.14977 16.3514V12.5573C2.14977 11.6063 2.92348 10.8327 3.87442 10.8327H18.1315V23.25H2.14977V19.0342C2.14977 18.7167 1.89245 18.4593 1.57488 18.4593C1.25732 18.4593 1 18.7167 1 19.0342V28.0792C1 29.6641 2.28942 30.9536 3.87442 30.9536H5.34704C5.63241 33.346 7.67255 35.2076 10.1406 35.2076C12.6087 35.2076 14.6489 33.346 14.9342 30.9536H25.4105C25.6958 33.346 27.736 35.2076 30.2041 35.2076C32.6721 35.2076 34.7123 33.346 34.9977 30.9536H37.3709C38.9559 30.9536 40.2454 29.6641 40.2454 28.0792V22.6078C40.2454 21.3683 39.4555 20.2724 38.2801 19.8809ZM10.1406 34.0578C8.11184 34.0578 6.46139 32.4073 6.46139 30.3785C6.46139 28.3498 8.11184 26.6993 10.1406 26.6993C12.1694 26.6993 13.8199 28.3498 13.8199 30.3785C13.8199 32.4073 12.1694 34.0578 10.1406 34.0578ZM18.1315 29.8038H14.9342C14.649 27.4112 12.6087 25.5495 10.1406 25.5495C7.67255 25.5495 5.63226 27.4112 5.34704 29.8038H3.87442C2.92348 29.8038 2.14977 29.0302 2.14977 28.0792V24.3998H18.1315V29.8038ZM23.7654 8.64795C23.7654 7.86603 24.4015 7.22991 25.1834 7.22991C25.9653 7.22991 26.6015 7.86603 26.6015 8.64795V9.6829H23.7654V8.64795ZM30.2041 34.0578C28.1753 34.0578 26.5248 32.4073 26.5248 30.3785C26.5248 28.3498 28.1753 26.6993 30.2041 26.6993C32.2329 26.6993 33.8833 28.3498 33.8833 30.3785C33.8833 32.4073 32.2329 34.0578 30.2041 34.0578ZM39.0956 23.25H30.3269C30.0094 23.25 29.7521 23.5074 29.7521 23.8249C29.7521 24.1424 30.0094 24.3998 30.3269 24.3998H39.0956V28.0792C39.0956 29.0302 38.3219 29.8038 37.3709 29.8038H34.9977C34.7124 27.4112 32.6721 25.5495 30.2041 25.5495C27.736 25.5495 25.6957 27.4112 25.4105 29.8038H19.2813V24.3998H27.6441C27.9617 24.3998 28.219 24.1424 28.219 23.8249C28.219 23.5074 27.9617 23.25 27.6441 23.25H19.2813V10.8327H27.7811C28.4836 10.8327 29.1099 11.252 29.3765 11.9013L31.9733 18.2196C32.2069 18.7878 32.6744 19.2248 33.2562 19.4187L37.9167 20.9717C38.6218 21.2065 39.0956 21.8641 39.0956 22.6077V23.25ZM28.3046 12.5827C28.1578 12.218 27.8089 11.9823 27.4157 11.9823H21.3892C20.8608 11.9823 20.431 12.4121 20.431 12.9404V18.2677C20.431 18.796 20.8608 19.2258 21.3892 19.2258H29.56C30.2215 19.2307 30.7013 18.5237 30.4489 17.9099L28.3046 12.5827ZM21.5808 18.076V13.132H27.2863L29.2764 18.076H21.5808ZM30.2041 28.6539C29.2531 28.6539 28.4794 29.4275 28.4794 30.3785C28.4794 31.3295 29.2531 32.1032 30.2041 32.1032C31.155 32.1032 31.9287 31.3295 31.9287 30.3785C31.9287 29.4275 31.155 28.6539 30.2041 28.6539ZM30.2041 30.9534C29.887 30.9534 29.6292 30.6956 29.6292 30.3785C29.6292 30.0615 29.887 29.8037 30.2041 29.8037C30.5211 29.8037 30.7789 30.0615 30.7789 30.3785C30.7789 30.6956 30.5211 30.9534 30.2041 30.9534ZM10.8305 11.9823H9.45078C8.88019 11.9823 8.41599 12.4465 8.41599 13.0171V15.3166H6.11646C5.54587 15.3166 5.08167 15.7808 5.08167 16.3514V17.7311C5.08167 18.3017 5.54587 18.7659 6.11646 18.7659H8.41599V21.0654C8.41599 21.636 8.88019 22.1002 9.45078 22.1002H10.8305C11.4011 22.1002 11.8653 21.636 11.8653 21.0654V18.7659H14.1648C14.7354 18.7659 15.1996 18.3017 15.1996 17.7311V16.3514C15.1996 15.7808 14.7354 15.3166 14.1648 15.3166H11.8653V13.0171C11.8653 12.4465 11.4011 11.9823 10.8305 11.9823ZM14.0498 16.4664V17.6161H11.5204C11.0766 17.6161 10.7155 17.9772 10.7155 18.421V20.9505H9.56576V18.421C9.56576 17.9772 9.20473 17.6161 8.76092 17.6161H6.23144V16.4664H8.76092C9.20473 16.4664 9.56576 16.1053 9.56576 15.6615V13.132H10.7155V15.6615C10.7155 16.1053 11.0766 16.4664 11.5204 16.4664H14.0498ZM10.1406 28.6539C9.18971 28.6539 8.41599 29.4275 8.41599 30.3785C8.41599 31.3295 9.18971 32.1032 10.1406 32.1032C11.0916 32.1032 11.8653 31.3295 11.8653 30.3785C11.8653 29.4275 11.0916 28.6539 10.1406 28.6539ZM10.1406 30.9534C9.82361 30.9534 9.56576 30.6956 9.56576 30.3785C9.56576 30.0615 9.82361 29.8037 10.1406 29.8037C10.4577 29.8037 10.7155 30.0615 10.7155 30.3785C10.7155 30.6956 10.4577 30.9534 10.1406 30.9534Z" stroke="#679AB4" stroke-width="0.4" mask="url(#path-1-outside-1_4590_120712)"/>
</svg>
