<svg width="42" height="33" viewBox="0 0 42 33" fill="none" xmlns="http://www.w3.org/2000/svg">
<mask id="path-1-outside-1_4590_120738" maskUnits="userSpaceOnUse" x="0" y="-0.621094" width="42" height="34" fill="black">
<rect fill="white" y="-0.621094" width="42" height="34"/>
<path d="M41.4928 29.5659L37.7688 18.8389C37.6806 18.5843 37.4984 18.3795 37.256 18.262C37.1053 18.189 36.9425 18.1552 36.7797 18.1613L36.2635 16.3532L38.2094 12.4216C39.2033 10.4133 38.4399 8.00132 36.4714 6.93039L36.2119 6.78926L34.7662 5.45262C34.2918 5.0142 33.6316 4.83469 32.9999 4.97233C32.5886 5.06201 32.223 5.27968 31.9493 5.58346C29.3823 2.30871 25.4543 0.378906 21.2629 0.378906C20.2159 0.378906 19.1739 0.498426 18.1659 0.734061C17.8466 0.808701 17.6483 1.128 17.723 1.4473C17.7975 1.76652 18.1173 1.96472 18.4361 1.89023C19.3556 1.67526 20.3067 1.56626 21.2629 1.56626C25.2673 1.56626 29.0086 3.49646 31.3367 6.74494L30.5916 8.4866L30.2735 7.89597C30.1901 7.7413 30.0714 7.61743 29.9328 7.5283C27.9024 4.79147 24.6727 3.1611 21.2629 3.1611C17.853 3.1611 14.6233 4.79155 12.5928 7.52838C12.4542 7.61759 12.3355 7.74154 12.252 7.89628L11.9342 8.48644L11.1896 6.7462C12.4125 5.03811 14.051 3.66379 15.9479 2.76154C16.2439 2.62073 16.3698 2.26652 16.229 1.97041C16.0882 1.67431 15.7339 1.54853 15.4379 1.68935C13.5368 2.59366 11.872 3.9303 10.5764 5.58386C10.3022 5.2792 9.93679 5.06185 9.52599 4.97225C8.89459 4.83461 8.23423 5.01412 7.75955 5.4527L6.31392 6.78918L6.05446 6.93039C4.08595 8.00132 3.32261 10.4133 4.31644 12.4215L6.26232 16.3531L5.74617 18.1613C5.58343 18.1552 5.42061 18.1889 5.26983 18.2619C5.02747 18.3794 4.84526 18.5842 4.757 18.8388L1.03298 29.5659C0.925497 29.8757 1.08934 30.2139 1.39906 30.3214C1.70894 30.4292 2.047 30.2649 2.15457 29.9553L5.81994 19.397L10.788 21.1217L7.12278 31.6801C7.01529 31.9898 7.17913 32.328 7.48885 32.4356C7.55328 32.458 7.61906 32.4686 7.68357 32.4686C7.92933 32.4686 8.15927 32.3147 8.24436 32.0695L11.3238 23.1986C13.8891 25.9618 17.4554 27.5279 21.2629 27.5279C23.1378 27.5279 24.9536 27.1528 26.6598 26.4128C26.9605 26.2823 27.0987 25.9327 26.9681 25.6319C26.8377 25.3312 26.4879 25.1931 26.1873 25.3236C24.6312 25.9985 22.9744 26.3407 21.2629 26.3407C17.5745 26.3407 14.1335 24.7306 11.7705 21.912L11.9683 21.3423C12.1215 20.9008 11.9482 20.4247 11.5774 20.1754L11.9096 19.3394C13.8587 22.7324 17.4437 24.7458 21.263 24.7458C25.0838 24.7458 28.668 22.7312 30.6163 19.3394L30.9485 20.1754C30.5777 20.4248 30.4044 20.9009 30.5576 21.3424L30.7549 21.9108C30.0909 22.7021 29.3323 23.4086 28.494 24.0123C28.2279 24.204 28.1675 24.5749 28.3592 24.841C28.4752 25.002 28.6569 25.0877 28.8414 25.0877C28.9616 25.0877 29.0828 25.0514 29.1878 24.9757C29.9168 24.4507 30.5905 23.8542 31.2016 23.1974L34.2815 32.0694C34.3666 32.3147 34.5964 32.4685 34.8423 32.4685C34.9068 32.4685 34.9725 32.4579 35.037 32.4355C35.3467 32.3279 35.5105 31.9897 35.403 31.68L31.7378 21.1216L36.7059 19.397L40.3713 29.9553C40.4787 30.265 40.8167 30.429 41.1268 30.3214C41.4364 30.2139 41.6003 29.8757 41.4928 29.5659ZM30.6768 10.3169C30.9435 10.3038 31.1744 10.143 31.2792 9.89764L32.6892 6.60175C32.7904 6.35939 32.9958 6.18826 33.2527 6.1323C33.5093 6.07626 33.7675 6.14639 33.9601 6.32448L35.46 7.71123C35.5481 7.79275 35.6034 7.80732 35.9038 7.9733C37.3048 8.74717 37.8549 10.4607 37.1451 11.895L35.0974 16.0322C35.032 16.1645 35.0181 16.3165 35.0587 16.4585L35.6439 18.5089L32.0584 19.7536L28.3581 10.4378C28.113 9.82015 28.3705 9.1187 28.957 8.80606L29.3129 8.61633L30.0358 9.95875C30.1643 10.1928 30.4099 10.3303 30.6768 10.3169ZM14.5449 12.7041C15.1119 12.5175 15.7042 12.3555 16.3179 12.2191C16.0411 12.8123 15.9375 13.4797 16.0334 14.1396C16.3118 16.0571 16.2983 16.0575 16.3658 16.3448L13.2678 15.9196L14.5449 12.7041ZM17.8047 16.7614C17.6365 16.4874 17.5279 16.187 17.482 15.8687L17.2086 13.9706C17.1189 13.3462 17.3006 12.712 17.7074 12.2306C17.8761 12.0307 18.12 11.9017 18.395 11.8654C19.2016 11.7681 20.1911 11.709 20.8662 11.698C21.9899 11.6799 23.1191 11.7433 24.1307 11.8654C24.4058 11.9017 24.6497 12.0307 24.8185 12.2306C25.2251 12.712 25.407 13.3461 25.3173 13.9704L25.0439 15.8686C24.9979 16.1871 24.8893 16.4874 24.7213 16.7611C24.2964 17.4521 23.5488 17.8773 22.7249 17.8773H19.8009C18.9956 17.8772 18.2401 17.4695 17.8047 16.7614ZM26.208 12.2191C26.8216 12.3555 27.4138 12.5175 27.9808 12.7041L29.258 15.9196L26.1601 16.3448C26.1838 16.2438 26.204 16.1417 26.219 16.038L26.4924 14.1395C26.5873 13.4795 26.4846 12.8123 26.208 12.2191ZM21.2629 4.34838C24.0611 4.34838 26.7236 5.58196 28.5384 7.68384L28.3986 7.7584C27.2781 8.3556 26.7863 9.6958 27.2546 10.876L27.4218 11.2968C26.5858 11.0683 25.7087 10.8862 24.799 10.7554C23.4138 10.5569 21.9703 10.4774 20.5259 10.5188C19.5332 10.5475 18.5597 10.636 17.7266 10.7555C16.8171 10.8863 15.9399 11.0684 15.104 11.2969L15.2712 10.8759C15.7395 9.69588 15.2477 8.35568 14.1273 7.75856L13.9875 7.684C15.8022 5.58188 18.4647 4.34838 21.2629 4.34838ZM5.38048 11.895C4.67065 10.4608 5.22091 8.74724 6.62182 7.97338C6.92276 7.80708 6.97761 7.79275 7.06563 7.71123L8.5654 6.32464C8.75821 6.14647 9.01593 6.07618 9.27302 6.1323C9.52987 6.18834 9.73526 6.35939 9.83848 6.6065L11.2465 9.89732C11.3514 10.1429 11.5823 10.3037 11.8489 10.3168C12.1147 10.3302 12.3614 10.1927 12.4924 9.95415L13.2127 8.61617L13.5688 8.80597C14.1552 9.11855 14.4127 9.82007 14.1676 10.4375L10.4673 19.7536L6.88168 18.5089L7.46701 16.4585C7.50753 16.3165 7.49368 16.1645 7.42822 16.0322L5.38048 11.895ZM12.4928 17.8708L12.8164 17.056L16.9571 17.6243C17.2088 17.9681 17.5146 18.2584 17.8601 18.4859L18.8706 23.2572C16.0692 22.5411 13.7057 20.5873 12.4928 17.8708ZM20.1338 23.4919L19.1845 19.0099C19.3857 19.045 19.5916 19.0645 19.801 19.0645H22.7248C22.9342 19.0645 23.14 19.0451 23.3413 19.0099L22.3921 23.4919C22.0205 23.5354 21.6438 23.5584 21.263 23.5584C20.8821 23.5584 20.5053 23.5354 20.1338 23.4919ZM23.6552 23.2572L24.6658 18.4859C25.0111 18.2584 25.3169 17.9681 25.5687 17.6243L29.7093 17.056L30.033 17.8708C28.8201 20.5873 26.4566 22.5411 23.6552 23.2572Z"/>
</mask>
<path d="M41.4928 29.5659L37.7688 18.8389C37.6806 18.5843 37.4984 18.3795 37.256 18.262C37.1053 18.189 36.9425 18.1552 36.7797 18.1613L36.2635 16.3532L38.2094 12.4216C39.2033 10.4133 38.4399 8.00132 36.4714 6.93039L36.2119 6.78926L34.7662 5.45262C34.2918 5.0142 33.6316 4.83469 32.9999 4.97233C32.5886 5.06201 32.223 5.27968 31.9493 5.58346C29.3823 2.30871 25.4543 0.378906 21.2629 0.378906C20.2159 0.378906 19.1739 0.498426 18.1659 0.734061C17.8466 0.808701 17.6483 1.128 17.723 1.4473C17.7975 1.76652 18.1173 1.96472 18.4361 1.89023C19.3556 1.67526 20.3067 1.56626 21.2629 1.56626C25.2673 1.56626 29.0086 3.49646 31.3367 6.74494L30.5916 8.4866L30.2735 7.89597C30.1901 7.7413 30.0714 7.61743 29.9328 7.5283C27.9024 4.79147 24.6727 3.1611 21.2629 3.1611C17.853 3.1611 14.6233 4.79155 12.5928 7.52838C12.4542 7.61759 12.3355 7.74154 12.252 7.89628L11.9342 8.48644L11.1896 6.7462C12.4125 5.03811 14.051 3.66379 15.9479 2.76154C16.2439 2.62073 16.3698 2.26652 16.229 1.97041C16.0882 1.67431 15.7339 1.54853 15.4379 1.68935C13.5368 2.59366 11.872 3.9303 10.5764 5.58386C10.3022 5.2792 9.93679 5.06185 9.52599 4.97225C8.89459 4.83461 8.23423 5.01412 7.75955 5.4527L6.31392 6.78918L6.05446 6.93039C4.08595 8.00132 3.32261 10.4133 4.31644 12.4215L6.26232 16.3531L5.74617 18.1613C5.58343 18.1552 5.42061 18.1889 5.26983 18.2619C5.02747 18.3794 4.84526 18.5842 4.757 18.8388L1.03298 29.5659C0.925497 29.8757 1.08934 30.2139 1.39906 30.3214C1.70894 30.4292 2.047 30.2649 2.15457 29.9553L5.81994 19.397L10.788 21.1217L7.12278 31.6801C7.01529 31.9898 7.17913 32.328 7.48885 32.4356C7.55328 32.458 7.61906 32.4686 7.68357 32.4686C7.92933 32.4686 8.15927 32.3147 8.24436 32.0695L11.3238 23.1986C13.8891 25.9618 17.4554 27.5279 21.2629 27.5279C23.1378 27.5279 24.9536 27.1528 26.6598 26.4128C26.9605 26.2823 27.0987 25.9327 26.9681 25.6319C26.8377 25.3312 26.4879 25.1931 26.1873 25.3236C24.6312 25.9985 22.9744 26.3407 21.2629 26.3407C17.5745 26.3407 14.1335 24.7306 11.7705 21.912L11.9683 21.3423C12.1215 20.9008 11.9482 20.4247 11.5774 20.1754L11.9096 19.3394C13.8587 22.7324 17.4437 24.7458 21.263 24.7458C25.0838 24.7458 28.668 22.7312 30.6163 19.3394L30.9485 20.1754C30.5777 20.4248 30.4044 20.9009 30.5576 21.3424L30.7549 21.9108C30.0909 22.7021 29.3323 23.4086 28.494 24.0123C28.2279 24.204 28.1675 24.5749 28.3592 24.841C28.4752 25.002 28.6569 25.0877 28.8414 25.0877C28.9616 25.0877 29.0828 25.0514 29.1878 24.9757C29.9168 24.4507 30.5905 23.8542 31.2016 23.1974L34.2815 32.0694C34.3666 32.3147 34.5964 32.4685 34.8423 32.4685C34.9068 32.4685 34.9725 32.4579 35.037 32.4355C35.3467 32.3279 35.5105 31.9897 35.403 31.68L31.7378 21.1216L36.7059 19.397L40.3713 29.9553C40.4787 30.265 40.8167 30.429 41.1268 30.3214C41.4364 30.2139 41.6003 29.8757 41.4928 29.5659ZM30.6768 10.3169C30.9435 10.3038 31.1744 10.143 31.2792 9.89764L32.6892 6.60175C32.7904 6.35939 32.9958 6.18826 33.2527 6.1323C33.5093 6.07626 33.7675 6.14639 33.9601 6.32448L35.46 7.71123C35.5481 7.79275 35.6034 7.80732 35.9038 7.9733C37.3048 8.74717 37.8549 10.4607 37.1451 11.895L35.0974 16.0322C35.032 16.1645 35.0181 16.3165 35.0587 16.4585L35.6439 18.5089L32.0584 19.7536L28.3581 10.4378C28.113 9.82015 28.3705 9.1187 28.957 8.80606L29.3129 8.61633L30.0358 9.95875C30.1643 10.1928 30.4099 10.3303 30.6768 10.3169ZM14.5449 12.7041C15.1119 12.5175 15.7042 12.3555 16.3179 12.2191C16.0411 12.8123 15.9375 13.4797 16.0334 14.1396C16.3118 16.0571 16.2983 16.0575 16.3658 16.3448L13.2678 15.9196L14.5449 12.7041ZM17.8047 16.7614C17.6365 16.4874 17.5279 16.187 17.482 15.8687L17.2086 13.9706C17.1189 13.3462 17.3006 12.712 17.7074 12.2306C17.8761 12.0307 18.12 11.9017 18.395 11.8654C19.2016 11.7681 20.1911 11.709 20.8662 11.698C21.9899 11.6799 23.1191 11.7433 24.1307 11.8654C24.4058 11.9017 24.6497 12.0307 24.8185 12.2306C25.2251 12.712 25.407 13.3461 25.3173 13.9704L25.0439 15.8686C24.9979 16.1871 24.8893 16.4874 24.7213 16.7611C24.2964 17.4521 23.5488 17.8773 22.7249 17.8773H19.8009C18.9956 17.8772 18.2401 17.4695 17.8047 16.7614ZM26.208 12.2191C26.8216 12.3555 27.4138 12.5175 27.9808 12.7041L29.258 15.9196L26.1601 16.3448C26.1838 16.2438 26.204 16.1417 26.219 16.038L26.4924 14.1395C26.5873 13.4795 26.4846 12.8123 26.208 12.2191ZM21.2629 4.34838C24.0611 4.34838 26.7236 5.58196 28.5384 7.68384L28.3986 7.7584C27.2781 8.3556 26.7863 9.6958 27.2546 10.876L27.4218 11.2968C26.5858 11.0683 25.7087 10.8862 24.799 10.7554C23.4138 10.5569 21.9703 10.4774 20.5259 10.5188C19.5332 10.5475 18.5597 10.636 17.7266 10.7555C16.8171 10.8863 15.9399 11.0684 15.104 11.2969L15.2712 10.8759C15.7395 9.69588 15.2477 8.35568 14.1273 7.75856L13.9875 7.684C15.8022 5.58188 18.4647 4.34838 21.2629 4.34838ZM5.38048 11.895C4.67065 10.4608 5.22091 8.74724 6.62182 7.97338C6.92276 7.80708 6.97761 7.79275 7.06563 7.71123L8.5654 6.32464C8.75821 6.14647 9.01593 6.07618 9.27302 6.1323C9.52987 6.18834 9.73526 6.35939 9.83848 6.6065L11.2465 9.89732C11.3514 10.1429 11.5823 10.3037 11.8489 10.3168C12.1147 10.3302 12.3614 10.1927 12.4924 9.95415L13.2127 8.61617L13.5688 8.80597C14.1552 9.11855 14.4127 9.82007 14.1676 10.4375L10.4673 19.7536L6.88168 18.5089L7.46701 16.4585C7.50753 16.3165 7.49368 16.1645 7.42822 16.0322L5.38048 11.895ZM12.4928 17.8708L12.8164 17.056L16.9571 17.6243C17.2088 17.9681 17.5146 18.2584 17.8601 18.4859L18.8706 23.2572C16.0692 22.5411 13.7057 20.5873 12.4928 17.8708ZM20.1338 23.4919L19.1845 19.0099C19.3857 19.045 19.5916 19.0645 19.801 19.0645H22.7248C22.9342 19.0645 23.14 19.0451 23.3413 19.0099L22.3921 23.4919C22.0205 23.5354 21.6438 23.5584 21.263 23.5584C20.8821 23.5584 20.5053 23.5354 20.1338 23.4919ZM23.6552 23.2572L24.6658 18.4859C25.0111 18.2584 25.3169 17.9681 25.5687 17.6243L29.7093 17.056L30.033 17.8708C28.8201 20.5873 26.4566 22.5411 23.6552 23.2572Z" fill="#679AB4"/>
<path d="M41.4928 29.5659L37.7688 18.8389C37.6806 18.5843 37.4984 18.3795 37.256 18.262C37.1053 18.189 36.9425 18.1552 36.7797 18.1613L36.2635 16.3532L38.2094 12.4216C39.2033 10.4133 38.4399 8.00132 36.4714 6.93039L36.2119 6.78926L34.7662 5.45262C34.2918 5.0142 33.6316 4.83469 32.9999 4.97233C32.5886 5.06201 32.223 5.27968 31.9493 5.58346C29.3823 2.30871 25.4543 0.378906 21.2629 0.378906C20.2159 0.378906 19.1739 0.498426 18.1659 0.734061C17.8466 0.808701 17.6483 1.128 17.723 1.4473C17.7975 1.76652 18.1173 1.96472 18.4361 1.89023C19.3556 1.67526 20.3067 1.56626 21.2629 1.56626C25.2673 1.56626 29.0086 3.49646 31.3367 6.74494L30.5916 8.4866L30.2735 7.89597C30.1901 7.7413 30.0714 7.61743 29.9328 7.5283C27.9024 4.79147 24.6727 3.1611 21.2629 3.1611C17.853 3.1611 14.6233 4.79155 12.5928 7.52838C12.4542 7.61759 12.3355 7.74154 12.252 7.89628L11.9342 8.48644L11.1896 6.7462C12.4125 5.03811 14.051 3.66379 15.9479 2.76154C16.2439 2.62073 16.3698 2.26652 16.229 1.97041C16.0882 1.67431 15.7339 1.54853 15.4379 1.68935C13.5368 2.59366 11.872 3.9303 10.5764 5.58386C10.3022 5.2792 9.93679 5.06185 9.52599 4.97225C8.89459 4.83461 8.23423 5.01412 7.75955 5.4527L6.31392 6.78918L6.05446 6.93039C4.08595 8.00132 3.32261 10.4133 4.31644 12.4215L6.26232 16.3531L5.74617 18.1613C5.58343 18.1552 5.42061 18.1889 5.26983 18.2619C5.02747 18.3794 4.84526 18.5842 4.757 18.8388L1.03298 29.5659C0.925497 29.8757 1.08934 30.2139 1.39906 30.3214C1.70894 30.4292 2.047 30.2649 2.15457 29.9553L5.81994 19.397L10.788 21.1217L7.12278 31.6801C7.01529 31.9898 7.17913 32.328 7.48885 32.4356C7.55328 32.458 7.61906 32.4686 7.68357 32.4686C7.92933 32.4686 8.15927 32.3147 8.24436 32.0695L11.3238 23.1986C13.8891 25.9618 17.4554 27.5279 21.2629 27.5279C23.1378 27.5279 24.9536 27.1528 26.6598 26.4128C26.9605 26.2823 27.0987 25.9327 26.9681 25.6319C26.8377 25.3312 26.4879 25.1931 26.1873 25.3236C24.6312 25.9985 22.9744 26.3407 21.2629 26.3407C17.5745 26.3407 14.1335 24.7306 11.7705 21.912L11.9683 21.3423C12.1215 20.9008 11.9482 20.4247 11.5774 20.1754L11.9096 19.3394C13.8587 22.7324 17.4437 24.7458 21.263 24.7458C25.0838 24.7458 28.668 22.7312 30.6163 19.3394L30.9485 20.1754C30.5777 20.4248 30.4044 20.9009 30.5576 21.3424L30.7549 21.9108C30.0909 22.7021 29.3323 23.4086 28.494 24.0123C28.2279 24.204 28.1675 24.5749 28.3592 24.841C28.4752 25.002 28.6569 25.0877 28.8414 25.0877C28.9616 25.0877 29.0828 25.0514 29.1878 24.9757C29.9168 24.4507 30.5905 23.8542 31.2016 23.1974L34.2815 32.0694C34.3666 32.3147 34.5964 32.4685 34.8423 32.4685C34.9068 32.4685 34.9725 32.4579 35.037 32.4355C35.3467 32.3279 35.5105 31.9897 35.403 31.68L31.7378 21.1216L36.7059 19.397L40.3713 29.9553C40.4787 30.265 40.8167 30.429 41.1268 30.3214C41.4364 30.2139 41.6003 29.8757 41.4928 29.5659ZM30.6768 10.3169C30.9435 10.3038 31.1744 10.143 31.2792 9.89764L32.6892 6.60175C32.7904 6.35939 32.9958 6.18826 33.2527 6.1323C33.5093 6.07626 33.7675 6.14639 33.9601 6.32448L35.46 7.71123C35.5481 7.79275 35.6034 7.80732 35.9038 7.9733C37.3048 8.74717 37.8549 10.4607 37.1451 11.895L35.0974 16.0322C35.032 16.1645 35.0181 16.3165 35.0587 16.4585L35.6439 18.5089L32.0584 19.7536L28.3581 10.4378C28.113 9.82015 28.3705 9.1187 28.957 8.80606L29.3129 8.61633L30.0358 9.95875C30.1643 10.1928 30.4099 10.3303 30.6768 10.3169ZM14.5449 12.7041C15.1119 12.5175 15.7042 12.3555 16.3179 12.2191C16.0411 12.8123 15.9375 13.4797 16.0334 14.1396C16.3118 16.0571 16.2983 16.0575 16.3658 16.3448L13.2678 15.9196L14.5449 12.7041ZM17.8047 16.7614C17.6365 16.4874 17.5279 16.187 17.482 15.8687L17.2086 13.9706C17.1189 13.3462 17.3006 12.712 17.7074 12.2306C17.8761 12.0307 18.12 11.9017 18.395 11.8654C19.2016 11.7681 20.1911 11.709 20.8662 11.698C21.9899 11.6799 23.1191 11.7433 24.1307 11.8654C24.4058 11.9017 24.6497 12.0307 24.8185 12.2306C25.2251 12.712 25.407 13.3461 25.3173 13.9704L25.0439 15.8686C24.9979 16.1871 24.8893 16.4874 24.7213 16.7611C24.2964 17.4521 23.5488 17.8773 22.7249 17.8773H19.8009C18.9956 17.8772 18.2401 17.4695 17.8047 16.7614ZM26.208 12.2191C26.8216 12.3555 27.4138 12.5175 27.9808 12.7041L29.258 15.9196L26.1601 16.3448C26.1838 16.2438 26.204 16.1417 26.219 16.038L26.4924 14.1395C26.5873 13.4795 26.4846 12.8123 26.208 12.2191ZM21.2629 4.34838C24.0611 4.34838 26.7236 5.58196 28.5384 7.68384L28.3986 7.7584C27.2781 8.3556 26.7863 9.6958 27.2546 10.876L27.4218 11.2968C26.5858 11.0683 25.7087 10.8862 24.799 10.7554C23.4138 10.5569 21.9703 10.4774 20.5259 10.5188C19.5332 10.5475 18.5597 10.636 17.7266 10.7555C16.8171 10.8863 15.9399 11.0684 15.104 11.2969L15.2712 10.8759C15.7395 9.69588 15.2477 8.35568 14.1273 7.75856L13.9875 7.684C15.8022 5.58188 18.4647 4.34838 21.2629 4.34838ZM5.38048 11.895C4.67065 10.4608 5.22091 8.74724 6.62182 7.97338C6.92276 7.80708 6.97761 7.79275 7.06563 7.71123L8.5654 6.32464C8.75821 6.14647 9.01593 6.07618 9.27302 6.1323C9.52987 6.18834 9.73526 6.35939 9.83848 6.6065L11.2465 9.89732C11.3514 10.1429 11.5823 10.3037 11.8489 10.3168C12.1147 10.3302 12.3614 10.1927 12.4924 9.95415L13.2127 8.61617L13.5688 8.80597C14.1552 9.11855 14.4127 9.82007 14.1676 10.4375L10.4673 19.7536L6.88168 18.5089L7.46701 16.4585C7.50753 16.3165 7.49368 16.1645 7.42822 16.0322L5.38048 11.895ZM12.4928 17.8708L12.8164 17.056L16.9571 17.6243C17.2088 17.9681 17.5146 18.2584 17.8601 18.4859L18.8706 23.2572C16.0692 22.5411 13.7057 20.5873 12.4928 17.8708ZM20.1338 23.4919L19.1845 19.0099C19.3857 19.045 19.5916 19.0645 19.801 19.0645H22.7248C22.9342 19.0645 23.14 19.0451 23.3413 19.0099L22.3921 23.4919C22.0205 23.5354 21.6438 23.5584 21.263 23.5584C20.8821 23.5584 20.5053 23.5354 20.1338 23.4919ZM23.6552 23.2572L24.6658 18.4859C25.0111 18.2584 25.3169 17.9681 25.5687 17.6243L29.7093 17.056L30.033 17.8708C28.8201 20.5873 26.4566 22.5411 23.6552 23.2572Z" stroke="#679AB4" stroke-width="0.6" mask="url(#path-1-outside-1_4590_120738)"/>
</svg>
