<svg width="27" height="34" viewBox="0 0 27 34" fill="none" xmlns="http://www.w3.org/2000/svg">
<path d="M17.6307 19.1022V19.2522H17.7807H20.7442C24.112 19.2522 26.8504 21.9728 26.8504 25.3144V32.6383C26.8504 33.0961 26.4763 33.4691 26.0126 33.4691H0.987819C0.524123 33.4691 0.15 33.0961 0.15 32.6383V25.3144C0.15 21.9728 2.88837 19.2522 6.25619 19.2522H9.21964H9.36964V19.1022V17.7823V17.7031L9.30423 17.6584C7.35598 16.328 6.07691 14.1004 6.07691 11.5822V5.69695C6.07691 2.71596 8.51986 0.288672 11.5246 0.288672H15.4758C18.4805 0.288672 20.9235 2.71596 20.9235 5.69695V6.27181V6.58253L21.1668 6.38926L22.8546 5.04847C23.2163 4.76116 23.7439 4.81967 24.0329 5.17835C24.3214 5.53637 24.2632 6.05867 23.9022 6.34543L23.9955 6.46288L23.9022 6.34543L21.5736 8.19516L21.4258 8.31262L21.5736 8.43007L23.9022 10.2797C24.2631 10.5665 24.3214 11.0888 24.0329 11.4468C23.8676 11.652 23.6242 11.7591 23.3777 11.7591C23.1939 11.7591 23.0092 11.6995 22.8546 11.5767L22.7613 11.6941L22.8546 11.5767L21.1668 10.236L20.9235 10.0427V10.3534V11.5822C20.9235 14.1004 19.6444 16.328 17.6961 17.6584L17.6307 17.7031V17.7823V19.1022ZM1.97728 25.099H1.82953L1.8273 25.2468C1.82726 25.2493 1.82708 25.2552 1.82685 25.2627C1.82635 25.2787 1.82564 25.3017 1.82564 25.3144V27.4723V27.6223H1.97564H25.0247H25.1747V27.4723V25.3144C25.1747 25.2957 25.1731 25.2548 25.173 25.2468L25.1708 25.099H25.023H1.97728ZM24.5057 23.4373H24.7592L24.6372 23.2151C23.8857 21.8455 22.4225 20.914 20.7442 20.914H17.7668H17.6279L17.6172 21.0524C17.5556 21.8529 17.2625 22.5899 16.8027 23.1967L16.6204 23.4373H16.9223H24.5057ZM19.0978 6.17391H19.2478V6.02391V5.69695C19.2478 3.62998 17.5548 1.95042 15.4758 1.95042H11.5246C9.44554 1.95042 7.75255 3.62998 7.75255 5.69695V6.02391V6.17391H7.90255H13.5002H19.0978ZM19.2228 8.00714L19.2477 7.83566H19.0744H14.5115H14.3382L14.363 8.00714C14.5339 9.18822 15.5588 10.0974 16.7929 10.0974C18.027 10.0974 19.0519 9.18822 19.2228 8.00714ZM12.6374 8.00714L12.6622 7.83566H12.4889H7.92599H7.75273L7.77754 8.00714C7.94845 9.18822 8.97337 10.0974 10.2075 10.0974C11.4415 10.0974 12.4665 9.18822 12.6374 8.00714ZM7.98316 11.111L7.75255 10.9641V11.2375V11.5822C7.75255 14.7309 10.3318 17.2905 13.5002 17.2905C16.6686 17.2905 19.2478 14.7309 19.2478 11.5822V11.2375V10.9641L19.0172 11.111C18.3745 11.5205 17.6116 11.7591 16.7929 11.7591C15.5165 11.7591 14.3737 11.1813 13.6152 10.275L13.5002 10.1376L13.3852 10.275C12.6267 11.1813 11.4839 11.7591 10.2075 11.7591C9.38876 11.7591 8.62586 11.5205 7.98316 11.111ZM15.9551 18.7457V18.5406L15.7597 18.6028C15.047 18.8293 14.2879 18.9522 13.5002 18.9522C12.7125 18.9522 11.9534 18.8293 11.2407 18.6028L11.0453 18.5406V18.7457V20.737C11.0453 22.0828 12.1474 23.1757 13.5002 23.1757C14.853 23.1757 15.9551 22.0828 15.9551 20.737V18.7457ZM9.38309 21.0524L9.37243 20.914H9.23354H6.25619C4.57793 20.914 3.1147 21.8455 2.36314 23.2151L2.24122 23.4373H2.49464H10.0781H10.3799L10.1976 23.1967C9.73785 22.5899 9.44476 21.8529 9.38309 21.0524ZM1.82564 31.6574V31.8074H1.97564H25.0247H25.1747V31.6574V29.4341V29.2841H25.0247H1.97564H1.82564V29.4341V31.6574Z" fill="#679AB4" stroke="#679AB4" stroke-width="0.3"/>
</svg>
