<svg width="31" height="35" viewBox="0 0 31 35" fill="none" xmlns="http://www.w3.org/2000/svg">
<path d="M27.6996 23.5933L27.7001 23.5933C28.3502 23.5914 28.9731 23.3318 29.4322 22.8714C29.8912 22.411 30.149 21.7874 30.149 21.1372V14.8155C30.149 13.7919 29.7429 12.8102 29.0198 12.0857C28.2967 11.3613 27.3156 10.9534 26.2921 10.9516H26.2918L20.4327 10.9516L20.4324 10.9516C19.4071 10.9534 18.4243 11.362 17.7 12.0877C16.9756 12.8134 16.5687 13.7968 16.5687 14.8222V21.164C16.5687 21.8154 16.8275 22.4401 17.2881 22.9007C17.7487 23.3614 18.3735 23.6201 19.0249 23.6201H19.6416C19.8147 23.6201 19.9808 23.5513 20.1032 23.4289C20.2256 23.3065 20.2944 23.1405 20.2944 22.9673C20.2944 22.7942 20.2256 22.6282 20.1032 22.5057C19.9808 22.3833 19.8147 22.3145 19.6416 22.3145H19.0249C18.7197 22.3145 18.4271 22.1933 18.2113 21.9776C17.9955 21.7618 17.8743 21.4691 17.8743 21.164V14.8492C17.876 14.1748 18.1424 13.5281 18.6163 13.0482C19.09 12.5686 19.733 12.2942 20.407 12.284H26.3119C26.9833 12.284 27.6272 12.5507 28.102 13.0254C28.5767 13.5002 28.8435 14.1441 28.8435 14.8155L28.8435 21.1372L28.8435 21.138C28.8442 21.2887 28.8152 21.4381 28.7581 21.5775C28.701 21.717 28.6168 21.8438 28.5105 21.9506C28.4042 22.0575 28.2779 22.1422 28.1387 22.2001C27.9996 22.258 27.8503 22.2877 27.6996 22.2877H27.0896C26.9164 22.2877 26.7504 22.3565 26.628 22.4789C26.5056 22.6013 26.4368 22.7674 26.4368 22.9405C26.4368 23.1136 26.5056 23.2797 26.628 23.4021C26.7504 23.5245 26.9164 23.5933 27.0896 23.5933L27.6996 23.5933Z" fill="#679AB4" stroke="#679AB4" stroke-width="0.3"/>
<path d="M25.2875 34.6221L25.2892 34.6221C25.9345 34.6146 26.5508 34.3535 27.005 33.8953C27.4593 33.437 27.715 32.8184 27.7168 32.1731V32.1727V15.4735C27.7168 15.3004 27.648 15.1343 27.5256 15.0119C27.4032 14.8895 27.2371 14.8207 27.064 14.8207C26.8909 14.8207 26.7248 14.8895 26.6024 15.0119C26.48 15.1343 26.4112 15.3004 26.4112 15.4735V32.1727C26.4113 32.473 26.2932 32.7613 26.0825 32.9753C25.8721 33.1891 25.5861 33.3116 25.2862 33.3166H21.4194C21.1153 33.3166 20.8235 33.1962 20.6079 32.9817C20.3924 32.7673 20.2705 32.4763 20.2689 32.1723V15.4735C20.2689 15.3004 20.2001 15.1343 20.0777 15.0119C19.9552 14.8895 19.7892 14.8207 19.6161 14.8207C19.4429 14.8207 19.2769 14.8895 19.1545 15.0119C19.0321 15.1343 18.9633 15.3004 18.9633 15.4735L18.9633 32.1727L18.9633 32.1732C18.9652 32.8233 19.2248 33.4462 19.6852 33.9053C20.1456 34.3643 20.7692 34.6221 21.4194 34.6221L25.2875 34.6221Z" fill="#679AB4" stroke="#679AB4" stroke-width="0.3"/>
<path d="M23.3485 34.6218L23.3485 34.6218H23.3504C23.5236 34.6218 23.6896 34.553 23.812 34.4306C23.9345 34.3082 24.0032 34.1421 24.0032 33.969V24.8719C24.0032 24.6988 23.9345 24.5328 23.812 24.4103C23.6896 24.2879 23.5236 24.2191 23.3504 24.2191C23.1773 24.2191 23.0113 24.2879 22.8889 24.4103C22.7664 24.5328 22.6977 24.6988 22.6977 24.8719L22.6976 33.969L22.6977 33.971C22.6999 34.1429 22.7692 34.3071 22.8908 34.4287C23.0123 34.5503 23.1766 34.6195 23.3485 34.6218Z" fill="#679AB4" stroke="#679AB4" stroke-width="0.3"/>
<path d="M23.2009 2.44025V2.44353L23.3509 2.44353C24.2221 2.44353 25.0577 2.78917 25.6743 3.40461C26.2909 4.01998 26.6382 4.85482 26.64 5.72594C26.6399 6.37644 26.447 7.01232 26.0856 7.55319C25.7242 8.09408 25.2106 8.51564 24.6096 8.76459C24.0086 9.01353 23.3472 9.07866 22.7092 8.95175C22.0712 8.82484 21.4852 8.51159 21.0252 8.05161C20.5652 7.59162 20.2519 7.00557 20.125 6.36755C19.9981 5.72954 20.0632 5.06822 20.3122 4.46722C20.5611 3.86622 20.9827 3.35254 21.5236 2.99113C22.0228 2.65756 22.603 2.46754 23.2009 2.44025ZM20.7982 9.54619C21.5538 10.0511 22.4422 10.3205 23.3509 10.3205C23.9543 10.3205 24.5517 10.2017 25.1092 9.97078C25.6666 9.73988 26.1731 9.40144 26.5998 8.97479C27.0264 8.54814 27.3649 8.04163 27.5958 7.48418C27.8267 6.92673 27.9455 6.32927 27.9455 5.72589C27.9455 4.81716 27.6761 3.92883 27.1712 3.17325C26.6663 2.41766 25.9487 1.82876 25.1092 1.481C24.2696 1.13324 23.3458 1.04225 22.4545 1.21954C21.5632 1.39682 20.7446 1.83442 20.102 2.47699C19.4594 3.11956 19.0218 3.93825 18.8445 4.82952C18.6673 5.72079 18.7582 6.64462 19.106 7.48418C19.4538 8.32374 20.0427 9.04132 20.7982 9.54619Z" fill="#679AB4" stroke="#679AB4" stroke-width="0.3"/>
<path d="M2.18239 14.849V14.849C2.18234 14.1741 2.44823 13.5265 2.92244 13.0463C3.39644 12.5664 4.0404 12.2925 4.71486 12.284H10.62C11.2914 12.284 11.9353 12.5507 12.4101 13.0254C12.8848 13.5002 13.1515 14.1441 13.1515 14.8155V21.1372C13.1515 21.4423 13.0303 21.735 12.8145 21.9507C12.5988 22.1665 12.3061 22.2877 12.001 22.2877H11.3909C11.2178 22.2877 11.0518 22.3565 10.9293 22.4789C10.8069 22.6013 10.7381 22.7674 10.7381 22.9405C10.7381 23.1136 10.8069 23.2797 10.9293 23.4021C11.0518 23.5245 11.2178 23.5933 11.3909 23.5933H12.001C12.6524 23.5933 13.2771 23.3345 13.7377 22.8739C14.1983 22.4133 14.4571 21.7886 14.4571 21.1372V14.8155C14.4571 13.7919 14.051 12.8102 13.3278 12.0857C12.6047 11.3613 11.6237 10.9534 10.6001 10.9516H10.5999L4.71392 10.9516L4.71365 10.9516C3.6883 10.9534 2.70559 11.362 1.98121 12.0877C1.25684 12.8134 0.849998 13.7968 0.85 14.8222V21.1372C0.849997 21.7874 1.10779 22.411 1.56685 22.8714C2.02592 23.3318 2.64881 23.5914 3.29898 23.5933H3.29941H3.91616C4.08929 23.5933 4.25533 23.5245 4.37775 23.4021C4.50017 23.2797 4.56895 23.1136 4.56895 22.9405C4.56895 22.7674 4.50017 22.6013 4.37775 22.4789C4.25533 22.3565 4.08929 22.2877 3.91616 22.2877H3.30102C3.00538 22.2813 2.72371 22.1605 2.51513 21.9508C2.30646 21.7411 2.18721 21.4586 2.18239 21.1628V14.849Z" fill="#679AB4" stroke="#679AB4" stroke-width="0.3"/>
<path d="M5.72085 34.6221H5.72129H9.58939C10.2396 34.6221 10.8632 34.3643 11.3236 33.9053C11.784 33.4462 12.0436 32.8233 12.0455 32.1732V32.1727V15.4735C12.0455 15.3004 11.9767 15.1343 11.8543 15.0119C11.7319 14.8895 11.5659 14.8207 11.3927 14.8207C11.2196 14.8207 11.0536 14.8895 10.9311 15.0119C10.8087 15.1343 10.7399 15.3004 10.7399 15.4735V32.1723C10.7383 32.4763 10.6164 32.7673 10.4009 32.9817C10.1853 33.1962 9.89351 33.3166 9.5894 33.3166H5.72129C5.41792 33.3166 5.12698 33.196 4.91247 32.9815C4.69796 32.767 4.57745 32.4761 4.57745 32.1727V15.4735C4.57745 15.3004 4.50867 15.1343 4.38625 15.0119C4.26383 14.8895 4.09779 14.8207 3.92466 14.8207C3.75153 14.8207 3.58549 14.8895 3.46307 15.0119C3.34065 15.1343 3.27187 15.3004 3.27187 15.4735L3.27187 32.1727L3.27188 32.1732C3.27376 32.8221 3.53238 33.4439 3.99125 33.9028C4.45011 34.3616 5.07192 34.6202 5.72085 34.6221Z" fill="#679AB4" stroke="#679AB4" stroke-width="0.3"/>
<path d="M7.65513 34.6218L7.65709 34.6218C7.829 34.6195 7.99323 34.5503 8.1148 34.4287C8.23637 34.3071 8.30566 34.1429 8.3079 33.971H8.30792V33.969V24.8719C8.30792 24.6988 8.23914 24.5328 8.11672 24.4103C7.9943 24.2879 7.82826 24.2191 7.65513 24.2191C7.482 24.2191 7.31596 24.2879 7.19354 24.4103C7.07112 24.5328 7.00234 24.6988 7.00234 24.8719V33.969C7.00234 34.1421 7.07112 34.3082 7.19354 34.4306C7.31596 34.553 7.482 34.6218 7.65513 34.6218Z" fill="#679AB4" stroke="#679AB4" stroke-width="0.3"/>
<path d="M12.2463 5.72611V5.72589C12.2463 4.81716 11.9768 3.92883 11.472 3.17325C10.9671 2.41766 10.2495 1.82876 9.40996 1.481C8.5704 1.13324 7.64657 1.04225 6.7553 1.21954C5.86403 1.39682 5.04534 1.83442 4.40277 2.47699C3.7602 3.11956 3.3226 3.93825 3.14532 4.82952C2.96803 5.72079 3.05902 6.64462 3.40678 7.48418C3.75454 8.32374 4.34344 9.04132 5.09903 9.54619C5.85461 10.0511 6.74294 10.3205 7.65167 10.3205L7.6519 10.3205C8.86985 10.3187 10.0374 9.83405 10.8986 8.97283C11.7598 8.11161 12.2445 6.94406 12.2463 5.72611ZM7.50167 2.44025V2.44353L7.65167 2.44353C8.52287 2.44353 9.35849 2.78917 9.97512 3.40461C10.5917 4.01998 10.939 4.85482 10.9407 5.72594C10.9407 6.37644 10.7478 7.01232 10.3864 7.55319C10.025 8.09408 9.51134 8.51564 8.91034 8.76459C8.30934 9.01353 7.64802 9.07866 7.01001 8.95175C6.37199 8.82484 5.78594 8.51159 5.32595 8.05161C4.86597 7.59162 4.55271 7.00557 4.42581 6.36755C4.2989 5.72954 4.36403 5.06822 4.61297 4.46722C4.86191 3.86622 5.28348 3.35254 5.82436 2.99113C6.32359 2.65756 6.90377 2.46754 7.50167 2.44025Z" fill="#679AB4" stroke="#679AB4" stroke-width="0.3"/>
</svg>
