<svg width="38" height="36" viewBox="0 0 38 36" fill="none" xmlns="http://www.w3.org/2000/svg">
<path d="M25.5472 14.8163V14.6663V11.463V11.3886L25.6063 11.3436L28.5736 9.08608C29.1831 8.62231 29.9394 8.36696 30.7043 8.36696H36.5414C37.0464 8.36696 37.4557 7.95766 37.4557 7.45265C37.4557 6.94764 37.0464 6.53834 36.5414 6.53834H30.7043C29.5421 6.53834 28.3916 6.92656 27.4663 7.6309L27.4663 7.63092L17.9813 14.8471L17.9524 14.869L17.9166 14.8754L17.7393 14.9068L17.6212 14.9278L17.5748 14.8172L13.8611 5.97981L13.9993 5.9217L13.8611 5.97981C12.8346 3.53697 10.9814 1.50469 8.64339 0.257824C8.19732 0.0200764 7.64384 0.188758 7.40634 0.634394L7.40632 0.63443C7.1687 1.08001 7.33724 1.63377 7.78281 1.87138C9.75135 2.92117 11.3111 4.63161 12.1753 6.68819L15.7026 15.0823L15.7753 15.2553L15.5906 15.2881L5.39423 17.0973L5.39415 17.0973C3.9464 17.3534 2.65678 18.2091 1.85619 19.4455L25.5472 14.8163ZM25.5472 14.8163H25.6972H36.5414C37.0464 14.8163 37.4557 15.2256 37.4557 15.7306C37.4557 16.2356 37.0464 16.6449 36.5414 16.6449H18.4237H18.4105L18.3975 16.6472L5.71339 18.898L25.5472 14.8163ZM3.62158 27.5998L3.59155 27.6337L3.59159 27.6337L4.4563 28.4016C5.2388 29.0972 6.24574 29.4801 7.29182 29.4801H9.2712H9.43875L3.62163 27.5998H3.62158ZM3.62158 27.5998H3.61463V27.4498M3.62158 27.5998L3.61463 27.4498M3.61463 27.4498H3.75474H3.75478H3.83635L3.79074 27.4094L3.79071 27.4093C3.77584 27.3961 3.76436 27.3851 3.75116 27.3725C3.7413 27.3631 3.73048 27.3527 3.71656 27.3398L3.61463 27.4498ZM9.2712 29.3301H9.1203C9.1209 29.3356 9.1215 29.3412 9.12212 29.3467L9.2712 29.3301ZM9.2712 29.3301V29.1801H9.25597C9.26059 29.2303 9.26567 29.2803 9.2712 29.3301ZM9.29982 27.4498V27.5998H9.27999C9.28613 27.5497 9.29274 27.4997 9.29982 27.4498ZM9.29982 27.4498L9.15131 27.4288C9.15031 27.4358 9.14932 27.4428 9.14834 27.4498H9.29982ZM1.21452 20.4381L1.85612 19.4456L2.37652 29.0005C1.67087 28.3727 1.11807 27.6195 0.731797 26.7606C0.345338 25.8968 0.15 24.983 0.15 24.0418C0.15 22.7596 0.518168 21.5137 1.21447 20.4382L1.21452 20.4381ZM3.24168 29.7688L2.37662 29.0006L5.71326 18.898C5.34751 18.9626 4.99793 19.086 4.67596 19.2586L4.74682 19.5408H5.14133C6.39679 19.5408 7.41854 20.5625 7.41854 21.818C7.41854 23.0735 6.39679 24.0952 5.14133 24.0952H2.13406H1.97748L1.9842 24.2516C2.00043 24.6296 2.061 25.0009 2.16451 25.3626L2.19563 25.4713H2.30872H9.93912H10.034L10.0746 25.3856C11.2464 22.9148 13.7641 21.2023 16.6743 21.2023C19.5845 21.2023 22.1022 22.9148 23.274 25.3856L23.3146 25.4713H23.4095H36.5414C37.0464 25.4713 37.4557 25.8806 37.4557 26.3857C37.4557 26.8907 37.0464 27.3 36.5414 27.3H24.0488H23.876L23.9003 27.471C23.9482 27.8087 23.9745 28.1526 23.9745 28.5025C23.9745 28.7763 23.9579 29.0467 23.9283 29.3137L23.9099 29.4802H24.0774H36.5414C37.0464 29.4802 37.4557 29.8895 37.4557 30.3946C37.4557 30.8996 37.0464 31.3089 36.5414 31.3089H23.511H23.4125L23.3734 31.3991C22.2497 33.9876 19.6699 35.8026 16.6741 35.8026C13.6783 35.8026 11.0984 33.9876 9.97477 31.3991L9.93559 31.3089H9.83718H7.2917C5.79727 31.3089 4.35901 30.7619 3.24173 29.7689L3.24168 29.7688ZM2.40956 22.0543L2.31293 22.2665H2.54607H5.14133C5.38878 22.2665 5.58992 22.0653 5.58992 21.8179C5.58992 21.5704 5.38878 21.3693 5.14133 21.3693H2.8721H2.79036L2.74605 21.438C2.6182 21.6362 2.50616 21.8422 2.40956 22.0543ZM23.5686 14.8163H23.7186V14.6663V13.0824V12.7798L23.4777 12.963L21.3958 14.5469L21.0417 14.8163H21.4866H23.5686ZM22.1459 28.5023C22.1459 25.4852 19.6915 23.0308 16.6743 23.0308C13.6572 23.0308 11.2028 25.4852 11.2028 28.5023C11.2028 31.5195 13.6572 33.9739 16.6743 33.9739C19.6915 33.9739 22.1459 31.5195 22.1459 28.5023Z" fill="#679AB4" stroke="#679AB4" stroke-width="0.3"/>
</svg>
