<svg width="49" height="48" viewBox="0 0 49 48" fill="none" xmlns="http://www.w3.org/2000/svg">
<path d="M46.3755 34.4728V16.4972C49.9347 13.8183 48.0759 8.08934 43.5628 8.06187C40.4287 8.00552 38.0838 11.2711 39.1112 14.2185C38.9871 14.1903 38.8603 14.1703 38.7314 14.1589C37.9833 14.0924 37.2553 14.3211 36.6788 14.8034C29.7594 20.7906 18.7399 20.7902 11.8206 14.8026C11.1205 14.2168 10.2165 14.0311 9.38856 14.2205C10.4167 11.2726 8.07314 8.00552 4.93755 8.06187C0.42447 8.08915 -1.43405 13.8192 2.12502 16.4971V34.4728C1.03376 34.8597 0.25 35.9024 0.25 37.1247V38.9997C0.25 39.5175 0.669817 39.9372 1.18751 39.9372H8.68758C9.20528 39.9372 9.62509 39.5175 9.62509 38.9997V37.1247C9.62509 35.9024 8.84133 34.8597 7.75007 34.4728V18.6172C7.88273 18.7978 8.03798 18.9635 8.21405 19.1108C11.5485 21.9088 15.5834 23.7937 19.8826 24.5619C20.3918 24.6528 20.8792 24.3137 20.9704 23.804C21.0615 23.2942 20.7221 22.8073 20.2124 22.7162C16.2354 22.0055 12.5032 20.2622 9.41828 17.6737C8.49886 16.8432 9.63578 15.4836 10.6164 16.2398C18.2054 22.8073 30.2945 22.8071 37.8832 16.2405C38.0744 16.0804 38.3166 16.0044 38.5653 16.0265C38.814 16.0486 39.0391 16.1662 39.1993 16.3576C39.5297 16.7369 39.4743 17.3593 39.0813 17.6745C35.9971 20.2624 32.2647 22.0058 28.2874 22.7164C27.7777 22.8074 27.4383 23.2944 27.5295 23.8041C27.6181 24.3168 28.1196 24.6549 28.6172 24.5621C32.9166 23.7941 36.9517 21.9091 40.2855 19.1117C40.4619 18.9641 40.6176 18.798 40.7504 18.6172V34.4728C39.6591 34.8597 38.8754 35.9024 38.8754 37.1247V38.9997C38.8754 39.5175 39.2952 39.9372 39.8129 39.9372H47.313C47.8307 39.9372 48.2505 39.5175 48.2505 38.9997V37.1247C48.2505 35.9024 47.4667 34.8597 46.3755 34.4728ZM4.93755 9.93689C6.48837 9.93689 7.75007 11.1986 7.75007 12.7494C7.59557 16.4806 2.27896 16.4795 2.12502 12.7494C2.12502 11.1986 3.38672 9.93689 4.93755 9.93689ZM4.93755 17.437C5.25855 17.437 5.57205 17.4045 5.87506 17.3427V34.3121H4.00004V17.3427C4.30304 17.4045 4.61654 17.437 4.93755 17.437ZM7.75007 38.0622H2.12502V37.1247C2.12502 36.6077 2.54559 36.1871 3.06253 36.1871H6.81256C7.32951 36.1871 7.75007 36.6077 7.75007 37.1247V38.0622ZM44.5004 34.3121H42.6254V17.3427C43.2278 17.4679 43.8981 17.4679 44.5004 17.3427V34.3121ZM43.5629 9.93689C45.1138 9.93689 46.3755 11.1986 46.3755 12.7494C46.221 16.4806 40.9043 16.4795 40.7504 12.7494C40.7504 11.1986 42.0121 9.93689 43.5629 9.93689ZM46.3755 38.0622H40.7504V37.1247C40.7504 36.6077 41.171 36.1871 41.6879 36.1871H45.4379C45.9549 36.1871 46.3755 36.6077 46.3755 37.1247V38.0622Z" fill="#679AB4"/>
<path d="M18.6188 10.5512L18.217 13.6149C18.1273 14.0902 18.1918 14.571 18.4044 15.0077C18.9094 16.1 20.3239 16.5892 21.3966 16.0402L24.2179 14.6669L27.118 16.0484C27.5113 16.236 27.9498 16.3034 28.3875 16.2429C28.9791 16.161 29.5035 15.8537 29.864 15.3774C30.2245 14.9012 30.3779 14.3131 30.296 13.7202L29.8611 10.6089L32.0007 8.35212C32.3459 8.02071 32.5717 7.59667 32.6544 7.12361C32.8665 5.90794 32.0501 4.74618 30.8366 4.5343L27.7448 3.98661L26.2114 1.16574C26.2113 1.16564 26.2112 1.16555 26.2112 1.16545C26.0022 0.78117 25.6871 0.468979 25.3002 0.262539C24.2132 -0.317216 22.8574 0.0954753 22.2774 1.1828L20.8013 3.95398L17.6967 4.53093C17.2438 4.60283 16.8298 4.8089 16.4985 5.12765C15.6102 5.98219 15.5826 7.40017 16.438 8.28949L18.6188 10.5512ZM17.7983 6.47869C17.8667 6.41288 17.9423 6.38982 17.9937 6.38213C18.0043 6.38054 18.015 6.37876 18.0255 6.37679L21.5877 5.71472C21.8682 5.66259 22.1097 5.48559 22.2439 5.23378L23.932 2.06462C24.0256 1.88837 24.2465 1.82443 24.4178 1.91668C24.481 1.95043 24.5301 1.99899 24.564 2.06115L26.3131 5.27859C26.4494 5.52919 26.6924 5.70422 26.9733 5.75391L30.512 6.38082C30.7092 6.41523 30.8418 6.60376 30.8073 6.80092C30.7898 6.9002 30.7383 6.96582 30.6979 7.00351C30.684 7.01654 30.6703 7.02995 30.6572 7.04383L28.1898 9.64635C27.9935 9.85335 27.9022 10.1385 27.9417 10.4211L28.4387 13.9782C28.4566 14.1071 28.4027 14.2011 28.369 14.2458C28.3353 14.2903 28.2595 14.3676 28.1306 14.3855C28.0573 14.3956 27.9869 14.3855 27.9251 14.3559L24.6168 12.7799C24.3594 12.6572 24.0598 12.6585 23.8032 12.7834L20.5759 14.3542C20.3078 14.4933 19.9931 14.2284 20.061 13.9555C20.0656 13.9332 20.0694 13.9107 20.0723 13.8881L20.5367 10.3473C20.5738 10.0645 20.48 9.78013 20.282 9.57473L17.7885 6.98861C17.6505 6.84526 17.655 6.61651 17.7983 6.47869Z" fill="#679AB4"/>
<path d="M31.6513 27.8928C31.4925 27.5752 31.1679 27.3746 30.8128 27.3746H17.6878C17.3326 27.3746 17.0081 27.5752 16.8493 27.8928L7.47379 46.643C7.15569 47.2442 7.63242 48.0154 8.3123 47.9998H40.1882C40.8682 48.0154 41.3448 47.2441 41.0267 46.643L31.6513 27.8928ZM9.82928 46.1247L18.2672 29.2496H30.2334L38.6713 46.1247H9.82928Z" fill="#679AB4"/>
<path d="M25.1877 24.0124C25.1877 23.4946 24.7679 23.0749 24.2502 23.0749H24.2496C23.7319 23.0749 23.3124 23.4946 23.3124 24.0124C23.3619 25.2558 25.1385 25.2556 25.1877 24.0124Z" fill="#679AB4"/>
</svg>
