<svg width="417" height="306" viewBox="0 0 417 306" fill="none" xmlns="http://www.w3.org/2000/svg">
<g opacity="0.45">
<mask id="path-1-inside-1_1616_51311" fill="white">
<path fill-rule="evenodd" clip-rule="evenodd" d="M46.9982 77.8059C45.8705 79.2662 45.2581 81.0641 45.2581 82.9147C45.2581 84.7654 45.8705 86.5632 46.9982 88.0236C47.6464 89.2711 66.2679 113.033 106.516 113.033C126.552 113.033 143.052 103.766 158.963 94.7958C174.874 85.8256 190.018 77.3901 208.404 77.3901C226.557 77.3901 240.861 86.0762 256.193 95.3872L256.785 95.7463L256.859 95.7913C272.396 105.225 289.464 115.588 310.351 115.588C352.249 115.588 369.751 88.4394 370.458 87.3107C371.377 85.8406 371.819 84.1189 371.724 82.384C371.629 80.649 371.002 78.9869 369.928 77.6277C350.448 53.3828 325.842 33.8309 297.907 20.4004C269.971 6.96985 239.413 0 208.463 0C177.513 0 146.955 6.96985 119.019 20.4004C91.0841 33.8309 66.4778 53.3828 46.9982 77.6277V77.8059ZM13.7089 134.304C2.66124 163.425 -1.79857 194.664 0.654842 225.743C3.10826 256.823 12.413 286.958 27.8903 313.95C43.3676 340.943 64.627 364.112 90.1176 381.768C115.608 399.423 144.687 411.12 175.233 416.004C177.042 416.307 178.899 415.985 180.504 415.09C182.108 414.195 183.366 412.779 184.072 411.073C184.543 409.885 195.858 381.371 175.822 346.262C165.765 328.891 149.604 319.152 133.958 309.725L133.865 309.668C118.19 300.223 103.457 291.312 94.2645 275.213C85.1494 259.444 85.4827 242.196 85.8355 223.941L85.8377 223.828C86.1913 205.531 86.5449 185.274 76.1145 167.037C55.1948 130.443 23.0786 128.839 21.6643 128.78C19.9286 128.732 18.2226 129.241 16.7927 130.234C15.3628 131.227 14.2829 132.652 13.7089 134.304ZM342.94 169.178C363.153 134.07 393.265 129.555 394.562 129.555C396.398 129.348 398.249 129.769 399.82 130.749C401.39 131.729 402.589 133.212 403.224 134.961C414.303 164.091 418.79 195.347 416.356 226.448C413.922 257.549 404.629 287.709 389.156 314.727C373.682 341.746 352.419 364.939 326.919 382.616C301.418 400.292 272.324 412.004 241.759 416.898C240.062 417.178 238.32 416.916 236.778 416.15C235.235 415.383 233.969 414.149 233.156 412.621C229.34 404.264 227.446 395.146 227.617 385.948C227.774 371.831 231.659 358.011 238.872 345.909C249.117 328.038 266.052 318.498 281.66 309.705C282.032 309.495 282.404 309.286 282.774 309.077C283.255 308.806 283.735 308.536 284.215 308.266C299.578 299.615 313.813 291.599 322.728 275.929C331.92 259.771 332.215 242.544 332.451 224.128C332.687 205.712 332.981 186.703 342.94 169.178Z"/>
</mask>
<path d="M46.9982 77.8059L61.2447 88.8076L64.9982 83.947V77.8059H46.9982ZM46.9982 88.0236L62.9707 79.7241L62.2285 78.2959L61.2448 77.0219L46.9982 88.0236ZM158.963 94.7958L167.803 110.476L167.803 110.476L158.963 94.7958ZM256.193 95.3872L246.85 110.773L246.851 110.773L256.193 95.3872ZM256.785 95.7463L247.442 111.132L247.444 111.133L256.785 95.7463ZM256.859 95.7913L266.2 80.4051L266.199 80.4044L256.859 95.7913ZM370.458 87.3107L385.712 96.8671L385.717 96.8588L385.722 96.8506L370.458 87.3107ZM369.928 77.6277L384.052 66.4695L384.006 66.4114L383.96 66.3537L369.928 77.6277ZM297.907 20.4004L290.107 36.6229L290.107 36.6229L297.907 20.4004ZM119.019 20.4004L111.22 4.17782L119.019 20.4004ZM46.9982 77.6277L32.9662 66.3537L28.9982 71.2924V77.6277H46.9982ZM0.654842 225.743L-17.2893 227.16L0.654842 225.743ZM13.7089 134.304L30.5385 140.689L30.6286 140.452L30.7119 140.212L13.7089 134.304ZM27.8903 313.95L12.2751 322.904H12.2751L27.8903 313.95ZM90.1176 381.768L79.8687 396.565H79.8687L90.1176 381.768ZM175.233 416.004L178.209 398.251L178.142 398.24L178.075 398.23L175.233 416.004ZM180.504 415.09L189.272 430.81L189.273 430.81L180.504 415.09ZM184.072 411.073L200.704 417.956L200.754 417.834L200.803 417.712L184.072 411.073ZM175.822 346.262L191.455 337.34L191.428 337.292L191.4 337.244L175.822 346.262ZM133.958 309.725L143.248 294.307L143.246 294.306L133.958 309.725ZM133.865 309.668L124.575 325.086L124.577 325.087L133.865 309.668ZM94.2645 275.213L109.896 266.288L109.872 266.246L109.848 266.205L94.2645 275.213ZM85.8355 223.941L103.832 224.289L103.832 224.287L85.8355 223.941ZM85.8377 223.828L67.8411 223.48L67.841 223.482L85.8377 223.828ZM76.1145 167.037L60.4878 175.97L60.4894 175.973L76.1145 167.037ZM21.6643 128.78L22.4197 110.796L22.291 110.79L22.1623 110.787L21.6643 128.78ZM16.7927 130.234L6.52551 115.449L6.5255 115.449L16.7927 130.234ZM394.562 129.555V147.555H395.572L396.575 147.442L394.562 129.555ZM342.94 169.178L327.341 160.197L327.315 160.241L327.291 160.285L342.94 169.178ZM399.82 130.749L390.29 146.019L390.29 146.019L399.82 130.749ZM403.224 134.961L386.306 141.106L386.352 141.233L386.4 141.36L403.224 134.961ZM416.356 226.448L434.301 227.852V227.852L416.356 226.448ZM326.919 382.616L316.664 367.822L326.919 382.616ZM241.759 416.898L238.914 399.124L238.871 399.131L238.828 399.138L241.759 416.898ZM236.778 416.15L228.765 432.268L228.765 432.268L236.778 416.15ZM233.156 412.621L216.782 420.097L217.008 420.593L217.264 421.074L233.156 412.621ZM227.617 385.948L245.614 386.281L245.615 386.215L245.615 386.149L227.617 385.948ZM238.872 345.909L254.334 355.124L254.412 354.993L254.488 354.861L238.872 345.909ZM281.66 309.705L290.495 325.388L290.495 325.387L281.66 309.705ZM282.774 309.077L291.614 324.757L291.614 324.757L282.774 309.077ZM284.215 308.266L293.046 323.95L293.046 323.95L284.215 308.266ZM322.728 275.929L338.373 284.83L338.373 284.83L322.728 275.929ZM63.2581 82.9147C63.2581 85.0324 62.5584 87.1064 61.2447 88.8076L32.7517 66.8042C29.1826 71.426 27.2581 77.0957 27.2581 82.9147H63.2581ZM61.2448 77.0219C62.5584 78.723 63.2581 80.797 63.2581 82.9147H27.2581C27.2581 88.7338 29.1826 94.4034 32.7517 99.0252L61.2448 77.0219ZM106.516 95.0332C90.1321 95.0332 78.6779 90.2453 71.438 85.7265C67.7631 83.4327 65.1208 81.1714 63.4745 79.5669C62.6502 78.7636 62.1092 78.1576 61.8405 77.8396C61.7021 77.6758 61.6727 77.6319 61.7342 77.714C61.762 77.751 61.8571 77.8787 61.9947 78.0809C62.0268 78.1281 62.4818 78.7833 62.9707 79.7241L31.0258 96.323C31.8332 97.877 32.7924 99.1247 32.9283 99.3061C33.3535 99.8733 33.8299 100.468 34.3414 101.073C35.3723 102.293 36.7069 103.749 38.3484 105.348C41.6337 108.55 46.2839 112.463 52.3764 116.266C64.6714 123.94 82.652 131.033 106.516 131.033V95.0332ZM150.123 79.116C133.639 88.4092 121.126 95.0332 106.516 95.0332V131.033C131.978 131.033 152.465 119.123 167.803 110.476L150.123 79.116ZM208.404 59.3901C184.579 59.3901 165.429 70.487 150.123 79.116L167.803 110.476C184.319 101.164 195.457 95.3901 208.404 95.3901V59.3901ZM265.536 80.0018C250.884 71.1043 232.37 59.3901 208.404 59.3901V95.3901C220.743 95.3901 230.837 101.048 246.85 110.773L265.536 80.0018ZM266.127 80.3606L265.536 80.0015L246.851 110.773L247.442 111.132L266.127 80.3606ZM266.199 80.4044L266.125 80.3594L247.444 111.133L247.518 111.178L266.199 80.4044ZM310.351 97.5876C295.252 97.5876 282.36 90.2161 266.2 80.4051L247.517 111.177C262.432 120.233 283.676 133.588 310.351 133.588V97.5876ZM355.204 77.7544C355.951 76.5633 343.238 97.5876 310.351 97.5876V133.588C361.26 133.588 383.551 100.316 385.712 96.8671L355.204 77.7544ZM353.751 83.3685C353.644 81.4087 354.142 79.4534 355.194 77.7709L385.722 96.8506C388.611 92.2278 389.995 86.8291 389.697 81.3995L353.751 83.3685ZM355.803 88.7859C354.568 87.2221 353.859 85.3281 353.751 83.3685L389.697 81.3995C389.4 75.97 387.435 70.7516 384.052 66.4695L355.803 88.7859ZM290.107 36.6229C315.613 48.8855 338.093 66.7433 355.896 88.9017L383.96 66.3537C362.804 40.0222 336.07 18.7762 305.706 4.17782L290.107 36.6229ZM208.463 18C236.708 18 264.602 24.3605 290.107 36.6229L305.706 4.17782C275.341 -10.4208 242.117 -18 208.463 -18V18ZM126.819 36.6229C152.324 24.3605 180.218 18 208.463 18V-18C174.809 -18 141.585 -10.4208 111.22 4.17782L126.819 36.6229ZM61.0302 88.9017C78.8334 66.7433 101.313 48.8855 126.819 36.6229L111.22 4.17782C80.8555 18.7762 54.1222 40.0222 32.9662 66.3537L61.0302 88.9017ZM64.9982 77.8059V77.6277H28.9982V77.8059H64.9982ZM18.599 224.327C16.3547 195.896 20.435 167.321 30.5385 140.689L-3.12064 127.92C-15.1125 159.529 -19.9518 193.433 -17.2893 227.16L18.599 224.327ZM43.5055 304.997C29.355 280.318 20.8434 252.758 18.599 224.327L-17.2893 227.16C-14.6269 260.887 -4.52893 293.598 12.2751 322.904L43.5055 304.997ZM100.367 366.97C77.085 350.845 57.6557 329.675 43.5055 304.997L12.2751 322.904C29.0795 352.211 52.1691 377.379 79.8687 396.565L100.367 366.97ZM178.075 398.23C150.196 393.772 123.648 383.096 100.367 366.97L79.8687 396.565C107.569 415.751 139.178 428.467 172.391 433.778L178.075 398.23ZM171.735 399.37C173.694 398.277 175.978 397.878 178.209 398.251L172.257 433.756C178.105 434.736 184.104 433.693 189.272 430.81L171.735 399.37ZM167.44 404.19C168.276 402.169 169.779 400.461 171.735 399.37L189.273 430.81C194.438 427.928 198.456 423.389 200.704 417.956L167.44 404.19ZM160.189 355.184C168.347 369.48 169.935 382.01 169.647 390.797C169.501 395.248 168.868 398.803 168.297 401.179C168.013 402.363 167.746 403.242 167.57 403.78C167.482 404.048 167.417 404.232 167.382 404.327C167.351 404.409 167.341 404.434 167.341 404.434L200.803 417.712C202.171 414.265 215.416 379.327 191.455 337.34L160.189 355.184ZM124.668 325.142C140.875 334.908 152.855 342.517 160.244 355.281L191.4 337.244C178.675 315.264 158.333 303.397 143.248 294.307L124.668 325.142ZM124.577 325.087L124.67 325.143L143.246 294.306L143.153 294.25L124.577 325.087ZM78.6335 284.139C90.5064 304.931 109.505 316.005 124.575 325.086L143.155 294.251C126.875 284.441 116.408 277.693 109.896 266.288L78.6335 284.139ZM67.8389 223.593C67.5031 240.97 66.6541 263.415 78.6807 284.221L109.848 266.205C103.645 255.473 103.462 243.422 103.832 224.289L67.8389 223.593ZM67.841 223.482L67.8389 223.595L103.832 224.287L103.834 224.174L67.841 223.482ZM60.4894 175.973C68.0862 189.256 68.2082 204.481 67.8411 223.48L103.834 224.176C104.174 206.581 105.004 181.292 91.7395 158.1L60.4894 175.973ZM20.909 146.764C19.6173 146.71 44.0405 147.2 60.4878 175.97L91.7412 158.103C66.349 113.686 26.5399 110.969 22.4197 110.796L20.909 146.764ZM27.0599 145.019C25.3445 146.21 23.2803 146.831 21.1664 146.773L22.1623 110.787C16.5769 110.632 11.1007 112.272 6.52551 115.449L27.0599 145.019ZM30.7119 140.212C30.0423 142.139 28.7732 143.829 27.0599 145.019L6.5255 115.449C1.9524 118.625 -1.47652 123.166 -3.29405 128.397L30.7119 140.212ZM394.562 111.555C392.436 111.555 390.226 111.981 389.363 112.149C387.832 112.447 385.931 112.891 383.736 113.533C379.346 114.818 373.637 116.936 367.292 120.363C354.492 127.275 339.305 139.415 327.341 160.197L358.54 178.159C366.787 163.833 376.763 156.162 384.397 152.039C388.269 149.948 391.594 148.744 393.846 148.084C394.973 147.755 395.795 147.572 396.238 147.486C397.349 147.27 396.363 147.555 394.562 147.555V111.555ZM409.349 115.478C404.344 112.355 398.426 111.006 392.548 111.668L396.575 147.442C394.369 147.69 392.154 147.183 390.29 146.019L409.349 115.478ZM420.143 128.816C418.141 123.305 414.352 118.6 409.349 115.478L390.29 146.019C388.429 144.858 387.037 143.119 386.306 141.106L420.143 128.816ZM434.301 227.852C436.942 194.102 432.074 160.181 420.048 128.562L386.4 141.36C396.532 168.001 400.637 196.592 398.411 225.044L434.301 227.852ZM404.776 323.673C421.575 294.339 431.66 261.603 434.301 227.852L398.411 225.043C396.184 253.495 387.683 281.079 373.536 305.782L404.776 323.673ZM337.173 397.409C364.883 378.202 387.976 353.007 404.776 323.673L373.536 305.782C359.389 330.484 339.956 351.677 316.664 367.822L337.173 397.409ZM244.605 434.672C277.838 429.351 309.463 416.617 337.173 397.409L316.664 367.822C293.374 383.967 266.81 394.658 238.914 399.124L244.605 434.672ZM228.765 432.268C233.687 434.715 239.258 435.554 244.691 434.658L238.828 399.138C240.867 398.802 242.953 399.118 244.79 400.031L228.765 432.268ZM217.264 421.074C219.831 425.899 223.844 429.821 228.765 432.268L244.791 400.031C246.626 400.944 248.106 402.398 249.047 404.167L217.264 421.074ZM209.62 385.615C209.4 397.501 211.846 409.288 216.782 420.097L249.53 405.144C246.834 399.24 245.493 392.791 245.614 386.281L209.62 385.615ZM223.41 336.693C214.568 351.53 209.811 368.461 209.618 385.747L245.615 386.149C245.738 375.201 248.751 364.491 254.334 355.124L223.41 336.693ZM272.826 294.022C257.806 302.483 236.327 314.157 223.256 336.956L254.488 354.861C261.908 341.919 274.299 334.512 290.495 325.388L272.826 294.022ZM273.934 293.398C273.567 293.605 273.198 293.812 272.825 294.022L290.495 325.387C290.867 325.178 291.241 324.968 291.614 324.757L273.934 293.398ZM275.383 292.581C274.904 292.851 274.42 293.124 273.934 293.398L291.614 324.757C292.091 324.488 292.567 324.22 293.046 323.95L275.383 292.581ZM307.082 267.028C301.004 277.712 291.381 283.573 275.383 292.582L293.046 323.95C307.775 315.656 326.621 305.486 338.373 284.83L307.082 267.028ZM314.452 223.898C314.208 242.962 313.639 255.503 307.082 267.028L338.373 284.83C350.201 264.039 350.222 242.126 350.449 224.358L314.452 223.898ZM327.291 160.285C314.706 182.43 314.68 206.101 314.452 223.898L350.449 224.358C350.693 205.324 351.256 190.976 358.59 178.072L327.291 160.285Z" fill="#F2F3F5" mask="url(#path-1-inside-1_1616_51311)"/>
</g>
</svg>
