<svg width="115" height="69" viewBox="0 0 115 69" fill="none" xmlns="http://www.w3.org/2000/svg">
<path d="M27.5687 63H26.5187C26.3973 63 26.2993 62.9697 26.2247 62.909C26.15 62.8483 26.094 62.7713 26.0567 62.678L25.1187 60.256H20.6177L19.6797 62.678C19.647 62.762 19.591 62.8367 19.5117 62.902C19.4323 62.9673 19.3343 63 19.2177 63H18.1677L22.1787 52.969H23.5577L27.5687 63ZM20.9957 59.276H24.7407L23.1657 55.195C23.063 54.943 22.9627 54.628 22.8647 54.25C22.8133 54.4413 22.762 54.6187 22.7107 54.782C22.664 54.9407 22.6173 55.0807 22.5707 55.202L20.9957 59.276ZM33.6263 63C33.4489 63 33.3369 62.9137 33.2903 62.741L33.1783 61.88C32.8749 62.2487 32.5273 62.545 32.1353 62.769C31.7479 62.9883 31.3023 63.098 30.7983 63.098C30.3923 63.098 30.0236 63.021 29.6923 62.867C29.3609 62.7083 29.0786 62.4773 28.8453 62.174C28.6119 61.8707 28.4323 61.4927 28.3063 61.04C28.1803 60.5873 28.1173 60.067 28.1173 59.479C28.1173 58.9563 28.1873 58.471 28.3273 58.023C28.4673 57.5703 28.6679 57.1783 28.9293 56.847C29.1953 56.5157 29.5173 56.2567 29.8953 56.07C30.2733 55.8787 30.7026 55.783 31.1833 55.783C31.6173 55.783 31.9883 55.8577 32.2963 56.007C32.6043 56.1517 32.8796 56.357 33.1223 56.623V52.689H34.3683V63H33.6263ZM31.2113 62.09C31.6173 62.09 31.9719 61.9967 32.2753 61.81C32.5833 61.6233 32.8656 61.3597 33.1223 61.019V57.589C32.8936 57.281 32.6416 57.0663 32.3663 56.945C32.0956 56.819 31.7946 56.756 31.4633 56.756C30.8006 56.756 30.2919 56.9917 29.9373 57.463C29.5826 57.9343 29.4053 58.6063 29.4053 59.479C29.4053 59.941 29.4449 60.3377 29.5243 60.669C29.6036 60.9957 29.7203 61.2663 29.8743 61.481C30.0283 61.691 30.2173 61.845 30.4413 61.943C30.6653 62.041 30.9219 62.09 31.2113 62.09ZM41.4466 63C41.2693 63 41.1573 62.9137 41.1106 62.741L40.9986 61.88C40.6953 62.2487 40.3476 62.545 39.9556 62.769C39.5683 62.9883 39.1226 63.098 38.6186 63.098C38.2126 63.098 37.8439 63.021 37.5126 62.867C37.1813 62.7083 36.8989 62.4773 36.6656 62.174C36.4323 61.8707 36.2526 61.4927 36.1266 61.04C36.0006 60.5873 35.9376 60.067 35.9376 59.479C35.9376 58.9563 36.0076 58.471 36.1476 58.023C36.2876 57.5703 36.4883 57.1783 36.7496 56.847C37.0156 56.5157 37.3376 56.2567 37.7156 56.07C38.0936 55.8787 38.5229 55.783 39.0036 55.783C39.4376 55.783 39.8086 55.8577 40.1166 56.007C40.4246 56.1517 40.6999 56.357 40.9426 56.623V52.689H42.1886V63H41.4466ZM39.0316 62.09C39.4376 62.09 39.7923 61.9967 40.0956 61.81C40.4036 61.6233 40.6859 61.3597 40.9426 61.019V57.589C40.7139 57.281 40.4619 57.0663 40.1866 56.945C39.9159 56.819 39.6149 56.756 39.2836 56.756C38.6209 56.756 38.1123 56.9917 37.7576 57.463C37.4029 57.9343 37.2256 58.6063 37.2256 59.479C37.2256 59.941 37.2653 60.3377 37.3446 60.669C37.4239 60.9957 37.5406 61.2663 37.6946 61.481C37.8486 61.691 38.0376 61.845 38.2616 61.943C38.4856 62.041 38.7423 62.09 39.0316 62.09ZM46.0169 52.969H47.1019C47.2233 52.969 47.3213 52.9993 47.3959 53.06C47.4706 53.1207 47.5266 53.1977 47.5639 53.291L50.3989 60.368C50.4643 60.5267 50.5226 60.6993 50.5739 60.886C50.6299 61.0727 50.6836 61.2663 50.7349 61.467C50.7769 61.2663 50.8213 61.0727 50.8679 60.886C50.9193 60.6993 50.9776 60.5267 51.0429 60.368L53.8639 53.291C53.8966 53.2117 53.9526 53.1393 54.0319 53.074C54.1113 53.004 54.2093 52.969 54.3259 52.969H55.4179L51.3299 63H50.1049L46.0169 52.969ZM58.4989 55.797C58.9236 55.797 59.3156 55.8693 59.6749 56.014C60.0343 56.154 60.3446 56.3593 60.6059 56.63C60.8673 56.896 61.0703 57.2273 61.2149 57.624C61.3643 58.016 61.4389 58.464 61.4389 58.968C61.4389 59.164 61.4179 59.2947 61.3759 59.36C61.3339 59.4253 61.2546 59.458 61.1379 59.458H56.4199C56.4293 59.906 56.4899 60.2957 56.6019 60.627C56.7139 60.9583 56.8679 61.236 57.0639 61.46C57.2599 61.6793 57.4933 61.845 57.7639 61.957C58.0346 62.0643 58.3379 62.118 58.6739 62.118C58.9866 62.118 59.2549 62.083 59.4789 62.013C59.7076 61.9383 59.9036 61.859 60.0669 61.775C60.2303 61.691 60.3656 61.614 60.4729 61.544C60.5849 61.4693 60.6806 61.432 60.7599 61.432C60.8626 61.432 60.9419 61.4717 60.9979 61.551L61.3479 62.006C61.1939 62.1927 61.0096 62.356 60.7949 62.496C60.5803 62.6313 60.3493 62.7433 60.1019 62.832C59.8593 62.9207 59.6073 62.986 59.3459 63.028C59.0846 63.0747 58.8256 63.098 58.5689 63.098C58.0789 63.098 57.6263 63.0163 57.2109 62.853C56.8003 62.685 56.4433 62.4423 56.1399 62.125C55.8413 61.803 55.6079 61.4063 55.4399 60.935C55.2719 60.4637 55.1879 59.9223 55.1879 59.311C55.1879 58.8163 55.2626 58.3543 55.4119 57.925C55.5659 57.4957 55.7853 57.1247 56.0699 56.812C56.3546 56.4947 56.7023 56.2473 57.1129 56.07C57.5236 55.888 57.9856 55.797 58.4989 55.797ZM58.5269 56.714C57.9249 56.714 57.4513 56.889 57.1059 57.239C56.7606 57.5843 56.5459 58.065 56.4619 58.681H60.3189C60.3189 58.3917 60.2793 58.128 60.1999 57.89C60.1206 57.6473 60.0039 57.4397 59.8499 57.267C59.6959 57.0897 59.5069 56.9543 59.2829 56.861C59.0636 56.763 58.8116 56.714 58.5269 56.714ZM63.0337 63V52.689H64.2797V56.861C64.5831 56.539 64.9191 56.2823 65.2877 56.091C65.6564 55.895 66.0811 55.797 66.5617 55.797C66.9491 55.797 67.2897 55.8623 67.5837 55.993C67.8824 56.119 68.1297 56.301 68.3257 56.539C68.5264 56.7723 68.6781 57.0547 68.7807 57.386C68.8834 57.7173 68.9347 58.0837 68.9347 58.485V63H67.6887V58.485C67.6887 57.9483 67.5651 57.533 67.3177 57.239C67.0751 56.9403 66.7017 56.791 66.1977 56.791C65.8291 56.791 65.4837 56.8797 65.1617 57.057C64.8444 57.2343 64.5504 57.4747 64.2797 57.778V63H63.0337ZM72.199 55.909V63H70.953V55.909H72.199ZM72.479 53.683C72.479 53.8043 72.4533 53.9187 72.402 54.026C72.3553 54.1287 72.29 54.222 72.206 54.306C72.1267 54.3853 72.0333 54.4483 71.926 54.495C71.8187 54.5417 71.7043 54.565 71.583 54.565C71.4617 54.565 71.3473 54.5417 71.24 54.495C71.1373 54.4483 71.044 54.3853 70.96 54.306C70.8807 54.222 70.8177 54.1287 70.771 54.026C70.7243 53.9187 70.701 53.8043 70.701 53.683C70.701 53.5617 70.7243 53.4473 70.771 53.34C70.8177 53.228 70.8807 53.1323 70.96 53.053C71.044 52.969 71.1373 52.9037 71.24 52.857C71.3473 52.8103 71.4617 52.787 71.583 52.787C71.7043 52.787 71.8187 52.8103 71.926 52.857C72.0333 52.9037 72.1267 52.969 72.206 53.053C72.29 53.1323 72.3553 53.228 72.402 53.34C72.4533 53.4473 72.479 53.5617 72.479 53.683ZM79.232 57.169C79.1947 57.2203 79.1574 57.26 79.12 57.288C79.0827 57.316 79.029 57.33 78.959 57.33C78.889 57.33 78.812 57.302 78.728 57.246C78.6487 57.1853 78.546 57.12 78.42 57.05C78.294 56.98 78.14 56.917 77.958 56.861C77.7807 56.8003 77.5614 56.77 77.3 56.77C76.9547 56.77 76.649 56.833 76.383 56.959C76.117 57.0803 75.893 57.2577 75.711 57.491C75.5337 57.7243 75.3984 58.0067 75.305 58.338C75.2164 58.6693 75.172 59.0403 75.172 59.451C75.172 59.8803 75.221 60.263 75.319 60.599C75.417 60.9303 75.5547 61.2103 75.732 61.439C75.9094 61.663 76.124 61.8357 76.376 61.957C76.6327 62.0737 76.9197 62.132 77.237 62.132C77.5404 62.132 77.79 62.097 77.986 62.027C78.182 61.9523 78.3454 61.8707 78.476 61.782C78.6067 61.6933 78.714 61.614 78.798 61.544C78.882 61.4693 78.966 61.432 79.05 61.432C79.1574 61.432 79.2367 61.4717 79.288 61.551L79.638 62.006C79.33 62.384 78.945 62.6617 78.483 62.839C78.021 63.0117 77.5334 63.098 77.02 63.098C76.5767 63.098 76.1637 63.0163 75.781 62.853C75.403 62.6897 75.074 62.454 74.794 62.146C74.514 61.8333 74.2924 61.4507 74.129 60.998C73.9704 60.5453 73.891 60.0297 73.891 59.451C73.891 58.9237 73.9634 58.436 74.108 57.988C74.2574 57.54 74.472 57.155 74.752 56.833C75.0367 56.5063 75.3867 56.252 75.802 56.07C76.2174 55.888 76.6934 55.797 77.23 55.797C77.7247 55.797 78.1634 55.8787 78.546 56.042C78.9287 56.2007 79.267 56.427 79.561 56.721L79.232 57.169ZM82.3162 52.689V63H81.0702V52.689H82.3162ZM87.3192 55.797C87.7439 55.797 88.1359 55.8693 88.4952 56.014C88.8546 56.154 89.1649 56.3593 89.4262 56.63C89.6876 56.896 89.8906 57.2273 90.0352 57.624C90.1846 58.016 90.2592 58.464 90.2592 58.968C90.2592 59.164 90.2382 59.2947 90.1962 59.36C90.1542 59.4253 90.0749 59.458 89.9582 59.458H85.2402C85.2496 59.906 85.3102 60.2957 85.4222 60.627C85.5342 60.9583 85.6882 61.236 85.8842 61.46C86.0802 61.6793 86.3136 61.845 86.5842 61.957C86.8549 62.0643 87.1582 62.118 87.4942 62.118C87.8069 62.118 88.0752 62.083 88.2992 62.013C88.5279 61.9383 88.7239 61.859 88.8872 61.775C89.0506 61.691 89.1859 61.614 89.2932 61.544C89.4052 61.4693 89.5009 61.432 89.5802 61.432C89.6829 61.432 89.7622 61.4717 89.8182 61.551L90.1682 62.006C90.0142 62.1927 89.8299 62.356 89.6152 62.496C89.4006 62.6313 89.1696 62.7433 88.9222 62.832C88.6796 62.9207 88.4276 62.986 88.1662 63.028C87.9049 63.0747 87.6459 63.098 87.3892 63.098C86.8992 63.098 86.4466 63.0163 86.0312 62.853C85.6206 62.685 85.2636 62.4423 84.9602 62.125C84.6616 61.803 84.4282 61.4063 84.2602 60.935C84.0922 60.4637 84.0082 59.9223 84.0082 59.311C84.0082 58.8163 84.0829 58.3543 84.2322 57.925C84.3862 57.4957 84.6056 57.1247 84.8902 56.812C85.1749 56.4947 85.5226 56.2473 85.9332 56.07C86.3439 55.888 86.8059 55.797 87.3192 55.797ZM87.3472 56.714C86.7452 56.714 86.2716 56.889 85.9262 57.239C85.5809 57.5843 85.3662 58.065 85.2822 58.681H89.1392C89.1392 58.3917 89.0996 58.128 89.0202 57.89C88.9409 57.6473 88.8242 57.4397 88.6702 57.267C88.5162 57.0897 88.3272 56.9543 88.1032 56.861C87.8839 56.763 87.6319 56.714 87.3472 56.714ZM95.914 57.078C95.858 57.1807 95.7717 57.232 95.655 57.232C95.585 57.232 95.5057 57.2063 95.417 57.155C95.3284 57.1037 95.2187 57.0477 95.088 56.987C94.962 56.9217 94.8104 56.8633 94.633 56.812C94.4557 56.756 94.2457 56.728 94.003 56.728C93.793 56.728 93.604 56.756 93.436 56.812C93.268 56.8633 93.1234 56.9357 93.002 57.029C92.8854 57.1223 92.7944 57.232 92.729 57.358C92.6684 57.4793 92.638 57.6123 92.638 57.757C92.638 57.939 92.6894 58.0907 92.792 58.212C92.8994 58.3333 93.0394 58.4383 93.212 58.527C93.3847 58.6157 93.5807 58.695 93.8 58.765C94.0194 58.8303 94.2434 58.9027 94.472 58.982C94.7054 59.0567 94.9317 59.1407 95.151 59.234C95.3704 59.3273 95.5664 59.444 95.739 59.584C95.9117 59.724 96.0494 59.8967 96.152 60.102C96.2594 60.3027 96.313 60.5453 96.313 60.83C96.313 61.1567 96.2547 61.46 96.138 61.74C96.0214 62.0153 95.8487 62.2557 95.62 62.461C95.3914 62.6617 95.1114 62.8203 94.78 62.937C94.4487 63.0537 94.066 63.112 93.632 63.112C93.1374 63.112 92.6894 63.0327 92.288 62.874C91.8867 62.7107 91.546 62.503 91.266 62.251L91.56 61.775C91.5974 61.7143 91.6417 61.6677 91.693 61.635C91.7444 61.6023 91.812 61.586 91.896 61.586C91.98 61.586 92.0687 61.6187 92.162 61.684C92.2554 61.7493 92.3674 61.8217 92.498 61.901C92.6334 61.9803 92.7944 62.0527 92.981 62.118C93.1724 62.1833 93.4104 62.216 93.695 62.216C93.9377 62.216 94.15 62.1857 94.332 62.125C94.514 62.0597 94.6657 61.9733 94.787 61.866C94.9084 61.7587 94.997 61.635 95.053 61.495C95.1137 61.355 95.144 61.2057 95.144 61.047C95.144 60.851 95.0904 60.69 94.983 60.564C94.8804 60.4333 94.7427 60.3237 94.57 60.235C94.3974 60.1417 94.199 60.0623 93.975 59.997C93.7557 59.927 93.5294 59.8547 93.296 59.78C93.0674 59.7053 92.841 59.6213 92.617 59.528C92.3977 59.43 92.2017 59.3087 92.029 59.164C91.8564 59.0193 91.7164 58.842 91.609 58.632C91.5064 58.4173 91.455 58.1583 91.455 57.855C91.455 57.5843 91.511 57.3253 91.623 57.078C91.735 56.826 91.8984 56.6067 92.113 56.42C92.3277 56.2287 92.5914 56.077 92.904 55.965C93.2167 55.853 93.5737 55.797 93.975 55.797C94.4417 55.797 94.8594 55.8717 95.228 56.021C95.6014 56.1657 95.9234 56.3663 96.194 56.623L95.914 57.078Z" fill="#4C565C"/>
<path d="M42.9048 30.7169H43.9073C44.2691 32.5006 45.8493 33.8479 47.7385 33.8479C49.6276 33.8479 51.2078 32.5006 51.5696 30.7169H63.1783C63.5401 32.5006 65.1203 33.8479 67.0094 33.8479C68.8988 33.8479 70.479 32.5006 70.8405 30.7169H71.8747C73.4765 30.7169 74.7799 29.4135 74.7799 27.8117V26.7802C74.7799 23.084 71.7748 20.0769 68.0807 20.0769H66.0177L62.2077 16.267C60.4824 14.5414 58.1882 13.5908 55.7476 13.5908H54.4572C53.2335 13.5908 52.0354 13.7961 50.8961 14.2018C50.3616 14.3924 49.9588 14.5571 49.6662 14.7057C49.0162 15.0358 48.4072 15.4545 47.8556 15.9512C46.9779 16.7409 46.2949 17.6694 45.8259 18.711C45.587 19.2412 45.4097 19.7211 45.2959 20.1444C42.3095 20.5658 40 23.1355 40 26.2313V27.8115C40 29.4135 41.3034 30.7169 42.9052 30.7169L42.9048 30.7169ZM47.7385 32.2949C46.4391 32.2949 45.3819 31.2377 45.3819 29.9386C45.3819 28.6396 46.4391 27.5821 47.7385 27.5821C49.0378 27.5821 50.0947 28.6393 50.0947 29.9386C50.0947 31.2382 49.0381 32.2949 47.7385 32.2949ZM67.0084 32.2949C65.7091 32.2949 64.6522 31.2377 64.6522 29.9386C64.6522 28.6396 65.7094 27.5821 67.0084 27.5821C68.3075 27.5821 69.365 28.6393 69.365 29.9386C69.365 31.2382 68.3078 32.2949 67.0084 32.2949V32.2949ZM61.1084 17.3647L63.8205 20.0769H57.8969L57.2113 18.5054C57.0396 18.1124 56.5816 17.9326 56.189 18.1043C55.796 18.2755 55.6162 18.7331 55.7879 19.1266L56.2025 20.0769H54.4959V15.1436H55.7465C57.7721 15.1436 59.6765 15.9324 61.1085 17.3647L61.1084 17.3647ZM47.2403 19.3481C47.62 18.5045 48.176 17.7498 48.8923 17.1053C49.3429 16.6999 49.8393 16.3584 50.367 16.0905C50.5255 16.0101 50.8361 15.8712 51.4153 15.6645C51.9123 15.488 52.4227 15.3572 52.9427 15.27V20.0765L46.9438 20.0768C47.0245 19.8512 47.1241 19.6069 47.2403 19.348L47.2403 19.3481ZM41.5523 26.2315C41.5523 23.7067 43.6045 21.6448 46.1257 21.6302C46.1292 21.6302 46.1322 21.6313 46.1357 21.6313H57.3881H57.3892H57.3911H65.356C65.3612 21.6313 65.3658 21.6297 65.3712 21.6297H68.079C70.1455 21.6297 71.9266 22.8575 72.7447 24.6202H71.6989C71.2702 24.6202 70.9225 24.9682 70.9225 25.3966C70.9225 25.8253 71.2705 26.173 71.6989 26.173H73.1867C73.2103 26.3725 73.2254 26.574 73.2254 26.7798V27.0401C72.8197 27.0658 72.4978 27.3997 72.4978 27.8116C72.4978 28.1471 72.7117 28.4301 73.0093 28.5387C72.7686 28.9138 72.3504 29.1643 71.8725 29.1643L70.8402 29.164C70.4794 27.378 68.899 26.0294 67.0083 26.0294C65.118 26.0294 63.5377 27.378 63.1769 29.164H51.5696C51.2088 27.378 49.6284 26.0294 47.7382 26.0294C45.8479 26.0294 44.267 27.378 43.9063 29.164H42.9043C42.1588 29.164 41.5519 28.5574 41.5519 27.8116L41.5523 26.2315Z" fill="#F4812F"/>
<path d="M52.8047 28.3238H55.9306C56.3593 28.3238 56.707 27.9758 56.707 27.5474C56.707 27.1187 56.359 26.771 55.9306 26.771H52.8047C52.376 26.771 52.0283 27.119 52.0283 27.5474C52.0283 27.9761 52.3763 28.3238 52.8047 28.3238V28.3238Z" fill="#F4812F"/>
<path d="M58.3877 28.3238H59.6388C60.0675 28.3238 60.4152 27.9758 60.4152 27.5474C60.4152 27.1187 60.0673 26.771 59.6388 26.771H58.3877C57.959 26.771 57.6113 27.119 57.6113 27.5474C57.6113 27.9761 57.9588 28.3238 58.3877 28.3238Z" fill="#F4812F"/>
<path d="M48.7037 29.9389C48.7037 30.4724 48.2712 30.9049 47.7377 30.9049C47.2042 30.9049 46.772 30.4724 46.772 29.9389C46.772 29.4054 47.2042 28.9729 47.7377 28.9729C48.2712 28.9729 48.7037 29.4054 48.7037 29.9389Z" fill="#F4812F"/>
<path d="M67.9737 29.9389C67.9737 30.4724 67.5412 30.9049 67.008 30.9049C66.4745 30.9049 66.042 30.4724 66.042 29.9389C66.042 29.4054 66.4745 28.9729 67.008 28.9729C67.5412 28.9729 67.9737 29.4054 67.9737 29.9389Z" fill="#F4812F"/>
<path d="M67.0083 0.886719C62.6348 0.886719 59.0767 4.44483 59.0767 8.81836C59.0767 13.1919 62.6348 16.7493 67.0083 16.7493C71.3815 16.7496 74.9399 13.1915 74.9399 8.81836C74.9399 4.44455 71.3818 0.886719 67.0083 0.886719V0.886719ZM67.0083 15.1964C63.4911 15.1964 60.6297 12.3351 60.6297 8.81808C60.6297 5.30087 63.491 2.43949 67.0083 2.43949C70.5255 2.43976 73.3869 5.3008 73.3869 8.81836C73.3869 12.3353 70.5256 15.1964 67.0083 15.1964Z" fill="#F4812F"/>
<path d="M70.1146 8.04168H67.7851V5.71218C67.7851 5.28349 67.4371 4.93579 67.0087 4.93579C66.5801 4.93579 66.2324 5.28377 66.2324 5.71218V8.04168H63.9029C63.4742 8.04168 63.1265 8.38967 63.1265 8.81807C63.1265 9.24676 63.4744 9.59446 63.9029 9.59446H66.2324V11.924C66.2324 12.3527 66.5803 12.7004 67.0087 12.7004C67.4374 12.7004 67.7851 12.3524 67.7851 11.924V9.59446H70.1146C70.5433 9.59446 70.891 9.24647 70.891 8.81807C70.8913 8.38966 70.5436 8.04168 70.1146 8.04168Z" fill="#F4812F"/>
</svg>
