<svg width="29" height="28" viewBox="0 0 29 28" fill="none" xmlns="http://www.w3.org/2000/svg">
<path d="M26.021 5.83434C26.2975 5.45508 26.4612 4.98859 26.4612 4.48438C26.4612 3.21787 25.4308 2.1875 24.1643 2.1875C23.6601 2.1875 23.1936 2.35123 22.8144 2.62773C20.4262 0.907484 17.6127 0 14.6484 0C11.7405 0 8.95208 0.883313 6.58438 2.5544C6.33763 2.72858 6.27879 3.06977 6.45297 3.31658C6.62715 3.56333 6.9684 3.62217 7.21515 3.44799C8.79671 2.33171 10.5824 1.5972 12.4661 1.27723C12.2469 1.5558 12.0266 1.89109 11.8092 2.29491C11.1458 3.52751 10.5982 5.22495 10.2166 7.22542C9.2125 7.29761 8.38535 8.01752 8.15205 8.96875H2.75976C3.0776 8.21849 3.46763 7.49623 3.92799 6.81116C4.09643 6.56048 4.02971 6.2207 3.77902 6.05227C3.52834 5.88377 3.18856 5.95049 3.02012 6.20118C1.46853 8.5103 0.648438 11.2071 0.648438 14C0.648438 16.9632 1.55598 19.7775 3.27601 22.1659C2.99962 22.5451 2.83594 23.0115 2.83594 23.5156C2.83594 24.7821 3.8663 25.8125 5.13281 25.8125C5.63698 25.8125 6.10341 25.6488 6.48261 25.3724C8.87092 27.0925 11.6849 28 14.6484 28C18.388 28 21.9037 26.5437 24.548 23.8995C27.1922 21.2553 28.6484 17.7395 28.6484 14C28.6484 11.036 27.7411 8.22254 26.021 5.83434ZM26.9397 17.9375H21.108C20.9207 17.1738 20.3506 16.5593 19.6135 16.3092C19.6566 15.5495 19.6797 14.7754 19.6797 14C19.6797 12.6478 19.6142 11.3247 19.4879 10.0626H26.9465C27.3482 11.3201 27.5547 12.6429 27.5547 14C27.5547 15.3727 27.3385 16.6956 26.9397 17.9375ZM14.6484 26.9062C13.7321 26.9062 12.7407 25.573 11.9963 23.3399C11.5791 22.0881 11.2563 20.6259 11.0385 19.0313H16.6468C16.8219 19.7452 17.3312 20.329 17.9991 20.6065C17.1672 24.9533 15.7326 26.9062 14.6484 26.9062ZM5.13281 21.2188C4.76712 21.2188 4.42133 21.3051 4.11415 21.4578C3.57034 20.6922 3.1167 19.8799 2.75664 19.0312H9.9358C10.1631 20.7521 10.508 22.3337 10.9587 23.6857C11.392 24.9858 11.8967 26.0029 12.4588 26.7226C10.5645 26.4013 8.77702 25.6612 7.19065 24.5343C7.34334 24.2271 7.42969 23.8813 7.42969 23.5156C7.42969 22.2491 6.39932 21.2188 5.13281 21.2188ZM10.7109 14C10.7109 13.2538 10.7328 12.5092 10.7738 11.7785C11.6748 11.6231 12.3976 10.9416 12.6131 10.0625H18.3889C18.5186 11.3199 18.5859 12.6437 18.5859 14C18.5859 14.7437 18.5642 15.4861 18.5234 16.2148C17.6051 16.3575 16.8654 17.0463 16.6468 17.9375H10.9079C10.7784 16.6802 10.7109 15.3564 10.7109 14ZM18.8774 19.6875C18.214 19.6875 17.6742 19.1478 17.6742 18.4844C17.6742 17.821 18.214 17.2812 18.8774 17.2812C19.5408 17.2812 20.0805 17.821 20.0805 18.4844C20.0805 19.1478 19.5408 19.6875 18.8774 19.6875ZM18.3382 4.3143C17.9048 3.0141 17.4001 1.99702 16.838 1.27734C18.7326 1.59863 20.5201 2.33855 22.1065 3.46566C21.9538 3.77289 21.8675 4.11868 21.8675 4.48438C21.8675 5.75088 22.8978 6.78125 24.1643 6.78125C24.53 6.78125 24.8758 6.6949 25.183 6.54227C25.7269 7.30778 26.1803 8.12022 26.5403 8.96881H19.3611C19.1338 7.2479 18.7888 5.66634 18.3382 4.3143ZM25.3675 4.48438C25.3675 5.14779 24.8278 5.6875 24.1643 5.6875C23.5009 5.6875 22.9612 5.14779 22.9612 4.48438C22.9612 3.82096 23.5009 3.28125 24.1643 3.28125C24.8278 3.28125 25.3675 3.82096 25.3675 4.48438ZM14.6484 1.09375C15.5647 1.09375 16.5562 2.42698 17.3006 4.66014C17.7178 5.91188 18.0405 7.37417 18.2584 8.96875H12.6132C12.4411 8.26705 11.946 7.69114 11.2949 7.40819C12.1262 3.05134 13.5621 1.09375 14.6484 1.09375ZM10.3826 8.31256C11.046 8.31256 11.5857 8.85227 11.5857 9.51568C11.5857 10.1791 11.046 10.7188 10.3826 10.7188C9.71918 10.7188 9.17947 10.1791 9.17947 9.51568C9.17947 8.85227 9.71918 8.31256 10.3826 8.31256ZM8.15205 10.0626C8.34242 10.8387 8.92802 11.4611 9.6827 11.7031C9.64005 12.4588 9.61719 13.2287 9.61719 14C9.61719 15.3523 9.6827 16.6754 9.80898 17.9375H2.3507C1.9488 16.6797 1.74219 15.3569 1.74219 14C1.74219 12.6501 1.95027 11.3248 2.35398 10.0626H8.15205ZM3.92969 23.5156C3.92969 22.8522 4.4694 22.3125 5.13281 22.3125C5.79623 22.3125 6.33594 22.8522 6.33594 23.5156C6.33594 24.179 5.79623 24.7188 5.13281 24.7188C4.4694 24.7188 3.92969 24.179 3.92969 23.5156ZM16.8325 26.7205C17.0498 26.4441 17.2682 26.112 17.4837 25.7125C18.1492 24.4789 18.6985 22.7776 19.081 20.7717C20.0681 20.6846 20.8776 19.9706 21.108 19.0312H26.5335C24.8428 23.0099 21.2103 25.9711 16.8325 26.7205Z" fill="#679AB4"/>
<path d="M5.02672 5.14391C5.17115 5.14391 5.31164 5.08594 5.41391 4.98367C5.51562 4.88195 5.57359 4.74086 5.57359 4.59703C5.57359 4.4532 5.51562 4.31266 5.41391 4.21039C5.31164 4.10867 5.17115 4.05016 5.02672 4.05016C4.88289 4.05016 4.7418 4.10867 4.64013 4.21039C4.53841 4.31266 4.47984 4.4532 4.47984 4.59703C4.47984 4.74086 4.53836 4.88195 4.64013 4.98367C4.7418 5.08594 4.88289 5.14391 5.02672 5.14391Z" fill="#679AB4"/>
</svg>
