<svg width="52" height="53" viewBox="0 0 52 53" fill="none" xmlns="http://www.w3.org/2000/svg">
<g filter="url(#filter0_d_2382_58632)">
<rect x="10" y="6.5" width="32" height="32" rx="16" fill="white"/>
<path d="M30.1669 21.6667H23.8419L26.5919 18.925C26.7488 18.7681 26.837 18.5552 26.837 18.3333C26.837 18.1114 26.7488 17.8986 26.5919 17.7417C26.435 17.5847 26.2222 17.4966 26.0002 17.4966C25.7783 17.4966 25.5655 17.5847 25.4086 17.7417L21.2419 21.9083C21.166 21.9876 21.1066 22.081 21.0669 22.1833C20.9836 22.3862 20.9836 22.6138 21.0669 22.8167C21.1066 22.919 21.166 23.0124 21.2419 23.0917L25.4086 27.2583C25.486 27.3364 25.5782 27.3984 25.6798 27.4407C25.7813 27.483 25.8902 27.5048 26.0002 27.5048C26.1102 27.5048 26.2192 27.483 26.3207 27.4407C26.4223 27.3984 26.5144 27.3364 26.5919 27.2583C26.67 27.1809 26.732 27.0887 26.7743 26.9871C26.8166 26.8856 26.8384 26.7767 26.8384 26.6667C26.8384 26.5566 26.8166 26.4477 26.7743 26.3462C26.732 26.2446 26.67 26.1525 26.5919 26.075L23.8419 23.3333H30.1669C30.3879 23.3333 30.5999 23.2455 30.7562 23.0892C30.9124 22.933 31.0002 22.721 31.0002 22.5C31.0002 22.279 30.9124 22.067 30.7562 21.9107C30.5999 21.7545 30.3879 21.6667 30.1669 21.6667Z" fill="#9AA2AF"/>
</g>
<defs>
<filter id="filter0_d_2382_58632" x="0" y="0.5" width="52" height="52" filterUnits="userSpaceOnUse" color-interpolation-filters="sRGB">
<feFlood flood-opacity="0" result="BackgroundImageFix"/>
<feColorMatrix in="SourceAlpha" type="matrix" values="0 0 0 0 0 0 0 0 0 0 0 0 0 0 0 0 0 0 127 0" result="hardAlpha"/>
<feOffset dy="4"/>
<feGaussianBlur stdDeviation="5"/>
<feColorMatrix type="matrix" values="0 0 0 0 0.0352941 0 0 0 0 0.117647 0 0 0 0 0.258824 0 0 0 0.06 0"/>
<feBlend mode="normal" in2="BackgroundImageFix" result="effect1_dropShadow_2382_58632"/>
<feBlend mode="normal" in="SourceGraphic" in2="effect1_dropShadow_2382_58632" result="shape"/>
</filter>
</defs>
</svg>
