<svg width="75" height="53" viewBox="0 0 75 53" fill="none" xmlns="http://www.w3.org/2000/svg">
<g filter="url(#filter0_d_2382_58634)">
<rect x="10" y="6.5" width="55" height="32" rx="16" fill="white"/>
<path d="M42.4333 22.1833C42.3937 22.081 42.3342 21.9876 42.2583 21.9083L38.0917 17.7417C38.014 17.664 37.9217 17.6023 37.8202 17.5603C37.7187 17.5182 37.6099 17.4966 37.5 17.4966C37.2781 17.4966 37.0653 17.5847 36.9083 17.7417C36.8306 17.8194 36.769 17.9116 36.7269 18.0131C36.6849 18.1146 36.6633 18.2234 36.6633 18.3333C36.6633 18.5552 36.7514 18.7681 36.9083 18.925L39.6583 21.6667H33.3333C33.1123 21.6667 32.9004 21.7545 32.7441 21.9107C32.5878 22.067 32.5 22.279 32.5 22.5C32.5 22.721 32.5878 22.933 32.7441 23.0892C32.9004 23.2455 33.1123 23.3333 33.3333 23.3333H39.6583L36.9083 26.075C36.8302 26.1525 36.7682 26.2446 36.7259 26.3462C36.6836 26.4477 36.6618 26.5566 36.6618 26.6667C36.6618 26.7767 36.6836 26.8856 36.7259 26.9871C36.7682 27.0887 36.8302 27.1809 36.9083 27.2583C36.9858 27.3364 37.078 27.3984 37.1795 27.4407C37.2811 27.483 37.39 27.5048 37.5 27.5048C37.61 27.5048 37.7189 27.483 37.8205 27.4407C37.922 27.3984 38.0142 27.3364 38.0917 27.2583L42.2583 23.0917C42.3342 23.0124 42.3937 22.919 42.4333 22.8167C42.5167 22.6138 42.5167 22.3862 42.4333 22.1833Z" fill="#EE7500"/>
</g>
<defs>
<filter id="filter0_d_2382_58634" x="0" y="0.5" width="75" height="52" filterUnits="userSpaceOnUse" color-interpolation-filters="sRGB">
<feFlood flood-opacity="0" result="BackgroundImageFix"/>
<feColorMatrix in="SourceAlpha" type="matrix" values="0 0 0 0 0 0 0 0 0 0 0 0 0 0 0 0 0 0 127 0" result="hardAlpha"/>
<feOffset dy="4"/>
<feGaussianBlur stdDeviation="5"/>
<feColorMatrix type="matrix" values="0 0 0 0 0.0352941 0 0 0 0 0.117647 0 0 0 0 0.258824 0 0 0 0.06 0"/>
<feBlend mode="normal" in2="BackgroundImageFix" result="effect1_dropShadow_2382_58634"/>
<feBlend mode="normal" in="SourceGraphic" in2="effect1_dropShadow_2382_58634" result="shape"/>
</filter>
</defs>
</svg>
