<svg width="42" height="40" viewBox="0 0 42 40" fill="none" xmlns="http://www.w3.org/2000/svg">
<path d="M6.86377 37.4873C6.64721 37.4873 6.43639 37.5743 6.28381 37.7268C6.13041 37.8794 6.04346 38.0911 6.04346 38.3076C6.04346 38.5234 6.13041 38.7342 6.28381 38.8876C6.43639 39.0401 6.64803 39.1279 6.86377 39.1279C7.07951 39.1279 7.29033 39.0402 7.44373 38.8876C7.59631 38.7342 7.68408 38.5234 7.68408 38.3076C7.68408 38.0911 7.59631 37.8802 7.44373 37.7268C7.29115 37.5743 7.07951 37.4873 6.86377 37.4873Z" fill="#EE7500"/>
<path d="M38.6499 29.4137H37.422L35.8808 25.7832C35.434 24.7307 34.4063 24.0506 33.2629 24.0506H28.1243C28.1007 24.0206 28.0756 23.9913 28.0472 23.964C26.5488 22.5277 24.5801 21.7368 22.5039 21.7368H19.1237L19.0312 21.644V18.8171C20.6208 17.8065 21.7815 16.1793 22.1703 14.2733H22.4766C24.0145 14.2733 25.2656 13.0221 25.2656 11.4842C25.2656 9.94629 24.0145 8.69514 22.4766 8.69514H22.3125V7.92676C22.3125 4.03684 19.1477 0.87207 15.2578 0.87207C11.3679 0.87207 8.20312 4.03675 8.20312 7.92676V8.69514H8.03906C6.50114 8.69514 5.25 9.94629 5.25 11.4842C5.25 13.0221 6.50114 14.2733 8.03906 14.2733H8.34537C8.7342 16.1792 9.89486 17.8065 11.4844 18.8171V21.644L11.3919 21.7368H8.01175C3.59404 21.7368 0 25.3309 0 29.7485V38.3071C0 38.7601 0.367254 39.1274 0.820312 39.1274H3.58206C4.03512 39.1274 4.40237 38.7601 4.40237 38.3071C4.40237 37.8541 4.03512 37.4868 3.58206 37.4868H1.64062V29.7485C1.64062 26.2355 4.49868 23.3774 8.01175 23.3774H9.75704L8.80146 24.3364C8.48195 24.6569 8.48252 25.1758 8.80277 25.4957L12.0141 28.7039C12.1743 28.8639 12.3841 28.9439 12.5938 28.9439C12.8038 28.9439 13.0138 28.8638 13.1739 28.7036L13.2638 28.6137L14.3538 29.7038L12.5042 37.4867H10.1446C9.6915 37.4867 9.32425 37.8541 9.32425 38.307C9.32425 38.76 9.6915 39.1273 10.1446 39.1273H17.3589C17.3601 39.1273 17.3614 39.1275 17.3627 39.1275C17.3636 39.1275 17.3645 39.1273 17.3654 39.1273H29.6953C30.1484 39.1273 30.5156 38.76 30.5156 38.307V36.4634H34.5586C34.5585 36.4764 34.5576 36.4892 34.5576 36.5023C34.5576 37.9498 35.7352 39.1273 37.1826 39.1273C38.6301 39.1273 39.8076 37.9498 39.8076 36.5023C39.8076 36.4908 39.8069 36.4794 39.8067 36.4679H41.1797C41.6327 36.4679 42 36.1006 42 35.6476V32.7637C42 30.9166 40.4972 29.4137 38.6499 29.4137ZM34.3707 26.4244L35.6397 29.4137H30.7932V25.6912H33.2629C33.7468 25.6912 34.1816 25.979 34.3707 26.4244ZM26.6829 25.6912H29.1525V29.4137H24.306L25.575 26.4245C25.7642 25.979 26.1991 25.6912 26.6829 25.6912ZM22.5039 23.3774C23.6376 23.3774 24.7308 23.674 25.6904 24.2296C24.9713 24.497 24.3766 25.0491 24.0649 25.7833L22.5236 29.4137H22.0531C20.2059 29.4137 18.703 30.9165 18.703 32.7638V35.6477C18.703 35.8655 18.7897 36.0743 18.9438 36.2282C19.0976 36.3818 19.3061 36.468 19.5234 36.468C19.5238 36.468 19.5243 36.468 19.5247 36.468L21.6062 36.4647C21.606 36.4773 21.6052 36.4898 21.6052 36.5024C21.6052 36.8505 21.6739 37.1826 21.7974 37.4868H18.0114L16.1617 29.7038L17.2517 28.6138L17.3417 28.7037C17.5019 28.8638 17.7117 28.944 17.9217 28.944C18.1315 28.944 18.3413 28.8639 18.5014 28.704L21.7128 25.4958C22.0329 25.176 22.0336 24.657 21.7141 24.3365L20.7585 23.3775H22.5039V23.3774ZM23.2459 36.5024C23.2459 35.9596 23.6875 35.5181 24.2303 35.5181C24.7731 35.5181 25.2147 35.9596 25.2147 36.5024C25.2147 37.0452 24.7731 37.4868 24.2303 37.4868C23.6875 37.4868 23.2459 37.0453 23.2459 36.5024ZM18.4965 23.4317L19.9737 24.9142L17.922 26.9638L17.8319 26.8737L16.4432 25.4851L18.4965 23.4317ZM23.625 11.4843C23.625 12.1176 23.1098 12.6327 22.4766 12.6327H22.3125V10.3359H22.4766C23.1098 10.3359 23.625 10.851 23.625 11.4843ZM9.84375 7.92684C9.84375 4.94156 12.2724 2.51278 15.2578 2.51278C18.2432 2.51278 20.6719 4.94148 20.6719 7.92684V8.69523H18.8181C18.4902 8.69523 18.1742 8.61812 17.8909 8.47243C18.2639 8.19492 18.6195 7.88804 18.9543 7.55327C19.2746 7.23294 19.2746 6.71352 18.9543 6.3931C18.634 6.07277 18.1146 6.07277 17.7941 6.3931C16.3097 7.87762 14.3359 8.69514 12.2366 8.69514H9.84375V7.92684ZM6.89062 11.4843C6.89062 10.851 7.40578 10.3359 8.03906 10.3359H8.20312V12.6327H8.03906C7.40578 12.6327 6.89062 12.1176 6.89062 11.4843ZM9.84375 12.8611V10.3359H12.2367C13.6904 10.3359 15.0942 10.0115 16.3656 9.39717C17.0404 10.004 17.9037 10.3359 18.8181 10.3359H20.6719V12.8611C20.6719 15.8465 18.2432 18.2752 15.2578 18.2752C12.2724 18.2752 9.84375 15.8464 9.84375 12.8611ZM15.2578 19.9158C16.001 19.9158 16.7174 19.7995 17.3906 19.5854V22.2173L15.2578 24.3502L13.125 22.2173V19.5854C13.7982 19.7995 14.5146 19.9158 15.2578 19.9158ZM10.5419 24.9142L12.0191 23.4317L14.0725 25.4851L12.6838 26.8737L12.5937 26.9638L10.5419 24.9142ZM15.2578 26.6198L16.0917 27.4537L15.2578 28.2877L14.4239 27.4537L15.2578 26.6198ZM15.2578 32.9956L16.3251 37.4868H14.1904L15.2578 32.9956ZM28.875 37.4868H26.6631C26.7866 37.1826 26.8553 36.8505 26.8553 36.5024C26.8553 36.4894 26.8545 36.4765 26.8543 36.4635H28.875V37.4868ZM37.1826 37.4868C36.6398 37.4868 36.1983 37.0452 36.1983 36.5024C36.1983 35.9596 36.6398 35.5181 37.1826 35.5181C37.7254 35.5181 38.167 35.9596 38.167 36.5024C38.167 37.0452 37.7254 37.4868 37.1826 37.4868ZM40.3594 34.8274H39.202C38.7201 34.2474 37.9938 33.8774 37.1826 33.8774C36.3736 33.8774 35.6491 34.2456 35.1671 34.8228H26.2458C25.7639 34.2455 25.0394 33.8774 24.2303 33.8774C23.4212 33.8774 22.6966 34.2457 22.2146 34.8231L20.3438 34.8261V32.7638C20.3438 31.8212 21.1106 31.0543 22.0532 31.0543H23.0667H29.1526V32.3865C29.1526 32.8395 29.5198 33.2068 29.9729 33.2068C30.426 33.2068 30.7932 32.8395 30.7932 32.3865V31.0543H36.8791H38.6499C39.5925 31.0543 40.3594 31.8212 40.3594 32.7638V34.8274Z" fill="#EE7500"/>
</svg>
