<svg width="20" height="20" viewBox="0 0 20 20" fill="none" xmlns="http://www.w3.org/2000/svg">
<path d="M14.5825 7.25016H5.41581C5.1727 7.25016 4.93954 7.34674 4.76763 7.51865C4.59572 7.69056 4.49915 7.92371 4.49915 8.16683C4.49915 8.40994 4.59572 8.6431 4.76763 8.81501C4.93954 8.98692 5.1727 9.0835 5.41581 9.0835H14.5825C14.8256 9.0835 15.0588 8.98692 15.2307 8.81501C15.4026 8.6431 15.4991 8.40994 15.4991 8.16683C15.4991 7.92371 15.4026 7.69056 15.2307 7.51865C15.0588 7.34674 14.8256 7.25016 14.5825 7.25016ZM10.9158 10.9168H5.41581C5.1727 10.9168 4.93954 11.0134 4.76763 11.1853C4.59572 11.3572 4.49915 11.5904 4.49915 11.8335C4.49915 12.0766 4.59572 12.3098 4.76763 12.4817C4.93954 12.6536 5.1727 12.7502 5.41581 12.7502H10.9158C11.1589 12.7502 11.3921 12.6536 11.564 12.4817C11.7359 12.3098 11.8325 12.0766 11.8325 11.8335C11.8325 11.5904 11.7359 11.3572 11.564 11.1853C11.3921 11.0134 11.1589 10.9168 10.9158 10.9168ZM9.99915 0.833496C8.79536 0.833496 7.60336 1.0706 6.49121 1.53127C5.37906 1.99194 4.36854 2.66715 3.51733 3.51835C1.79825 5.23743 0.832478 7.56901 0.832478 10.0002C0.824464 12.1169 1.55737 14.1697 2.90415 15.8027L1.07081 17.636C0.943617 17.7649 0.857454 17.9286 0.823194 18.1064C0.788935 18.2842 0.808114 18.4682 0.878311 18.6352C0.954448 18.8001 1.07787 18.9387 1.23292 19.0334C1.38797 19.128 1.56765 19.1745 1.74914 19.1668H9.99915C12.4303 19.1668 14.7619 18.2011 16.481 16.482C18.2 14.7629 19.1658 12.4313 19.1658 10.0002C19.1658 7.56901 18.2 5.23743 16.481 3.51835C14.7619 1.79927 12.4303 0.833496 9.99915 0.833496ZM9.99915 17.3335H3.95831L4.81081 16.481C4.98154 16.3092 5.07737 16.0769 5.07737 15.8347C5.07737 15.5926 4.98154 15.3602 4.81081 15.1885C3.61052 13.9895 2.86305 12.4115 2.69578 10.7232C2.5285 9.03496 2.95176 7.34092 3.89344 5.92972C4.83511 4.51853 6.23695 3.47749 7.86012 2.98397C9.48328 2.49045 11.2274 2.57498 12.7952 3.22317C14.363 3.87135 15.6576 5.04308 16.4584 6.53873C17.2592 8.03438 17.5166 9.76141 17.1868 11.4256C16.8571 13.0898 15.9605 14.5881 14.6499 15.6654C13.3393 16.7426 11.6957 17.3322 9.99915 17.3335Z" fill="#EE7500"/>
</svg>
