<svg width="43" height="42" viewBox="0 0 43 42" fill="none" xmlns="http://www.w3.org/2000/svg">
<path d="M22.7787 19.25V19.65H23.1787H24.9287C25.2867 19.65 25.6301 19.7922 25.8833 20.0454C26.1365 20.2986 26.2787 20.642 26.2787 21C26.2787 21.358 26.1365 21.7014 25.8833 21.9546C25.6301 22.2078 25.2867 22.35 24.9287 22.35H23.1787H22.7787V22.75V24.5C22.7787 24.858 22.6365 25.2014 22.3833 25.4546C22.1301 25.7078 21.7867 25.85 21.4287 25.85C21.0707 25.85 20.7273 25.7078 20.4741 25.4546C20.2209 25.2014 20.0787 24.858 20.0787 24.5V22.75V22.35H19.6787H17.9287C17.5707 22.35 17.2273 22.2078 16.9741 21.9546C16.7209 21.7014 16.5787 21.358 16.5787 21C16.5787 20.642 16.7209 20.2986 16.9741 20.0454C17.2273 19.7922 17.5707 19.65 17.9287 19.65H19.6787H20.0787V19.25V17.5C20.0787 17.142 20.2209 16.7986 20.4741 16.5454C20.7273 16.2922 21.0707 16.15 21.4287 16.15C21.7867 16.15 22.1301 16.2922 22.3833 16.5454C22.6365 16.7986 22.7787 17.142 22.7787 17.5V19.25ZM21.19 8.03846L21.4278 8.21534L21.6663 8.03933C23.7018 6.53687 26.2073 5.81141 28.7307 5.99386C31.2533 6.17626 33.6277 7.254 35.4257 9.0327C36.4037 10.0237 37.1763 11.198 37.6992 12.4884C38.2224 13.7795 38.4853 15.1612 38.4727 16.5543C38.4602 17.9473 38.1725 19.3241 37.6262 20.6055C37.0798 21.887 36.2856 23.0479 35.2892 24.0214L35.2891 24.0214L35.2847 24.0258L24.786 34.612C24.7858 34.6122 24.7857 34.6124 24.7855 34.6126C23.8762 35.5204 22.6437 36.0304 21.3587 36.0304C20.0737 36.0304 18.8413 35.5204 17.9319 34.6126C17.9317 34.6124 17.9316 34.6122 17.9314 34.612L7.43273 24.0258L7.43056 24.0237C5.53327 22.1396 4.42031 19.6067 4.3158 16.9349C4.21129 14.2631 5.123 11.651 6.86732 9.62448C8.61164 7.59799 11.059 6.30768 13.7166 6.01339C16.3742 5.71911 19.0445 6.4427 21.19 8.03846ZM32.8412 22.7707V22.8163L33.5262 22.1207C34.9829 20.6414 35.7993 18.6486 35.7993 16.5725C35.7993 14.4964 34.9829 12.5036 33.5262 11.0244L33.5262 11.0243L33.5222 11.0204C32.0488 9.56568 30.0617 8.75 27.9912 8.75C25.9207 8.75 23.9336 9.56568 22.4602 11.0204L22.4572 11.0233C22.3317 11.1499 22.1824 11.2503 22.0179 11.3188C21.8534 11.3874 21.6769 11.4227 21.4987 11.4227C21.3205 11.4227 21.144 11.3874 20.9795 11.3188C20.815 11.2503 20.6657 11.1499 20.5402 11.0233L20.5402 11.0233L20.5372 11.0204C19.0638 9.56568 17.0767 8.75 15.0062 8.75C12.9357 8.75 10.9486 9.56568 9.47517 11.0204L9.47513 11.0203L9.47027 11.0253C8.02473 12.5029 7.21527 14.4879 7.21527 16.555C7.21527 18.6221 8.02473 20.6071 9.47027 22.0847L9.47336 22.0878L19.9722 32.5867C19.9725 32.5869 19.9727 32.5872 19.9729 32.5874C20.1727 32.7886 20.4102 32.9483 20.6719 33.0573C20.9339 33.1665 21.2149 33.2227 21.4987 33.2227C21.7825 33.2227 22.0635 33.1665 22.3255 33.0573C22.5873 32.9482 22.825 32.7885 23.0247 32.5872C23.0249 32.587 23.025 32.5868 23.0252 32.5867L32.8412 22.7707Z" fill="#EE7500" stroke="white" stroke-width="0.8"/>
</svg>
