<svg width="32" height="32" viewBox="0 0 32 32" fill="none" xmlns="http://www.w3.org/2000/svg">
<path d="M31.5613 16.4639L24.5762 14.2832C24.5122 14.2615 24.4446 14.2498 24.3755 14.2498C24.3752 14.2498 24.3748 14.2498 24.3745 14.2498C24.3057 14.2498 24.2378 14.2615 24.1741 14.283L23.2449 14.5732V6.125C23.2449 5.95239 23.1748 5.79614 23.0618 5.68311L17.5618 0.183105C17.4487 0.0698242 17.2925 0 17.1199 0H1.875C0.841064 0 0 0.841064 0 1.875V11.9375C0 12.2827 0.279785 12.5625 0.625 12.5625C0.970215 12.5625 1.25 12.2827 1.25 11.9375V1.875C1.25 1.53027 1.53027 1.25 1.875 1.25H16.4949V4.96094C16.4949 5.94751 17.2974 6.75 18.2837 6.75H21.9949V14.9634L17.1887 16.4639C16.9277 16.5454 16.75 16.7871 16.75 17.0605V17.1238H4.43823C4.09302 17.1238 3.81323 17.4036 3.81323 17.7488C3.81323 18.094 4.09302 18.3738 4.43823 18.3738H16.75V20.625H4.43823C4.09302 20.625 3.81323 20.9048 3.81323 21.25C3.81323 21.5952 4.09302 21.875 4.43823 21.875H16.75V22.9062C16.75 24.8784 17.3765 26.7292 18.4548 28.25H1.875C1.53027 28.25 1.25 27.9697 1.25 27.625V17.5625C1.25 17.2173 0.970215 16.9375 0.625 16.9375C0.279785 16.9375 0 17.2173 0 17.5625V27.625C0 28.6589 0.841064 29.5 1.875 29.5H19.5183C20.7842 30.7454 22.4136 31.6355 24.2573 31.9888C24.2961 31.9963 24.3357 32 24.375 32C24.4143 32 24.4539 31.9963 24.4927 31.9888C28.8428 31.1553 32 27.3354 32 22.9062V17.0605C32 16.7871 31.8223 16.5454 31.5613 16.4639ZM18.2837 5.5C17.9866 5.5 17.7449 5.2583 17.7449 4.96094V2.13379L21.1108 5.5H18.2837ZM30.75 22.9062C30.75 26.6968 28.0764 29.9712 24.375 30.7378C20.6736 29.9712 18 26.6968 18 22.9062V17.5203L24.375 15.5298L30.75 17.5203V22.9062Z" fill="#F4812F"/>
</svg>
