<svg width="140" height="49" viewBox="0 0 140 49" fill="none" xmlns="http://www.w3.org/2000/svg">
<path d="M0 6.17188C0 2.85817 2.68629 0.171875 6 0.171875H134C137.314 0.171875 140 2.85817 140 6.17188V42.1719C140 45.4856 137.314 48.1719 134 48.1719H6C2.6863 48.1719 0 45.4856 0 42.1719V6.17188Z" fill="#1A1C1F"/>
<path d="M13.199 13.5497C12.895 13.9144 12.7415 14.3814 12.7699 14.8554V35.4866C12.7415 35.9606 12.895 36.4276 13.199 36.7923L13.2643 36.8576L24.8203 25.3109V25.0404L13.2643 13.4844L13.199 13.5497Z" fill="url(#paint0_linear_9348_127767)"/>
<path d="M28.6434 29.1635L24.8193 25.3115V25.041L28.6434 21.1797L28.7273 21.2263L33.3068 23.8285C34.6126 24.5654 34.6126 25.7779 33.3068 26.524L28.746 29.1169L28.6434 29.1635Z" fill="url(#paint1_linear_9348_127767)"/>
<path d="M28.7565 29.1078L24.8206 25.1719L13.1992 36.7932C13.7483 37.2759 14.5632 37.2994 15.1392 36.8492L28.7658 29.1078" fill="url(#paint2_linear_9348_127767)"/>
<path d="M28.7551 21.2357L15.1285 13.4944C14.5525 13.0441 13.7376 13.0676 13.1885 13.5503L24.8191 25.1717L28.7551 21.2357Z" fill="url(#paint3_linear_9348_127767)"/>
<path fill-rule="evenodd" clip-rule="evenodd" d="M70.1514 17.8953C71.3684 19.1055 73.3344 19.1055 74.5514 17.8953C75.7362 16.6485 75.7362 14.692 74.5514 13.4453C73.9694 12.859 73.1775 12.5293 72.3514 12.5293C71.5253 12.5293 70.7334 12.859 70.1514 13.4453C68.9717 14.694 68.9717 16.6465 70.1514 17.8953ZM47.6116 17.9159C48.1248 17.38 48.3959 16.6571 48.3616 15.9159C48.3616 15.765 48.3482 15.6144 48.3216 15.4659H45.4116V16.1859H47.5816C47.5668 16.6394 47.3893 17.0724 47.0816 17.4059C46.3962 18.0684 45.3795 18.2536 44.5045 17.8752C43.6295 17.4967 43.0682 16.6291 43.0816 15.6759C43.0598 15.0451 43.296 14.4327 43.7356 13.9798C44.1752 13.527 44.7804 13.2728 45.4116 13.2759C46.0395 13.2416 46.6469 13.5046 47.0516 13.9859L47.5816 13.4559C47.3256 13.1615 47.0034 12.9319 46.6416 12.7859C46.2529 12.6196 45.8343 12.5345 45.4116 12.5359C44.5821 12.5174 43.7821 12.8432 43.2016 13.4359C42.3081 14.3352 42.0408 15.6825 42.5233 16.8548C43.0057 18.0271 44.1439 18.796 45.4116 18.8059C46.2381 18.8353 47.038 18.5117 47.6116 17.9159ZM50.2414 13.4158H52.9414V12.6758H49.4414V18.6758H52.9414V17.9358H50.2414V16.0358H52.7014V15.3158H50.2414V13.4158ZM56.2215 18.6758H55.4515V13.4158H53.7715V12.6758H57.9415V13.4158H56.2215V18.6758ZM60.8818 12.6758V18.6758H61.6518V12.6758H60.8818ZM65.0711 18.6758H64.3011V13.4158H62.6211V12.6758H66.7411V13.4158H65.0711V18.6758ZM70.7215 17.3944C71.6228 18.292 73.0802 18.292 73.9815 17.3944C74.8667 16.4186 74.8667 14.9303 73.9815 13.9544C73.0802 13.0569 71.6228 13.0569 70.7215 13.9544C69.8363 14.9303 69.8363 16.4186 70.7215 17.3944ZM76.5215 12.6758V18.6758H77.3015V13.7858L80.3515 18.6758H81.1515V12.6758H80.3815V17.3458L77.4615 12.6758H76.5215Z" fill="white"/>
<path d="M74.5514 17.8953L74.6219 17.9662L74.6239 17.9641L74.5514 17.8953ZM70.1514 17.8953L70.0787 17.964L70.0809 17.9662L70.1514 17.8953ZM74.5514 13.4453L74.6239 13.3764L74.6224 13.3748L74.5514 13.4453ZM70.1514 13.4453L70.0804 13.3748L70.0787 13.3766L70.1514 13.4453ZM48.3616 15.9159L48.2615 15.9159L48.2617 15.9205L48.3616 15.9159ZM47.6116 17.9159L47.6836 17.9853L47.6838 17.9851L47.6116 17.9159ZM48.3216 15.4659L48.42 15.4482L48.4052 15.3659H48.3216V15.4659ZM45.4116 15.4659V15.3659H45.3116V15.4659H45.4116ZM45.4116 16.1859H45.3116V16.2859H45.4116V16.1859ZM47.5816 16.1859L47.6815 16.1892L47.6849 16.0859H47.5816V16.1859ZM47.0816 17.4059L47.1512 17.4779L47.1551 17.4737L47.0816 17.4059ZM44.5045 17.8752L44.4648 17.9669H44.4648L44.5045 17.8752ZM43.0816 15.6759L43.1817 15.6773L43.1815 15.6725L43.0816 15.6759ZM43.7356 13.9798L43.6639 13.9102L43.7356 13.9798ZM45.4116 13.2759L45.4111 13.3761L45.417 13.3758L45.4116 13.2759ZM47.0516 13.9859L46.975 14.0503L47.0452 14.1337L47.1223 14.0566L47.0516 13.9859ZM47.5816 13.4559L47.6523 13.5266L47.7182 13.4607L47.657 13.3903L47.5816 13.4559ZM46.6416 12.7859L46.6022 12.8779L46.6042 12.8786L46.6416 12.7859ZM45.4116 12.5359L45.4093 12.6359L45.4119 12.6359L45.4116 12.5359ZM43.2016 13.4359L43.2725 13.5064L43.273 13.5059L43.2016 13.4359ZM42.5233 16.8548L42.4308 16.8929L42.5233 16.8548ZM45.4116 18.8059L45.4151 18.7059L45.4124 18.7059L45.4116 18.8059ZM52.9414 13.4158V13.5158H53.0414V13.4158H52.9414ZM50.2414 13.4158V13.3158H50.1414V13.4158H50.2414ZM52.9414 12.6758H53.0414V12.5758H52.9414V12.6758ZM49.4414 12.6758V12.5758H49.3414V12.6758H49.4414ZM49.4414 18.6758H49.3414V18.7758H49.4414V18.6758ZM52.9414 18.6758V18.7758H53.0414V18.6758H52.9414ZM52.9414 17.9358H53.0414V17.8358H52.9414V17.9358ZM50.2414 17.9358H50.1414V18.0358H50.2414V17.9358ZM50.2414 16.0358V15.9358H50.1414V16.0358H50.2414ZM52.7014 16.0358V16.1358H52.8014V16.0358H52.7014ZM52.7014 15.3158H52.8014V15.2158H52.7014V15.3158ZM50.2414 15.3158H50.1414V15.4158H50.2414V15.3158ZM55.4515 18.6758H55.3515V18.7758H55.4515V18.6758ZM56.2215 18.6758V18.7758H56.3215V18.6758H56.2215ZM55.4515 13.4158H55.5515V13.3158H55.4515V13.4158ZM53.7715 13.4158H53.6715V13.5158H53.7715V13.4158ZM53.7715 12.6758V12.5758H53.6715V12.6758H53.7715ZM57.9415 12.6758H58.0415V12.5758H57.9415V12.6758ZM57.9415 13.4158V13.5158H58.0415V13.4158H57.9415ZM56.2215 13.4158V13.3158H56.1215V13.4158H56.2215ZM60.8818 18.6758H60.7818V18.7758H60.8818V18.6758ZM60.8818 12.6758V12.5758H60.7818V12.6758H60.8818ZM61.6518 18.6758V18.7758H61.7518V18.6758H61.6518ZM61.6518 12.6758H61.7518V12.5758H61.6518V12.6758ZM64.3011 18.6758H64.2011V18.7758H64.3011V18.6758ZM65.0711 18.6758V18.7758H65.1711V18.6758H65.0711ZM64.3011 13.4158H64.4011V13.3158H64.3011V13.4158ZM62.6211 13.4158H62.5211V13.5158H62.6211V13.4158ZM62.6211 12.6758V12.5758H62.5211V12.6758H62.6211ZM66.7411 12.6758H66.8411V12.5758H66.7411V12.6758ZM66.7411 13.4158V13.5158H66.8411V13.4158H66.7411ZM65.0711 13.4158V13.3158H64.9711V13.4158H65.0711ZM73.9815 17.3944L74.0522 17.4654L74.0556 17.4616L73.9815 17.3944ZM70.7215 17.3944L70.6474 17.4617L70.651 17.4653L70.7215 17.3944ZM73.9815 13.9544L74.0557 13.8871L74.0521 13.8836L73.9815 13.9544ZM70.7215 13.9544L70.6509 13.8835L70.6474 13.8872L70.7215 13.9544ZM76.5215 18.6758H76.4215V18.7758H76.5215V18.6758ZM76.5215 12.6758V12.5758H76.4215V12.6758H76.5215ZM77.3015 18.6758V18.7758H77.4015V18.6758H77.3015ZM77.3015 13.7858L77.3863 13.7329L77.2015 13.4365V13.7858H77.3015ZM80.3515 18.6758L80.2666 18.7287L80.296 18.7758H80.3515V18.6758ZM81.1515 18.6758V18.7758H81.2515V18.6758H81.1515ZM81.1515 12.6758H81.2515V12.5758H81.1515V12.6758ZM80.3815 12.6758V12.5758H80.2815V12.6758H80.3815ZM80.3815 17.3458L80.2967 17.3988L80.4815 17.6943V17.3458H80.3815ZM77.4615 12.6758L77.5463 12.6228L77.5169 12.5758H77.4615V12.6758ZM74.4809 17.8244C73.3029 18.9958 71.3999 18.9958 70.2219 17.8244L70.0809 17.9662C71.3369 19.2152 73.3659 19.2152 74.6219 17.9662L74.4809 17.8244ZM74.4789 13.5141C75.627 14.7223 75.627 16.6182 74.4789 17.8264L74.6239 17.9641C75.8453 16.6788 75.8453 14.6617 74.6239 13.3764L74.4789 13.5141ZM72.3514 12.6293C73.1508 12.6293 73.9172 12.9484 74.4804 13.5157L74.6224 13.3748C74.0216 12.7696 73.2041 12.4293 72.3514 12.4293V12.6293ZM70.2224 13.5157C70.7856 12.9484 71.552 12.6293 72.3514 12.6293V12.4293C71.4987 12.4293 70.6812 12.7696 70.0804 13.3748L70.2224 13.5157ZM70.2241 17.8266C69.0808 16.6164 69.0808 14.7242 70.2241 13.5139L70.0787 13.3766C68.8626 14.6639 68.8626 16.6766 70.0787 17.9639L70.2241 17.8266ZM48.2617 15.9205C48.2948 16.6344 48.0337 17.3306 47.5394 17.8467L47.6838 17.9851C48.216 17.4294 48.4971 16.6799 48.4615 15.9113L48.2617 15.9205ZM48.2231 15.4836C48.2488 15.6262 48.2616 15.7709 48.2616 15.9159L48.4616 15.9159C48.4616 15.7591 48.4477 15.6026 48.42 15.4482L48.2231 15.4836ZM45.4116 15.5659H48.3216V15.3659H45.4116V15.5659ZM45.5116 16.1859V15.4659H45.3116V16.1859H45.5116ZM47.5816 16.0859H45.4116V16.2859H47.5816V16.0859ZM47.1551 17.4737C47.4791 17.1226 47.6659 16.6667 47.6815 16.1892L47.4816 16.1826C47.4676 16.6121 47.2995 17.0223 47.0081 17.3381L47.1551 17.4737ZM44.4648 17.9669C45.3768 18.3614 46.4366 18.1684 47.1511 17.4778L47.0121 17.334C46.3557 17.9685 45.3821 18.1458 44.5442 17.7834L44.4648 17.9669ZM42.9816 15.6745C42.9676 16.6681 43.5528 17.5725 44.4648 17.9669L44.5442 17.7834C43.7063 17.421 43.1687 16.5901 43.1816 15.6773L42.9816 15.6745ZM43.6639 13.9102C43.2053 14.3826 42.9589 15.0214 42.9816 15.6794L43.1815 15.6725C43.1607 15.0689 43.3867 14.4828 43.8074 14.0495L43.6639 13.9102ZM45.4121 13.1759C44.7537 13.1727 44.1225 13.4378 43.6639 13.9102L43.8074 14.0495C44.228 13.6162 44.8071 13.3729 45.4111 13.3759L45.4121 13.1759ZM47.1281 13.9216C46.7032 13.4162 46.0654 13.14 45.4061 13.1761L45.417 13.3758C46.0135 13.3432 46.5906 13.593 46.975 14.0503L47.1281 13.9216ZM47.5109 13.3852L46.9809 13.9152L47.1223 14.0566L47.6523 13.5266L47.5109 13.3852ZM46.6042 12.8786C46.9514 13.0187 47.2605 13.239 47.5061 13.5215L47.657 13.3903C47.3907 13.0839 47.0555 12.845 46.679 12.6932L46.6042 12.8786ZM45.4119 12.6359C45.821 12.6345 46.2261 12.7169 46.6022 12.8778L46.6809 12.694C46.2797 12.5223 45.8476 12.4344 45.4112 12.4359L45.4119 12.6359ZM43.273 13.5059C43.8342 12.933 44.6076 12.618 45.4093 12.6359L45.4138 12.4359C44.5567 12.4168 43.73 12.7535 43.1301 13.3659L43.273 13.5059ZM42.6157 16.8168C42.1486 15.6817 42.4074 14.3772 43.2725 13.5064L43.1306 13.3654C42.2088 14.2933 41.933 15.6834 42.4308 16.8929L42.6157 16.8168ZM45.4124 18.7059C44.1849 18.6963 43.0829 17.9518 42.6157 16.8168L42.4308 16.8929C42.9286 18.1024 44.1029 18.8957 45.4108 18.9059L45.4124 18.7059ZM47.5395 17.8465C46.9857 18.4219 46.2132 18.7344 45.4151 18.706L45.408 18.9058C46.2629 18.9363 47.0904 18.6015 47.6836 17.9853L47.5395 17.8465ZM52.9414 13.3158H50.2414V13.5158H52.9414V13.3158ZM52.8414 12.6758V13.4158H53.0414V12.6758H52.8414ZM49.4414 12.7758H52.9414V12.5758H49.4414V12.7758ZM49.5414 18.6758V12.6758H49.3414V18.6758H49.5414ZM52.9414 18.5758H49.4414V18.7758H52.9414V18.5758ZM52.8414 17.9358V18.6758H53.0414V17.9358H52.8414ZM50.2414 18.0358H52.9414V17.8358H50.2414V18.0358ZM50.1414 16.0358V17.9358H50.3414V16.0358H50.1414ZM52.7014 15.9358H50.2414V16.1358H52.7014V15.9358ZM52.6014 15.3158V16.0358H52.8014V15.3158H52.6014ZM50.2414 15.4158H52.7014V15.2158H50.2414V15.4158ZM50.1414 13.4158V15.3158H50.3414V13.4158H50.1414ZM55.4515 18.7758H56.2215V18.5758H55.4515V18.7758ZM55.3515 13.4158V18.6758H55.5515V13.4158H55.3515ZM53.7715 13.5158H55.4515V13.3158H53.7715V13.5158ZM53.6715 12.6758V13.4158H53.8715V12.6758H53.6715ZM57.9415 12.5758H53.7715V12.7758H57.9415V12.5758ZM58.0415 13.4158V12.6758H57.8415V13.4158H58.0415ZM56.2215 13.5158H57.9415V13.3158H56.2215V13.5158ZM56.3215 18.6758V13.4158H56.1215V18.6758H56.3215ZM60.9818 18.6758V12.6758H60.7818V18.6758H60.9818ZM61.6518 18.5758H60.8818V18.7758H61.6518V18.5758ZM61.5518 12.6758V18.6758H61.7518V12.6758H61.5518ZM60.8818 12.7758H61.6518V12.5758H60.8818V12.7758ZM64.3011 18.7758H65.0711V18.5758H64.3011V18.7758ZM64.2011 13.4158V18.6758H64.4011V13.4158H64.2011ZM62.6211 13.5158H64.3011V13.3158H62.6211V13.5158ZM62.5211 12.6758V13.4158H62.7211V12.6758H62.5211ZM66.7411 12.5758H62.6211V12.7758H66.7411V12.5758ZM66.8411 13.4158V12.6758H66.6411V13.4158H66.8411ZM65.0711 13.5158H66.7411V13.3158H65.0711V13.5158ZM65.1711 18.6758V13.4158H64.9711V18.6758H65.1711ZM73.911 17.3236C73.0486 18.1823 71.6544 18.1823 70.7921 17.3236L70.651 17.4653C71.5913 18.4017 73.1117 18.4017 74.0521 17.4653L73.911 17.3236ZM73.9074 14.0216C74.7581 14.9593 74.7581 16.3895 73.9074 17.3272L74.0556 17.4616C74.9754 16.4477 74.9754 14.9012 74.0556 13.8872L73.9074 14.0216ZM70.7921 14.0253C71.6544 13.1666 73.0486 13.1666 73.911 14.0253L74.0521 13.8836C73.1117 12.9471 71.5913 12.9471 70.651 13.8836L70.7921 14.0253ZM70.7956 17.3272C69.945 16.3895 69.945 14.9593 70.7956 14.0216L70.6474 13.8872C69.7277 14.9012 69.7277 16.4477 70.6474 17.4616L70.7956 17.3272ZM76.6215 18.6758V12.6758H76.4215V18.6758H76.6215ZM77.3015 18.5758H76.5215V18.7758H77.3015V18.5758ZM77.2015 13.7858V18.6758H77.4015V13.7858H77.2015ZM80.4363 18.6229L77.3863 13.7329L77.2166 13.8387L80.2666 18.7287L80.4363 18.6229ZM81.1515 18.5758H80.3515V18.7758H81.1515V18.5758ZM81.0515 12.6758V18.6758H81.2515V12.6758H81.0515ZM80.3815 12.7758H81.1515V12.5758H80.3815V12.7758ZM80.4815 17.3458V12.6758H80.2815V17.3458H80.4815ZM77.3767 12.7288L80.2967 17.3988L80.4663 17.2928L77.5463 12.6228L77.3767 12.7288ZM76.5215 12.7758H77.4615V12.5758H76.5215V12.7758Z" fill="white"/>
<path fill-rule="evenodd" clip-rule="evenodd" d="M49.1532 28.8736V30.6736H53.4732C53.4054 31.5214 53.053 32.3214 52.4732 32.9436C51.5992 33.8338 50.3897 34.3133 49.1432 34.2636C46.4922 34.2636 44.3432 32.1146 44.3432 29.4636C44.3432 26.8126 46.4922 24.6636 49.1432 24.6636C50.361 24.6438 51.5369 25.1077 52.4132 25.9536L53.6832 24.6836C52.4881 23.4735 50.8539 22.7989 49.1532 22.8136C46.7321 22.7194 44.4536 23.9573 43.215 26.0397C41.9765 28.1221 41.9765 30.7152 43.215 32.7976C44.4536 34.8799 46.7321 36.1178 49.1532 36.0236C50.8849 36.1019 52.5659 35.4273 53.7632 34.1736C54.8109 33.0225 55.3702 31.5094 55.3232 29.9536C55.3264 29.5746 55.2929 29.1962 55.2232 28.8236L49.1532 28.8736ZM60.2429 27.5633C57.897 27.5688 55.9993 29.474 56.0029 31.8199C56.0066 34.1658 57.9103 36.0651 60.2563 36.0633C62.6022 36.0614 64.5029 34.1592 64.5029 31.8133C64.5194 30.6776 64.0742 29.584 63.2692 28.7828C62.4642 27.9816 61.3685 27.5415 60.2329 27.5633H60.2429ZM65.3233 31.8265C65.3159 29.482 67.2087 27.5743 69.5532 27.5633C70.6888 27.5415 71.7845 27.9816 72.5895 28.7828C73.3945 29.584 73.8397 30.6776 73.8232 31.8133C73.8232 34.1579 71.9245 36.0596 69.5799 36.0632C67.2353 36.0669 65.3306 34.1711 65.3233 31.8265ZM67.045 32.9325C67.5017 33.8884 68.4962 34.468 69.553 34.394C70.2163 34.3787 70.8453 34.096 71.2972 33.6102C71.749 33.1244 71.9856 32.4767 71.953 31.814C71.9504 30.7547 71.3006 29.8046 70.3142 29.4181C69.3279 29.0317 68.2055 29.2874 67.484 30.0631C66.7624 30.8387 66.5884 31.9766 67.045 32.9325ZM57.7281 32.9394C58.1879 33.8947 59.1854 34.4714 60.2427 34.3933H60.2327C60.896 34.3779 61.5249 34.0953 61.9768 33.6095C62.4287 33.1237 62.6652 32.476 62.6327 31.8133C62.6298 30.7531 61.9786 29.8026 60.9911 29.417C60.0035 29.0314 58.8805 29.2893 58.16 30.067C57.4395 30.8448 57.2682 31.9841 57.7281 32.9394ZM90.8233 27.5645C92.4812 27.6255 93.9293 28.7037 94.4633 30.2745L94.6733 30.7245L88.9833 33.0745C89.3399 33.8867 90.1568 34.3982 91.0433 34.3645C91.8991 34.3666 92.693 33.9184 93.1333 33.1845L94.5833 34.1845C93.7939 35.3659 92.4641 36.0721 91.0433 36.0645C89.9138 36.081 88.8262 35.6376 88.0303 34.836C87.2344 34.0345 86.7987 32.9438 86.8233 31.8145C86.7542 30.711 87.1449 29.6281 87.9026 28.823C88.6604 28.0179 89.7176 27.5623 90.8233 27.5645ZM88.6632 31.6945C88.6222 31.0697 88.8345 30.4547 89.2522 29.9881C89.6698 29.5216 90.2577 29.2427 90.8832 29.2145C91.5426 29.1711 92.1643 29.5252 92.4632 30.1145L88.6632 31.6945ZM85.913 35.8145H84.043V23.3145H85.913V35.8145ZM80.9828 28.5136H80.9128C80.3428 27.8763 79.5279 27.5125 78.6728 27.5136C76.403 27.6237 74.6191 29.4961 74.6191 31.7686C74.6191 34.0411 76.403 35.9135 78.6728 36.0236C79.5306 36.038 80.3508 35.6719 80.9128 35.0236H80.9728V35.6336C80.9728 37.2636 80.1028 38.1336 78.7028 38.1336C77.7491 38.1113 76.9035 37.5146 76.5628 36.6236L74.9328 37.3036C75.5605 38.8304 77.052 39.8235 78.7028 39.8136C80.8928 39.8136 82.7028 38.5236 82.7028 35.3836V27.8136H80.9828V28.5136ZM78.84 34.3941L78.8431 34.3944H78.8331L78.84 34.3941ZM80.5251 33.5922C80.0959 34.0778 79.4873 34.3673 78.84 34.3941C77.5044 34.2748 76.4805 33.1556 76.4805 31.8144C76.4805 30.4721 77.506 29.3522 78.8431 29.2344C79.4892 29.2675 80.0946 29.5601 80.5219 30.0459C80.9493 30.5316 81.1625 31.1693 81.1131 31.8144C81.1682 32.4624 80.9557 33.1048 80.5251 33.5922ZM103.223 23.3128H98.7529V35.8128H100.623V31.0728H103.233C104.686 31.1771 106.075 30.4613 106.833 29.2177C107.591 27.9742 107.591 26.4113 106.833 25.1678C106.075 23.9243 104.686 23.2084 103.233 23.3128H103.223ZM100.613 29.3127H103.223L103.263 29.3427C104.448 29.3427 105.408 28.3824 105.408 27.1977C105.408 26.0131 104.448 25.0527 103.263 25.0527H100.613V29.3127ZM114.753 27.5141C113.362 27.4309 112.054 28.1812 111.423 29.4241L113.083 30.1141C113.418 29.4977 114.085 29.1369 114.783 29.1941C115.263 29.1381 115.745 29.277 116.121 29.5798C116.497 29.8825 116.736 30.3237 116.783 30.8041V30.9341C116.183 30.6161 115.513 30.4512 114.833 30.4541C113.043 30.4541 111.233 31.4541 111.233 33.2641C111.269 34.0438 111.619 34.7759 112.203 35.2939C112.786 35.8118 113.555 36.0716 114.333 36.0141C115.293 36.083 116.213 35.6228 116.733 34.8141H116.793V35.8141H118.593V31.0041C118.593 28.8141 116.933 27.5441 114.803 27.5441L114.753 27.5141ZM113.063 33.3036C113.063 34.0536 113.913 34.3636 114.523 34.3636L114.573 34.3936C115.7 34.3661 116.634 33.513 116.763 32.3936C116.245 32.104 115.658 31.9589 115.063 31.9736C114.123 31.9736 113.063 32.3036 113.063 33.3036ZM125.153 27.8145L123.013 33.2345H122.953L120.733 27.8145H118.733L122.063 35.3945L120.163 39.6045H122.113L127.233 27.8145H125.153ZM110.213 35.8145H108.343V23.3145H110.213V35.8145Z" fill="white"/>
<defs>
<linearGradient id="paint0_linear_9348_127767" x1="19.7588" y1="-0.53302" x2="1.25475" y2="4.38818" gradientUnits="userSpaceOnUse">
<stop stop-color="#00A0FF"/>
<stop offset="0.01" stop-color="#00A1FF"/>
<stop offset="0.26" stop-color="#00BEFF"/>
<stop offset="0.51" stop-color="#00D2FF"/>
<stop offset="0.76" stop-color="#00DFFF"/>
<stop offset="1" stop-color="#00E3FF"/>
</linearGradient>
<linearGradient id="paint1_linear_9348_127767" x1="35.0137" y1="15.6579" x2="12.4518" y2="15.6579" gradientUnits="userSpaceOnUse">
<stop stop-color="#FFE000"/>
<stop offset="0.41" stop-color="#FFBD00"/>
<stop offset="0.78" stop-color="#FFA500"/>
<stop offset="1" stop-color="#FF9C00"/>
</linearGradient>
<linearGradient id="paint2_linear_9348_127767" x1="12.8578" y1="19.1351" x2="-2.00604" y2="44.1373" gradientUnits="userSpaceOnUse">
<stop stop-color="#FF3A44"/>
<stop offset="1" stop-color="#C31162"/>
</linearGradient>
<linearGradient id="paint3_linear_9348_127767" x1="4.12273" y1="10.3382" x2="10.7572" y2="21.5029" gradientUnits="userSpaceOnUse">
<stop stop-color="#32A071"/>
<stop offset="0.07" stop-color="#2DA771"/>
<stop offset="0.48" stop-color="#15CF74"/>
<stop offset="0.8" stop-color="#06E775"/>
<stop offset="1" stop-color="#00F076"/>
</linearGradient>
</defs>
</svg>
