<svg width="40" height="48" viewBox="0 0 40 48" fill="none" xmlns="http://www.w3.org/2000/svg">
<path d="M36.8749 0H18.1891C17.6712 0 17.2516 0.419677 17.2516 0.937498C17.2516 1.45532 17.6712 1.875 18.1891 1.875H36.8749C37.392 1.875 37.8124 2.29541 37.8124 2.81249V37.1659C37.8124 37.6827 37.392 38.1034 36.8749 38.1034H33.6644V17.2426C33.6644 17.232 33.6629 17.2221 33.6625 17.2119C33.6622 17.2005 33.6618 17.1892 33.6611 17.1782C33.6585 17.1394 33.6541 17.1013 33.6468 17.0639C33.6464 17.0625 33.6464 17.0603 33.6461 17.0584C33.638 17.0174 33.6263 16.9775 33.6131 16.9383C33.6102 16.931 33.6076 16.9233 33.6047 16.916C33.5911 16.8794 33.5757 16.8435 33.5578 16.8094C33.5563 16.8065 33.5552 16.8039 33.5538 16.8014C33.5344 16.7651 33.5124 16.7303 33.4882 16.697C33.4827 16.6893 33.4772 16.682 33.4714 16.6743C33.4461 16.6417 33.4197 16.6098 33.3904 16.5805C33.3904 16.5802 33.3901 16.5798 33.3897 16.5794L25.106 8.29613C25.106 8.29576 25.1057 8.29539 25.1049 8.29503C25.076 8.2661 25.0441 8.23973 25.0112 8.21446C24.8566 8.09618 24.668 8.02916 24.4736 8.02293C24.4633 8.02257 24.4534 8.02147 24.4432 8.02147H8.81407V2.81249C8.81407 2.29541 9.23448 1.875 9.75157 1.875H11.7236C12.2414 1.875 12.6611 1.45532 12.6611 0.937498C12.6611 0.419677 12.2414 0 11.7236 0H9.75157C8.20067 0 6.93907 1.26159 6.93907 2.81249V8.02183H3.12499C1.57409 8.02183 0.3125 9.28343 0.3125 10.8343V45.1874C0.3125 46.7383 1.57409 47.9999 3.12499 47.9999H30.8519C32.4028 47.9999 33.6644 46.7383 33.6644 45.1874V39.9784H36.8749C38.4258 39.9784 39.6874 38.7168 39.6874 37.1659V2.81249C39.6874 1.26159 38.4258 0 36.8749 0ZM25.3807 11.2225L30.4633 16.3051H26.3182C25.8015 16.3051 25.3807 15.8844 25.3807 15.3676V11.2225ZM31.7894 45.1874C31.7894 45.7045 31.3686 46.1249 30.8519 46.1249H3.12499C2.60827 46.1249 2.1875 45.7045 2.1875 45.1874V10.834C2.1875 10.3172 2.60827 9.89646 3.12499 9.89646H23.5057V15.3676C23.5057 16.9185 24.7677 18.1801 26.3182 18.1801H31.7894V45.1874Z" fill="#EE7500"/>
<path d="M14.4171 1.875H14.4424C14.9602 1.875 15.3799 1.45532 15.3799 0.9375C15.3799 0.419678 14.9602 0 14.4424 0H14.4171C13.8993 0 13.4796 0.419678 13.4796 0.9375C13.4796 1.45532 13.8993 1.875 14.4171 1.875Z" fill="#EE7500"/>
<path d="M23.3739 43.3124H23.3515C22.8341 43.3124 22.414 43.7321 22.414 44.2499C22.414 44.7677 22.8341 45.1874 23.3515 45.1874H23.3739C23.8913 45.1874 24.3114 44.7677 24.3114 44.2499C24.3114 43.7321 23.8913 43.3124 23.3739 43.3124Z" fill="#EE7500"/>
<path d="M29.9126 43.3121H26.0656C25.5478 43.3121 25.1281 43.7317 25.1281 44.2496C25.1281 44.7674 25.5478 45.1871 26.0656 45.1871H29.9126C30.4301 45.1871 30.8501 44.7674 30.8501 44.2496C30.8501 43.7317 30.4301 43.3121 29.9126 43.3121Z" fill="#EE7500"/>
<path d="M5.47794 21.1802H6.94059V22.6425C6.94059 23.4906 7.63016 24.1802 8.47794 24.1802H10.2782C11.126 24.1802 11.8156 23.4906 11.8156 22.6425V21.1802H13.2782C14.126 21.1802 14.8156 20.4902 14.8156 19.6425V17.8425C14.8156 16.9947 14.126 16.3052 13.2782 16.3052H11.8156V14.8425C11.8156 13.9947 11.126 13.3052 10.2782 13.3052H8.47794C7.63016 13.3052 6.94059 13.9947 6.94059 14.8425V16.3052H5.47794C4.63016 16.3052 3.94059 16.9947 3.94059 17.8425V19.6425C3.94059 20.4902 4.63053 21.1802 5.47794 21.1802ZM5.81559 18.1802H7.87809C8.39591 18.1802 8.81559 17.7605 8.81559 17.2427V15.1802H9.94059V17.2427C9.94059 17.7605 10.3603 18.1802 10.8781 18.1802H12.9406V19.3052H10.8781C10.3603 19.3052 9.94059 19.7248 9.94059 20.2427V22.3052H8.81559V20.2427C8.81559 19.7248 8.39591 19.3052 7.87809 19.3052H5.81559V18.1802Z" fill="#EE7500"/>
<path d="M4.87809 28.7278H13.8781C14.3959 28.7278 14.8156 28.3081 14.8156 27.7903C14.8156 27.2725 14.3959 26.8528 13.8781 26.8528H4.87809C4.36026 26.8528 3.94059 27.2725 3.94059 27.7903C3.94059 28.3081 4.36026 28.7278 4.87809 28.7278Z" fill="#EE7500"/>
<path d="M4.87809 32.4781H29.1018C29.6197 32.4781 30.0393 32.0584 30.0393 31.5406C30.0393 31.0227 29.6197 30.6031 29.1018 30.6031H4.87809C4.36026 30.6031 3.94059 31.0227 3.94059 31.5406C3.94059 32.0584 4.36026 32.4781 4.87809 32.4781Z" fill="#EE7500"/>
<path d="M4.87809 36.2281H29.1018C29.6197 36.2281 30.0393 35.8084 30.0393 35.2906C30.0393 34.7728 29.6197 34.3531 29.1018 34.3531H4.87809C4.36026 34.3531 3.94059 34.7728 3.94059 35.2906C3.94059 35.8084 4.36026 36.2281 4.87809 36.2281Z" fill="#EE7500"/>
<path d="M13.8781 38.1031H4.87809C4.36026 38.1031 3.94059 38.5228 3.94059 39.0406C3.94059 39.5584 4.36026 39.9781 4.87809 39.9781H13.8781C14.3959 39.9781 14.8156 39.5584 14.8156 39.0406C14.8156 38.5228 14.3959 38.1031 13.8781 38.1031Z" fill="#EE7500"/>
</svg>
