<svg width="41" height="40" viewBox="0 0 41 40" fill="none" xmlns="http://www.w3.org/2000/svg">
<path d="M40.0211 7.01388C39.9911 0.0546104 30.9473 -2.59975 27.1393 3.10558H7.46915C7.03752 3.10558 6.68749 3.45553 6.68749 3.88724V10.297H2.69243C1.20782 10.297 0 11.5048 0 12.9894V37.3077C0 38.7923 1.20782 40 2.69235 40H33.2639C34.7484 40 35.9562 38.7923 35.9562 37.3077V21.5876C35.9562 20.3748 35.1501 19.3468 34.0456 19.011V13.9692C37.4238 13.4567 40.0211 10.5329 40.0211 7.01388V7.01388ZM32.9861 1.54227C36.0032 1.54227 38.4577 3.99683 38.4577 7.01388C38.1827 14.2628 27.7885 14.2608 27.5145 7.0138C27.5145 3.99683 29.9691 1.54227 32.9861 1.54227ZM26.353 4.6689C26.0419 5.53748 25.9008 6.52628 25.9667 7.48288H22.4121C21.376 7.52134 21.3768 9.00813 22.4121 9.0462H26.2504C26.4632 9.75024 26.7836 10.408 27.1925 11.0003H11.7683V9.0462H15.3772C16.4132 9.00774 16.4124 7.52095 15.3772 7.48288H10.9866C10.555 7.48288 10.205 7.83283 10.205 8.26454V11.782C10.205 12.2137 10.555 12.5637 10.9866 12.5637H28.6676C29.7362 13.3971 31.0508 13.9291 32.4823 14.0309V18.8952H21.1483V15.2995C21.1483 14.8678 20.7982 14.5178 20.3666 14.5178H10.9866C10.555 14.5178 10.205 14.8678 10.205 15.2995V18.8952H8.25081V4.6689H26.353ZM19.585 16.0812V33.2637L18.8033 33.6546L17.5895 33.0477C17.3694 32.9376 17.1104 32.9377 16.8903 33.0477L15.6767 33.6546L14.463 33.0477C14.2429 32.9377 13.984 32.9377 13.7639 33.0477L12.5502 33.6546L11.7684 33.2637V16.0813H19.585V16.0812ZM4.77672 21.5876V37.3077C4.77672 37.9302 4.27029 38.4368 3.64769 38.4368H2.69235C2.06976 38.4368 1.56332 37.9303 1.56332 37.3077V12.9894C1.56332 12.3668 2.06976 11.8603 2.69235 11.8603H6.68741V19.011C5.58293 19.3468 4.77672 20.3748 4.77672 21.5876V21.5876ZM34.3929 21.5876V37.3077C34.3929 37.9302 33.8865 38.4368 33.264 38.4368H6.09179C6.25117 38.0932 6.34012 37.7107 6.34012 37.3077V21.5876C6.34012 20.965 6.84656 20.4586 7.46915 20.4586H10.205V33.7468C10.205 34.0429 10.3722 34.3135 10.6371 34.4459L12.2005 35.2276C12.4204 35.3376 12.6795 35.3376 12.8996 35.2276L14.1133 34.6207L15.3269 35.2276C15.5471 35.3376 15.806 35.3376 16.0261 35.2276L17.2397 34.6207L18.4536 35.2276C18.6736 35.3376 18.9327 35.3376 19.1527 35.2276L20.716 34.4459C20.9808 34.3135 21.148 34.0428 21.148 33.7468V20.4586H33.2638C33.8865 20.4586 34.3929 20.965 34.3929 21.5876V21.5876Z" fill="#F4812F"/>
<path d="M32.6856 10.0569C32.3806 10.0291 32.1021 9.95479 31.8501 9.83382C31.6006 9.71032 31.3851 9.55406 31.2036 9.36503L31.404 9.05502C31.4216 9.0273 31.4468 9.00462 31.4796 8.98697C31.5124 8.96933 31.5464 8.96051 31.5817 8.96051C31.6296 8.96051 31.6837 8.98445 31.7442 9.03234C31.8047 9.08023 31.8791 9.13568 31.9673 9.19868C32.0555 9.25917 32.1601 9.3184 32.2811 9.37637C32.4046 9.43434 32.552 9.4734 32.7234 9.49357L32.8633 7.4861C32.6868 7.43317 32.5129 7.37394 32.3416 7.30841C32.1727 7.24036 32.0202 7.15341 31.8841 7.04755C31.7505 6.93918 31.6422 6.80434 31.559 6.64303C31.4783 6.47921 31.438 6.27506 31.438 6.03059C31.438 5.8466 31.4733 5.66765 31.5439 5.49375C31.617 5.31732 31.7215 5.16106 31.8576 5.02496C31.9963 4.88886 32.1664 4.77796 32.368 4.69227C32.5697 4.60406 32.8015 4.55491 33.0636 4.54483L33.1014 4.00043C33.1065 3.95255 33.1254 3.9097 33.1582 3.87189C33.1909 3.83409 33.235 3.81519 33.2905 3.81519H33.54L33.4871 4.56373C33.7517 4.5965 33.9798 4.66455 34.1713 4.76788C34.3629 4.87122 34.5343 4.99598 34.6855 5.14216L34.5229 5.39167C34.4725 5.46728 34.4146 5.50509 34.349 5.50509C34.3137 5.50509 34.2696 5.48997 34.2167 5.45972C34.1663 5.42696 34.1046 5.39041 34.0315 5.35009C33.9584 5.30724 33.8739 5.26566 33.7782 5.22533C33.6824 5.18248 33.5728 5.15224 33.4493 5.1346L33.3245 6.96438C33.506 7.01983 33.6849 7.08032 33.8613 7.14585C34.0378 7.21138 34.1965 7.29581 34.3377 7.39914C34.4788 7.50248 34.5922 7.63228 34.6779 7.78854C34.7661 7.94228 34.8103 8.13509 34.8103 8.36696C34.8103 8.5938 34.7724 8.80677 34.6968 9.00588C34.6212 9.20499 34.5103 9.38015 34.3642 9.53137C34.2205 9.68259 34.0428 9.80609 33.8311 9.90187C33.6219 9.99512 33.3825 10.0493 33.1128 10.0644L33.0674 10.7298C33.0624 10.7777 33.0422 10.8193 33.0069 10.8546C32.9742 10.8924 32.9313 10.9113 32.8784 10.9113H32.6289L32.6856 10.0569ZM34.1713 8.47282C34.1713 8.3468 34.1474 8.23843 34.0995 8.14769C34.0541 8.05696 33.9911 7.97883 33.9105 7.9133C33.8298 7.84777 33.7353 7.79106 33.6269 7.74317C33.5186 7.69529 33.4026 7.65118 33.2791 7.61085L33.1506 9.49357C33.3144 9.47845 33.4593 9.44316 33.5854 9.38771C33.7139 9.32974 33.821 9.25665 33.9067 9.16844C33.9949 9.08023 34.0604 8.97815 34.1033 8.86222C34.1487 8.74376 34.1713 8.61396 34.1713 8.47282ZM32.0731 5.96254C32.0731 6.08351 32.0946 6.18937 32.1374 6.2801C32.1803 6.36831 32.2395 6.44645 32.3151 6.5145C32.3907 6.58255 32.4789 6.64177 32.5797 6.69218C32.6805 6.74259 32.7902 6.78796 32.9086 6.82828L33.0221 5.12325C32.8582 5.13838 32.7158 5.17114 32.5949 5.22155C32.4764 5.27196 32.3781 5.33497 32.3 5.41058C32.2244 5.48619 32.1677 5.57188 32.1298 5.66765C32.092 5.76091 32.0731 5.8592 32.0731 5.96254Z" fill="#F4812F"/>
</svg>
