<svg width="55" height="54" viewBox="0 0 55 54" fill="none" xmlns="http://www.w3.org/2000/svg">
<path d="M9.17114 47.9809C8.97507 47.7846 8.70296 47.6719 8.42557 47.6719C8.14818 47.6719 7.87606 47.7846 7.67988 47.9809C7.48371 48.1772 7.37085 48.4492 7.37085 48.7266C7.37085 49.004 7.4836 49.2761 7.67988 49.4721C7.87606 49.6683 8.14818 49.7813 8.42557 49.7813C8.70296 49.7813 8.97507 49.6684 9.17114 49.4721C9.36732 49.2761 9.48028 49.004 9.48028 48.7266C9.48028 48.4492 9.36743 48.1771 9.17114 47.9809Z" fill="#679AB4"/>
<path d="M49.7198 19.2942C49.5237 19.0979 49.2526 18.9852 48.9742 18.9852C48.6968 18.9852 48.4247 19.0979 48.2285 19.2942C48.0324 19.4904 47.9194 19.7625 47.9194 20.0399C47.9194 20.3172 48.0323 20.5894 48.2285 20.7854C48.4247 20.9816 48.6968 21.0946 48.9742 21.0946C49.2526 21.0946 49.5237 20.9817 49.7198 20.7854C49.917 20.5894 50.0298 20.3172 50.0298 20.0399C50.0298 19.7625 49.917 19.4904 49.7198 19.2942Z" fill="#679AB4"/>
<path d="M53.8903 0.308917C53.6924 0.111164 53.4241 0 53.1443 0L27.199 0.00137109C26.6165 0.00137109 26.1443 0.473659 26.1443 1.05606V4.07214L16.1468 6.75094C15.5841 6.90176 15.2502 7.48004 15.401 8.04261L20.5825 27.3794L16.1001 31.8617C15.5296 31.0287 14.5717 30.4809 13.4882 30.4809H3.36326C1.61855 30.4809 0.199219 31.9003 0.199219 33.6449V50.8358C0.199219 52.5805 1.61855 53.9999 3.36326 53.9999H13.4883C14.9705 53.9999 16.2174 52.9752 16.5591 51.5973L17.8132 52.6909C18.7813 53.5351 20.0216 54 21.3062 54H53.1445C53.7269 54 54.1992 53.5277 54.1992 52.9453V1.05469C54.199 0.774983 54.0881 0.506671 53.8903 0.308917ZM14.5428 50.8359C14.5428 51.4174 14.0697 51.8906 13.4881 51.8906H3.36315C2.78158 51.8906 2.30844 51.4175 2.30844 50.8359V33.645C2.30844 33.0634 2.78158 32.5903 3.36315 32.5903H7.37096V44.7398C7.37096 45.3222 7.84326 45.7944 8.42567 45.7944C9.00809 45.7944 9.48039 45.3222 9.48039 44.7398V32.5903H13.4882C14.0698 32.5903 14.5429 33.0634 14.5429 33.645V50.8359H14.5428ZM17.7115 8.51542L26.1443 6.25587V10.164L25.4375 10.3534C25.1672 10.4259 24.9369 10.6025 24.7971 10.8448C24.6572 11.0871 24.6192 11.3749 24.6917 11.6451C25.097 13.1576 24.1962 14.7178 22.6836 15.1231C22.4131 15.1957 22.1824 15.3727 22.0427 15.6155C21.9029 15.8581 21.8653 16.1465 21.9384 16.4169L26.0495 31.64H23.9327L22.8418 27.3724C22.8071 27.2365 22.7464 27.1113 22.6651 27.0025L17.7115 8.51542ZM26.1443 15.0007V23.9002L24.2207 16.7774C25.0242 16.3625 25.6819 15.7417 26.1443 15.0007ZM41.2968 51.8905H21.3059C20.5313 51.8905 19.7832 51.6102 19.1993 51.1011L16.6522 48.8798V34.2928L21.2569 29.6882L22.092 32.9557C22.2114 33.4226 22.6319 33.7491 23.1138 33.7491L43.8499 33.7504C44.6642 33.7504 45.3265 34.4127 45.3265 35.2269C45.3265 36.0411 44.6642 36.7035 43.8499 36.7035H33.2248C32.6423 36.7035 32.17 37.1758 32.17 37.7582C32.17 38.3406 32.6423 38.8128 33.2248 38.8128H47.1512C47.9654 38.8128 48.6278 39.4752 48.6278 40.2894C48.6278 41.1036 47.9654 41.766 47.1512 41.766H33.2248C32.6423 41.766 32.17 42.2383 32.17 42.8207C32.17 43.403 32.6423 43.8753 33.2248 43.8753H44.8944C45.7087 43.8753 46.371 44.5377 46.371 45.3519C46.371 46.1661 45.7087 46.8285 44.8944 46.8285H33.2248C32.6423 46.8285 32.17 47.3007 32.17 47.8831C32.17 48.4655 32.6423 48.9378 33.2248 48.9378H41.2968C42.111 48.9378 42.7734 49.6002 42.7734 50.4144C42.7733 51.2282 42.1109 51.8905 41.2968 51.8905ZM52.0898 51.8905H44.5634C44.7679 51.4399 44.8827 50.9403 44.8827 50.414C44.8827 49.8877 44.7679 49.3881 44.5634 48.9374H44.8944C46.8717 48.9374 48.4803 47.3288 48.4803 45.3516C48.4803 44.7749 48.3427 44.2299 48.0997 43.7467C49.6181 43.3296 50.737 41.938 50.737 40.2892C50.737 39.4893 50.4735 38.7499 50.0292 38.1529V24.7858C50.0292 24.2035 49.5569 23.7312 48.9745 23.7312C48.3921 23.7312 47.9198 24.2035 47.9198 24.7858V36.7873C47.6719 36.733 47.4149 36.7035 47.151 36.7035H47.1164C47.3209 36.2528 47.4358 35.7532 47.4358 35.2269C47.4358 33.2496 45.8271 31.6411 43.8498 31.6411H42.1544C43.9547 30.8691 45.2191 29.0797 45.2191 26.9999C45.2191 24.2167 42.9548 21.9524 40.1715 21.9524C37.3883 21.9524 35.124 24.2167 35.124 26.9999C35.124 29.0797 36.3885 30.8691 38.1887 31.6411H32.4233V11.5871C34.3074 11.1765 35.7941 9.68992 36.2046 7.80573H44.1383C44.5488 9.68992 46.0355 11.1765 47.9197 11.5871V14.8661C47.9197 15.4485 48.392 15.9208 48.9744 15.9208C49.5568 15.9208 50.0291 15.4485 50.0291 14.8661V10.6455C50.0291 10.0631 49.5568 9.59078 48.9744 9.59078C47.4084 9.59078 46.1347 8.31683 46.1347 6.75104C46.1347 6.16864 45.6624 5.69636 45.0799 5.69636H35.2631C34.6807 5.69636 34.2084 6.16864 34.2084 6.75104C34.2084 8.31693 32.9345 9.59078 31.3687 9.59078C30.7863 9.59078 30.3139 10.0631 30.3139 10.6455V31.641H28.2539V2.11053L52.0898 2.10937V51.8905ZM40.1717 29.9381C38.5516 29.9381 37.2336 28.6201 37.2336 27.0001C37.2336 25.3801 38.5517 24.0619 40.1717 24.0619C41.7918 24.0619 43.1098 25.38 43.1098 26.9999C43.1098 28.6199 41.7919 29.9381 40.1717 29.9381Z" fill="#679AB4"/>
</svg>
