<svg width="21" height="20" viewBox="0 0 21 20" fill="none" xmlns="http://www.w3.org/2000/svg">
<rect x="0.787109" y="0.220703" width="19.4012" height="19.4012" rx="9.70062" fill="#EE7500"/>
<path d="M13.9058 9.70253C13.8783 9.63165 13.8371 9.5669 13.7845 9.51198L10.8974 6.62489C10.8436 6.57105 10.7797 6.52835 10.7093 6.49921C10.639 6.47007 10.5636 6.45508 10.4875 6.45508C10.3337 6.45508 10.1862 6.51616 10.0775 6.62489C10.0237 6.67873 9.98094 6.74264 9.95181 6.81299C9.92267 6.88333 9.90768 6.95872 9.90768 7.03486C9.90768 7.18863 9.96876 7.3361 10.0775 7.44483L11.983 9.34453H7.60037C7.44723 9.34453 7.30036 9.40536 7.19207 9.51365C7.08378 9.62194 7.02295 9.76881 7.02295 9.92195C7.02295 10.0751 7.08378 10.222 7.19207 10.3302C7.30036 10.4385 7.44723 10.4994 7.60037 10.4994H11.983L10.0775 12.3991C10.0234 12.4527 9.98041 12.5166 9.9511 12.587C9.92178 12.6573 9.90669 12.7328 9.90669 12.809C9.90669 12.8853 9.92178 12.9607 9.9511 13.0311C9.98041 13.1015 10.0234 13.1653 10.0775 13.219C10.1312 13.2731 10.195 13.3161 10.2654 13.3454C10.3358 13.3747 10.4112 13.3898 10.4875 13.3898C10.5637 13.3898 10.6392 13.3747 10.7095 13.3454C10.7799 13.3161 10.8437 13.2731 10.8974 13.219L13.7845 10.3319C13.8371 10.277 13.8783 10.2122 13.9058 10.1414C13.9635 10.0008 13.9635 9.84311 13.9058 9.70253Z" fill="#1A1C1F"/>
</svg>
