<svg width="85" height="25" viewBox="0 0 85 25" fill="none" xmlns="http://www.w3.org/2000/svg">
<path d="M34.537 8.85799H30.6899L25.4111 3.40007C24.2477 2.14747 22.5476 1.43164 20.8481 1.43164H13.1533C10.5589 1.43164 8.14291 3.04186 7.24785 5.54777L5.99524 8.85815H4.02618C1.78932 8.85815 0 10.6475 0 12.8843V17.1789C0 18.2524 0.894997 19.1474 1.96843 19.1474H3.48941C3.84703 21.9209 6.17379 24.0686 9.03664 24.0686C11.9001 24.0686 14.2261 21.9211 14.5839 19.1474H26.3948C26.7524 21.9209 29.0792 24.0686 31.942 24.0686C34.8055 24.0686 37.1315 21.9211 37.4893 19.1474L38.9216 19.148C39.9951 19.148 40.89 18.253 40.89 17.1795V15.3003C40.89 11.7216 38.0265 8.85814 34.5371 8.85814L34.537 8.85799ZM9.03685 20.848C7.695 20.848 6.53158 19.6846 6.53158 18.3427C6.53158 17.0009 7.69493 15.8375 9.03685 15.8375C10.3787 15.8375 11.5421 17.0008 11.5421 18.3427C11.5421 19.7738 10.3794 20.848 9.03685 20.848ZM9.3951 8.85799L10.2002 6.62114C10.6477 5.36853 11.8104 4.56339 13.1529 4.56339H14.9422L15.8372 8.85799H9.3951ZM18.9685 8.85799L18.0735 4.56339H20.8471C21.742 4.56339 22.5472 4.92102 23.0839 5.54764L26.305 8.85802L18.9685 8.85799ZM31.8529 20.848C30.5111 20.848 29.3477 19.6846 29.3477 18.3427C29.3477 17.0009 30.511 15.8375 31.8529 15.8375C33.1949 15.8375 34.3582 17.0008 34.3582 18.3427C34.3582 19.7738 33.2847 20.848 31.8529 20.848Z" fill="#F4812F"/>
<path d="M80.9739 8.8579H78.9162L77.6636 5.54752C76.7686 3.13156 74.3532 1.4314 71.7581 1.4314H64.0634C62.3632 1.4314 60.753 2.14727 59.5003 3.39983L54.2215 8.85774H50.3745C46.885 8.85774 44.0215 11.7212 44.0215 15.2107V17.09C44.0215 18.1635 44.9165 19.0584 45.9899 19.0584H47.5109C47.8685 21.832 50.1953 23.9797 53.0581 23.9797C55.9216 23.9797 58.2476 21.8321 58.6054 19.0584H70.4163C70.7739 21.832 73.1006 23.9797 75.9635 23.9797C78.827 23.9797 81.153 21.8321 81.5107 19.0584H83.0317C84.1052 19.0584 85.0001 18.1634 85.0001 17.09V12.8847C85.0001 10.6479 83.2108 8.8579 80.974 8.8579H80.9739ZM53.1475 20.8479C51.8056 20.8479 50.6422 19.6846 50.6422 18.3426C50.6422 17.0008 51.8056 15.8374 53.1475 15.8374C54.4894 15.8374 55.6528 17.0007 55.6528 18.3426C55.6528 19.7737 54.4894 20.8479 53.1475 20.8479ZM66.0319 8.8579H58.6056L61.8266 5.54752C62.4533 4.9209 63.2584 4.56328 64.0635 4.56328H66.837L66.0319 8.8579ZM69.1632 8.8579L70.0582 4.56331H71.8475C73.1894 4.56331 74.3528 5.36843 74.8002 6.62105L75.6053 8.8579H69.1632ZM75.9635 20.8479C74.6217 20.8479 73.4583 19.6846 73.4583 18.3426C73.4583 17.0008 74.6216 15.8374 75.9635 15.8374C77.3054 15.8374 78.4688 17.0007 78.4688 18.3426C78.5581 19.7737 77.3947 20.8479 75.9635 20.8479Z" fill="#F4812F"/>
<path d="M42.5001 0C41.7842 0 41.1582 0.626621 41.1582 1.34185V4.2945C41.1582 5.01037 41.7848 5.63636 42.5001 5.63636C43.2159 5.63636 43.8419 5.00973 43.8419 4.2945V1.34185C43.8419 0.536731 43.2159 0 42.5001 0Z" fill="#9D9D9D"/>
<path d="M36.1478 6.35282C36.4162 6.80032 36.8637 6.97945 37.3112 6.97945C37.5796 6.97945 37.7587 6.8902 37.9378 6.80032C38.5644 6.4427 38.8328 5.63696 38.3853 5.011L36.8643 2.41657C36.5067 1.78995 35.701 1.52157 35.075 1.96907C34.4484 2.3267 34.18 3.13242 34.6275 3.75839L36.1478 6.35282Z" fill="#9D9D9D"/>
<path d="M47.063 6.80018C47.2422 6.88943 47.5105 6.97931 47.6897 6.97931C48.1372 6.97931 48.5847 6.71093 48.853 6.35268L50.374 3.75825C50.7316 3.13163 50.5531 2.32652 49.9265 1.96893C49.2999 1.61134 48.4948 1.78981 48.1372 2.41643L46.6162 5.01086C46.1687 5.63686 46.3472 6.44259 47.0631 6.80018H47.063Z" fill="#9D9D9D"/>
</svg>
