<svg width="43" height="42" viewBox="0 0 43 42" fill="none" xmlns="http://www.w3.org/2000/svg">
<path d="M0.666992 15.9269V14.409H5.47354V15.9269H3.95568V25.54H5.47354V27.0578H0.666992V25.54H2.31134V15.9269H0.666992Z" fill="#679AB4"/>
<path d="M5.85301 17.4447H7.37086C7.37086 17.2927 7.35707 17.0987 7.34171 16.8828C7.28304 16.0576 7.20154 14.9114 7.77917 14.5581C8.06425 14.3838 8.44547 14.3947 8.78891 14.4046C8.86681 14.4069 8.94276 14.4091 9.01521 14.409V17.4447H11.9244V18.9626H9.01521V22.7572C9.01521 22.908 9.00717 23.0699 8.99889 23.2367C8.97498 23.7185 8.94904 24.2409 9.10906 24.654C9.69306 26.1613 11.5519 25.5256 11.9244 24.2751H13.5688C13.5297 25.1304 13.2556 25.9557 12.555 26.4989C11.3358 27.4439 8.79348 27.3119 7.85152 26.0405C7.35412 25.3691 7.36152 24.5935 7.36903 23.8055C7.36994 23.7092 7.37086 23.6127 7.37086 23.5162V18.9626H5.85301V17.4447Z" fill="#679AB4"/>
<path d="M16.6045 27.0578H14.9602V16.1798C14.9602 16.0852 14.9559 15.9848 14.9515 15.8816C14.9376 15.5566 14.9226 15.2044 15.0364 14.9224C15.2568 14.3768 15.8663 14.3922 16.3828 14.4052C16.4593 14.4071 16.5337 14.409 16.6045 14.409V18.3301C18.8092 16.8774 22.5876 17.1116 23.5481 19.9745C23.7483 20.5715 23.7246 21.2536 23.7019 21.9053C23.6948 22.1091 23.6878 22.3099 23.6878 22.5043V27.0578H22.0435V22.5043C22.0435 22.3737 22.0461 22.2415 22.0487 22.1085C22.062 21.422 22.0758 20.7148 21.7378 20.1015C20.7388 18.2895 17.8002 18.7183 16.8689 20.354C16.5583 20.8993 16.5778 21.5711 16.5961 22.2017C16.6003 22.3476 16.6045 22.4913 16.6045 22.6307V27.0578Z" fill="#679AB4"/>
<path d="M26.85 17.4447V18.2037C26.9349 18.159 27.0192 18.1136 27.1035 18.0682C27.5111 17.8486 27.9172 17.6299 28.3679 17.5067C30.1958 17.0071 33.4307 17.5488 33.6804 19.848C33.563 19.8752 33.4306 19.921 33.2918 19.9691C32.9632 20.083 32.5992 20.2092 32.3155 20.1278C32.0836 20.0613 31.9091 19.8528 31.7379 19.6481C31.6281 19.5169 31.5196 19.3872 31.3982 19.2976C30.7831 18.8441 29.9909 18.7874 29.2533 18.8479C28.1827 18.9356 27.2535 19.6957 26.9674 20.7334C26.8121 21.297 26.8271 21.9066 26.8416 22.4999C26.8458 22.6719 26.85 22.8425 26.85 23.0102V27.0578H25.2057V17.4447H26.85Z" fill="#679AB4"/>
<path fill-rule="evenodd" clip-rule="evenodd" d="M35.0811 19.9692C34.9424 19.9211 34.8099 19.8752 34.6923 19.848C35.23 16.8687 40.3736 16.4796 42.0847 18.5949C42.6861 19.3386 42.6751 20.2347 42.664 21.1313C42.6625 21.2518 42.6611 21.3722 42.6611 21.4923V27.0578H41.1432V26.5519C40.9265 26.6137 40.7146 26.6804 40.5045 26.7465C39.8046 26.9668 39.1254 27.1805 38.3605 27.1842C37.3231 27.1893 36.3258 27.1017 35.4517 26.4712C34.0661 25.4714 33.8509 23.3398 35.21 22.2113C36.1617 21.4212 37.184 21.4379 38.2282 21.4549C38.8992 21.4659 39.5792 21.477 40.2554 21.2743C40.922 21.0744 41.0466 20.3027 40.7411 19.727C40.1333 18.5815 38.0466 18.614 37.0975 19.2324C36.9505 19.3282 36.8174 19.4771 36.6832 19.6274C36.4914 19.842 36.2973 20.0593 36.0572 20.1278C35.7732 20.2089 35.4096 20.0829 35.0811 19.9692ZM39.2103 22.707C39.7753 22.7197 40.3419 22.7324 40.8902 22.6306C40.8902 22.798 40.903 22.9902 40.9165 23.1933C40.9556 23.7809 41.0009 24.4601 40.7602 24.8941C40.0614 26.1543 37.2573 26.0573 36.3654 25.1335C35.5009 24.2378 36.3214 23.0742 37.3485 22.8246C37.9488 22.6787 38.5786 22.6928 39.2103 22.707Z" fill="#679AB4"/>
</svg>
