<svg width="28" height="28" viewBox="0 0 28 28" fill="none" xmlns="http://www.w3.org/2000/svg">
<path d="M18.5482 15.4338L18.5432 15.4317C18.4693 15.4005 18.3981 15.3643 18.3235 15.3347C19.1568 14.6816 19.8308 13.8476 20.2945 12.8958C20.7581 11.9439 20.9994 10.8991 21 9.84033C20.9973 9.59432 20.9799 9.34869 20.9478 9.10476C20.9657 9.05838 20.9805 9.01085 20.992 8.96248L21.3201 6.16545C21.4222 5.2817 21.1846 4.39218 20.6555 3.67705C20.1263 2.96192 19.3451 2.47466 18.4701 2.31396L17.5484 2.14648C15.2024 1.7181 12.7982 1.7181 10.4521 2.14648L9.52932 2.31396C8.65442 2.47478 7.87335 2.9621 7.34427 3.67721C6.8152 4.39232 6.57768 5.28178 6.67981 6.16545L7.00794 8.96248C7.01943 9.01087 7.03418 9.05842 7.05209 9.10482C7.02007 9.34873 7.00266 9.59434 6.99996 9.84033C7.00054 10.8991 7.24178 11.9439 7.70546 12.8957C8.16913 13.8476 8.84311 14.6816 9.67644 15.3347C9.60178 15.3643 9.53061 15.4005 9.45669 15.4317L9.45171 15.4338C7.54164 16.2366 5.88128 17.536 4.64304 19.1972C3.40481 20.8584 2.63384 22.8207 2.4102 24.8805C2.37666 25.1881 2.46669 25.4965 2.66048 25.7377C2.85427 25.9789 3.13596 26.1333 3.44356 26.1668C3.75117 26.2004 4.0595 26.1103 4.30073 25.9165C4.54195 25.7228 4.69632 25.4411 4.72986 25.1335C4.89402 23.6193 5.42859 22.1689 6.28634 20.9104C7.14408 19.6519 8.2986 18.6241 9.64788 17.9177L13.1751 21.4449C13.2834 21.5533 13.412 21.6392 13.5536 21.6979C13.6951 21.7565 13.8468 21.7867 14 21.7867C14.1532 21.7867 14.3049 21.7565 14.4464 21.6979C14.588 21.6392 14.7166 21.5533 14.8249 21.4449L18.352 17.9177C19.7013 18.6241 20.8558 19.6519 21.7136 20.9104C22.5713 22.169 23.1059 23.6194 23.2701 25.1335C23.3012 25.4191 23.4365 25.6831 23.6502 25.875C23.8639 26.067 24.1409 26.1733 24.4282 26.1737C24.471 26.1737 24.5138 26.1714 24.5564 26.1669C24.864 26.1333 25.1456 25.9789 25.3394 25.7377C25.5332 25.4965 25.6232 25.1882 25.5897 24.8806C25.3661 22.8208 24.5951 20.8584 23.3569 19.1972C22.1186 17.536 20.4583 16.2366 18.5482 15.4338ZM8.99719 5.89315C8.96321 5.59867 9.04239 5.30228 9.21871 5.06399C9.39503 4.8257 9.65531 4.66331 9.94685 4.6097L10.8691 4.44222C12.9392 4.06396 15.0607 4.06396 17.1308 4.44222L18.0525 4.6097C18.3442 4.66318 18.6046 4.82552 18.781 5.06383C18.9574 5.30213 19.0367 5.59859 19.0027 5.89315L18.7954 7.65967H9.20455L8.99719 5.89315ZM14 18.9703L12.0746 17.045C13.3437 16.7721 14.6562 16.7721 15.9253 17.045L14 18.9703ZM14 14.507C12.7891 14.5056 11.6261 14.0342 10.756 13.1921C9.88594 12.3501 9.3767 11.2031 9.33563 9.993H18.6644C18.6233 11.2032 18.1141 12.3501 17.244 13.1922C16.3738 14.0342 15.2108 14.5056 14 14.507Z" fill="#679AB4"/>
</svg>
