<svg width="65" height="65" viewBox="0 0 65 65" fill="none" xmlns="http://www.w3.org/2000/svg">
<g filter="url(#filter0_d_3_1431)">
<circle cx="32.5" cy="28.5" r="22.5" fill="white"/>
<circle cx="49" cy="12" r="4" fill="#469369"/>
</g>
<path d="M38.0418 22.1667H26.9585C26.3286 22.1667 25.7245 22.417 25.2791 22.8624C24.8337 23.3078 24.5835 23.9119 24.5835 24.5417V32.4584C24.5835 33.0883 24.8337 33.6924 25.2791 34.1378C25.7245 34.5832 26.3286 34.8334 26.9585 34.8334H38.0418C38.6717 34.8334 39.2758 34.5832 39.7212 34.1378C40.1666 33.6924 40.4168 33.0883 40.4168 32.4584V24.5417C40.4168 23.9119 40.1666 23.3078 39.7212 22.8624C39.2758 22.417 38.6717 22.1667 38.0418 22.1667V22.1667ZM37.7172 23.7501L33.0622 28.4051C32.9887 28.4793 32.9011 28.5382 32.8046 28.5784C32.7081 28.6186 32.6047 28.6393 32.5002 28.6393C32.3957 28.6393 32.2922 28.6186 32.1957 28.5784C32.0992 28.5382 32.0117 28.4793 31.9381 28.4051L27.2831 23.7501H37.7172ZM38.8335 32.4584C38.8335 32.6684 38.7501 32.8697 38.6016 33.0182C38.4532 33.1667 38.2518 33.2501 38.0418 33.2501H26.9585C26.7485 33.2501 26.5472 33.1667 26.3987 33.0182C26.2502 32.8697 26.1668 32.6684 26.1668 32.4584V24.8663L30.8218 29.5213C31.2671 29.9661 31.8708 30.2159 32.5002 30.2159C33.1295 30.2159 33.7332 29.9661 34.1785 29.5213L38.8335 24.8663V32.4584Z" fill="#4C565C"/>
<defs>
<filter id="filter0_d_3_1431" x="0" y="0" width="65" height="65" filterUnits="userSpaceOnUse" color-interpolation-filters="sRGB">
<feFlood flood-opacity="0" result="BackgroundImageFix"/>
<feColorMatrix in="SourceAlpha" type="matrix" values="0 0 0 0 0 0 0 0 0 0 0 0 0 0 0 0 0 0 127 0" result="hardAlpha"/>
<feOffset dy="4"/>
<feGaussianBlur stdDeviation="5"/>
<feColorMatrix type="matrix" values="0 0 0 0 0.0352941 0 0 0 0 0.117647 0 0 0 0 0.258824 0 0 0 0.06 0"/>
<feBlend mode="normal" in2="BackgroundImageFix" result="effect1_dropShadow_3_1431"/>
<feBlend mode="normal" in="SourceGraphic" in2="effect1_dropShadow_3_1431" result="shape"/>
</filter>
</defs>
</svg>
