<svg width="42" height="43" viewBox="0 0 42 43" fill="none" xmlns="http://www.w3.org/2000/svg">
<path d="M10.9102 7.63086C10.4573 7.63086 10.0898 7.99836 10.0898 8.45117C10.0898 8.90398 10.4573 9.27148 10.9102 9.27148C11.363 9.27148 11.7305 8.90398 11.7305 8.45117C11.7305 7.99836 11.363 7.63086 10.9102 7.63086Z" fill="#F4812F"/>
<path d="M21 0.822266C9.68133 0.822266 0 10.4856 0 21.8223C0 33.1435 9.66451 42.8223 21 42.8223C32.3187 42.8223 42 33.1589 42 21.8223C42 10.5011 32.3355 0.822266 21 0.822266ZM21 41.1816C10.5062 41.1816 1.64062 32.3161 1.64062 21.8223C1.64062 11.3284 10.5062 2.46289 21 2.46289C31.4938 2.46289 40.3594 11.3284 40.3594 21.8223C40.3594 32.3161 31.4938 41.1816 21 41.1816Z" fill="#F4812F"/>
<path d="M21 4.34961C18.3697 4.34961 15.5872 4.95664 13.366 6.01509C12.9571 6.21 12.7834 6.69956 12.9783 7.10848C13.1732 7.51741 13.6626 7.69123 14.0717 7.49616C16.0801 6.53911 18.6054 5.99023 21 5.99023C29.5819 5.99023 36.832 13.2404 36.832 21.8223C36.832 30.4041 29.5819 37.6543 21 37.6543C12.4181 37.6543 5.16797 30.4041 5.16797 21.8223C5.16797 17.9023 6.60606 14.0387 9.11359 11.2221C9.41489 10.8837 9.38479 10.3652 9.04641 10.064C8.70795 9.76261 8.18959 9.79304 7.88829 10.1312C5.11678 13.2443 3.52734 17.5055 3.52734 21.8223C3.52734 31.3156 11.4928 39.2949 21 39.2949C30.4933 39.2949 38.4727 31.3294 38.4727 21.8223C38.4727 12.329 30.5072 4.34961 21 4.34961Z" fill="#F4812F"/>
<path d="M30.8438 17.7207H25.1016V11.9785C25.1016 11.5255 24.7342 11.1582 24.2812 11.1582H17.7188C17.2658 11.1582 16.8984 11.5255 16.8984 11.9785V17.7207H11.1562C10.7033 17.7207 10.3359 18.088 10.3359 18.541V25.1035C10.3359 25.5565 10.7033 25.9238 11.1562 25.9238H16.8984V31.666C16.8984 32.119 17.2658 32.4863 17.7188 32.4863H24.2812C24.7342 32.4863 25.1016 32.119 25.1016 31.666V25.9238H30.8438C31.2967 25.9238 31.6641 25.5565 31.6641 25.1035V18.541C31.6641 18.088 31.2967 17.7207 30.8438 17.7207ZM30.0234 24.2832H24.2812C23.8283 24.2832 23.4609 24.6505 23.4609 25.1035V30.8457H18.5391V25.1035C18.5391 24.6505 18.1717 24.2832 17.7188 24.2832H11.9766V19.3613H17.7188C18.1717 19.3613 18.5391 18.994 18.5391 18.541V12.7988H23.4609V18.541C23.4609 18.994 23.8283 19.3613 24.2812 19.3613H30.0234V24.2832Z" fill="#F4812F"/>
</svg>
