<svg width="59" height="59" viewBox="0 0 59 59" fill="none" xmlns="http://www.w3.org/2000/svg">
<path d="M29.1286 53.6669C42.4755 53.6669 53.2952 42.8471 53.2952 29.5003C53.2952 16.1534 42.4755 5.33359 29.1286 5.33359C15.7817 5.33359 4.96191 16.1534 4.96191 29.5003C4.96191 42.8471 15.7817 53.6669 29.1286 53.6669Z" fill="#FDF1E6"/>
<path d="M36.0564 23.0002L23.0564 36.0002" stroke="#EE7500" stroke-width="3.5" stroke-linecap="round" stroke-linejoin="round"/>
<path d="M23.0564 23.0002L36.0564 36.0002" stroke="#EE7500" stroke-width="3.5" stroke-linecap="round" stroke-linejoin="round"/>
</svg>
