<svg width="65" height="65" viewBox="0 0 65 65" fill="none" xmlns="http://www.w3.org/2000/svg">
<g filter="url(#filter0_d_6231_57669)">
<circle cx="32.5" cy="28.5" r="22.5" fill="white"/>
<path d="M38.3904 29.2917C38.2162 29.2917 38.0341 29.2362 37.86 29.1967C37.5073 29.1189 37.1607 29.0158 36.8229 28.8879C36.4556 28.7543 36.0519 28.7612 35.6895 28.9074C35.327 29.0535 35.0314 29.3286 34.8596 29.6796L34.6854 30.0358C33.9143 29.6069 33.2057 29.0741 32.5796 28.4525C31.9579 27.8263 31.4252 27.1177 30.9962 26.3467L31.3287 26.125C31.6797 25.9531 31.9548 25.6575 32.1009 25.2951C32.2471 24.9326 32.254 24.5289 32.1204 24.1617C31.9947 23.8232 31.8915 23.4767 31.8116 23.1246C31.7721 22.9504 31.7404 22.7683 31.7166 22.5862C31.6205 22.0286 31.3284 21.5236 30.893 21.1622C30.4576 20.8008 29.9074 20.6068 29.3416 20.615H26.9666C26.6255 20.6118 26.2876 20.6821 25.976 20.8213C25.6645 20.9604 25.3866 21.165 25.1612 21.4211C24.9358 21.6773 24.7683 21.979 24.67 22.3058C24.5717 22.6325 24.545 22.9766 24.5916 23.3146C25.0134 26.6312 26.5281 29.7127 28.8964 32.0725C31.2648 34.4323 34.3519 35.9357 37.67 36.3454H37.9708C38.5546 36.3463 39.1182 36.1321 39.5541 35.7437C39.8046 35.5197 40.0047 35.2451 40.1411 34.9381C40.2776 34.631 40.3474 34.2985 40.3458 33.9625V31.5875C40.3361 31.0376 40.1359 30.5081 39.7792 30.0894C39.4226 29.6707 38.9317 29.3887 38.3904 29.2917ZM38.7862 34.0417C38.7861 34.1541 38.762 34.2652 38.7156 34.3675C38.6692 34.4699 38.6015 34.5612 38.5171 34.6354C38.4303 34.7145 38.327 34.7732 38.2148 34.8075C38.1025 34.8417 37.984 34.8505 37.8679 34.8333C34.903 34.4532 32.1491 33.0968 30.0405 30.9781C27.9318 28.8595 26.5885 26.0991 26.2225 23.1325C26.2099 23.0165 26.2209 22.8992 26.2549 22.7876C26.2889 22.6761 26.3452 22.5725 26.4204 22.4833C26.4946 22.3989 26.5859 22.3312 26.6883 22.2848C26.7906 22.2384 26.9017 22.2143 27.0141 22.2142H29.3891C29.5732 22.2101 29.753 22.2703 29.8975 22.3844C30.042 22.4986 30.1422 22.6595 30.1808 22.8396C30.2125 23.056 30.2521 23.2697 30.2996 23.4808C30.391 23.8982 30.5127 24.3083 30.6637 24.7079L29.5554 25.2225C29.4606 25.266 29.3754 25.3277 29.3046 25.4043C29.2337 25.4808 29.1787 25.5705 29.1427 25.6684C29.1066 25.7662 29.0903 25.8702 29.0945 25.9744C29.0988 26.0785 29.1236 26.1808 29.1675 26.2754C30.3068 28.7159 32.2686 30.6777 34.7091 31.8171C34.9019 31.8963 35.1181 31.8963 35.3108 31.8171C35.4095 31.7818 35.5003 31.7272 35.5777 31.6565C35.6552 31.5859 35.7178 31.5005 35.7621 31.4054L36.2529 30.2971C36.6621 30.4434 37.0798 30.565 37.5037 30.6612C37.7148 30.7087 37.9286 30.7483 38.145 30.78C38.325 30.8186 38.486 30.9188 38.6001 31.0633C38.7143 31.2078 38.7745 31.3876 38.7704 31.5717L38.7862 34.0417ZM38.0421 26.9167C38.252 26.9167 38.4534 26.8333 38.6018 26.6848C38.7503 26.5363 38.8337 26.335 38.8337 26.125V22.9583C38.8337 22.7484 38.7503 22.547 38.6018 22.3985C38.4534 22.2501 38.252 22.1667 38.0421 22.1667C37.8321 22.1667 37.6307 22.2501 37.4823 22.3985C37.3338 22.547 37.2504 22.7484 37.2504 22.9583V26.125C37.2504 26.335 37.3338 26.5363 37.4823 26.6848C37.6307 26.8333 37.8321 26.9167 38.0421 26.9167ZM34.8754 26.9167C35.0853 26.9167 35.2867 26.8333 35.4352 26.6848C35.5836 26.5363 35.6671 26.335 35.6671 26.125V22.9583C35.6671 22.7484 35.5836 22.547 35.4352 22.3985C35.2867 22.2501 35.0853 22.1667 34.8754 22.1667C34.6654 22.1667 34.4641 22.2501 34.3156 22.3985C34.1671 22.547 34.0837 22.7484 34.0837 22.9583V26.125C34.0837 26.335 34.1671 26.5363 34.3156 26.6848C34.4641 26.8333 34.6654 26.9167 34.8754 26.9167Z" fill="#4C565C"/>
<circle cx="49" cy="12" r="4" fill="#469369"/>
</g>
<defs>
<filter id="filter0_d_6231_57669" x="0" y="0" width="65" height="65" filterUnits="userSpaceOnUse" color-interpolation-filters="sRGB">
<feFlood flood-opacity="0" result="BackgroundImageFix"/>
<feColorMatrix in="SourceAlpha" type="matrix" values="0 0 0 0 0 0 0 0 0 0 0 0 0 0 0 0 0 0 127 0" result="hardAlpha"/>
<feOffset dy="4"/>
<feGaussianBlur stdDeviation="5"/>
<feColorMatrix type="matrix" values="0 0 0 0 0.0352941 0 0 0 0 0.117647 0 0 0 0 0.258824 0 0 0 0.06 0"/>
<feBlend mode="normal" in2="BackgroundImageFix" result="effect1_dropShadow_6231_57669"/>
<feBlend mode="normal" in="SourceGraphic" in2="effect1_dropShadow_6231_57669" result="shape"/>
</filter>
</defs>
</svg>
