<svg width="41" height="42" viewBox="0 0 41 42" fill="none" xmlns="http://www.w3.org/2000/svg">
<path d="M34.4491 28.4215L25.2078 26.7443C24.6438 26.6437 24.0747 26.7712 23.6047 27.1042C23.1391 27.4342 22.8273 27.927 22.726 28.4916C22.6251 29.0562 22.7469 29.6266 23.0692 30.0973C23.3945 30.5725 23.8841 30.8898 24.4461 30.9904C24.8918 31.0711 22.792 30.6901 33.6871 32.6672C34.8365 32.8726 35.9567 32.1055 36.1689 30.9202C36.3787 29.7468 35.6081 28.6288 34.4491 28.4215ZM34.3414 30.9689C34.0232 31.1942 34.3318 31.0625 24.7371 29.3754C24.4705 29.328 24.2907 29.0636 24.341 28.7804C24.3923 28.4952 24.6547 28.3122 24.9168 28.359L34.1581 30.0358C34.5965 30.1146 34.7077 30.709 34.3414 30.9689Z" fill="#EE7500"/>
<path d="M35.4537 23.2631L35.2422 23.2247C34.7964 23.1433 34.3693 23.4394 34.2886 23.8854C34.2078 24.3311 34.5036 24.758 34.9493 24.839L35.1627 24.8778C35.4309 24.9259 35.6084 25.1928 35.5584 25.4728C35.5084 25.7532 35.2492 25.9413 34.9829 25.8945L25.7416 24.2174C25.4731 24.1693 25.2956 23.9024 25.3456 23.6223C25.3959 23.342 25.6551 23.1542 25.9214 23.2007L28.6842 23.7021C29.1296 23.7838 29.557 23.4874 29.6378 23.0414C29.7185 22.5957 29.4228 22.1689 28.977 22.0878L26.2123 21.586C25.0533 21.379 23.9402 22.1628 23.7306 23.3333C23.5213 24.5039 24.2936 25.6251 25.4507 25.8321C35.1822 27.5855 34.7205 27.5422 35.0653 27.5422C36.0811 27.5422 36.9866 26.8058 37.1734 25.7619C37.383 24.591 36.6104 23.4701 35.4537 23.2631Z" fill="#EE7500"/>
<path d="M33.3192 33.5875L24.0779 31.9107C22.9193 31.7033 21.8061 32.4871 21.5965 33.6577C21.4956 34.2223 21.6173 34.7926 21.9397 35.2637C22.2649 35.7386 22.7546 36.0558 23.3163 36.1564C23.8536 36.2538 32.0074 37.7336 32.5576 37.8332C33.7131 38.0402 34.8291 37.2603 35.039 36.0862C35.2486 34.9157 34.4763 33.7945 33.3192 33.5875ZM33.424 35.7975C33.374 36.0773 33.1151 36.2663 32.8472 36.2186L23.6072 34.5417C23.3409 34.494 23.1609 34.23 23.2115 33.9467C23.2618 33.6666 23.521 33.4785 23.787 33.5253L33.0283 35.2022C33.2968 35.2502 33.4743 35.5171 33.424 35.7975Z" fill="#EE7500"/>
<path d="M37.929 19.6022L13.9741 15.3164V7.6087C14.6143 7.11298 15.0824 6.40611 15.2734 5.59317H15.3394C16.3209 5.59317 17.1194 6.39169 17.1194 7.37318V11.5545C17.1194 13.0702 18.3525 14.3032 19.8681 14.3032C21.3838 14.3032 22.6168 13.0702 22.6168 11.5545V0.82031C22.6168 0.367217 22.2496 0 21.7965 0C21.3434 0 20.9762 0.367217 20.9762 0.82031V11.5545C20.9762 12.1653 20.4792 12.6626 19.8681 12.6626C19.257 12.6626 18.76 12.1653 18.76 11.5545V7.37318C18.76 5.4871 17.2255 3.95255 15.3394 3.95255H15.2734C14.9014 2.36929 13.4783 1.18657 11.7832 1.18657C9.80585 1.18657 8.19695 2.79514 8.19695 4.77286C8.19695 5.92546 8.74426 6.95213 9.59212 7.6087V14.7444C8.52187 14.9787 7.64036 15.8438 7.43368 16.9987L6.66624 21.287C6.52045 21.0349 6.43553 20.7429 6.43553 20.4308L6.41438 16.3565C6.4099 15.4676 5.89752 14.7025 5.07753 14.3589C4.25754 14.0158 3.35296 14.1882 2.71658 14.8088L1.04584 16.4376C0.556857 16.9144 0.40401 17.6072 0.646579 18.2455C1.09679 19.4285 2.28271 19.3257 2.32597 19.3394V20.6882C2.32597 23.0699 3.76568 25.1207 5.81966 26.0189L4.42321 33.8256C4.15052 35.3496 5.15444 36.8085 6.6608 37.078L33.9297 41.9569C35.4178 42.2232 36.8793 41.2292 37.1561 39.6819L40.1666 22.8549C40.4393 21.3309 39.4354 19.8717 37.929 19.6022ZM11.7832 2.82719C12.5629 2.82719 13.2364 3.28861 13.5466 3.95255H11.7832C11.3302 3.95255 10.9629 4.31977 10.9629 4.77286C10.9629 5.22563 11.3302 5.59317 11.7832 5.59317H13.5466C13.2512 6.22602 12.6292 6.66983 11.8999 6.71437C10.7688 6.7823 9.83757 5.87739 9.83757 4.77286C9.83757 3.70005 10.7104 2.82719 11.7832 2.82719ZM12.3334 8.31653V15.021L11.8438 14.9354L11.2327 14.8261V8.31653C11.6083 8.37453 11.9925 8.3694 12.3334 8.31653ZM3.96691 20.6882V19.2334C3.96691 18.414 3.32604 17.743 2.50766 17.7056L2.22183 17.6924C2.20389 17.6915 2.19107 17.6908 2.18017 17.6623C2.1696 17.6338 2.17857 17.6248 2.19139 17.6123L3.86213 15.9835C4.20531 15.6487 4.77152 15.8957 4.77408 16.3652L4.79523 20.435C4.79523 22.0356 5.93566 23.4163 7.50097 23.7211C9.56841 24.1258 11.4923 22.5367 11.4923 20.435V19.4747C11.4923 19.3369 11.5625 19.2462 11.6044 19.2045C11.747 19.062 11.9604 19.093 11.9521 19.093C11.9604 19.0956 12.1021 19.0831 12.2238 19.2068C12.2655 19.2494 12.3354 19.3411 12.3334 19.4798C12.3161 20.6539 12.4103 21.4812 11.8746 22.5505C11.02 24.2472 9.13294 25.1758 7.25103 24.767C5.3592 24.353 3.96691 22.6684 3.96691 20.6882ZM11.689 31.5448L11.8771 30.4934C12.022 29.6834 12.502 28.9813 13.1768 28.5558C14.1077 29.576 15.6208 29.8481 16.8503 29.213C17.3354 29.8461 17.5424 30.6709 17.3976 31.4813L17.2095 32.5323L11.689 31.5448ZM15.8717 27.8466C14.8245 28.1776 13.8238 27.251 14.0189 26.1612C14.0897 25.7651 14.3073 25.4206 14.6313 25.1909C15.2914 24.7231 16.1934 24.8813 16.6526 25.5527C17.2306 26.3973 16.8105 27.5506 15.8717 27.8466ZM18.0637 28.1043C18.281 27.7614 18.4319 27.3759 18.5056 26.9638C18.6527 26.1416 18.4755 25.3114 18.0064 24.626C17.5347 23.9367 16.8246 23.4762 16.0072 23.3301C15.1895 23.184 14.3643 23.3692 13.6828 23.8524C13.0051 24.3324 12.551 25.0499 12.4039 25.8721C12.3302 26.2842 12.3379 26.6982 12.4232 27.0952C11.3 27.7553 10.4973 28.8893 10.2621 30.2047L10.0891 31.1718C10.0221 31.1212 9.96254 31.0596 9.9132 30.9875C9.78983 30.8071 9.74337 30.5873 9.78246 30.3688L10.5685 25.9759C11.1751 25.6972 11.7355 25.3127 12.2245 24.8307C13.0887 23.979 13.6523 22.902 13.8635 21.7296L20.3247 22.8857C20.7605 22.9636 21.0419 23.3917 20.9627 23.8345L19.4829 32.1046C19.4208 32.4526 19.1529 32.7108 18.8334 32.7711L19.0126 31.77C19.2477 30.4546 18.8882 29.113 18.0637 28.1043ZM38.5516 22.5662L35.5412 39.3928C35.4255 40.0382 34.8247 40.4503 34.2184 40.3416L6.94951 35.463C6.33363 35.3528 5.92476 34.7478 6.03819 34.1143L7.40805 26.4576C7.90472 26.5207 8.3623 26.5162 8.81411 26.4643L8.16747 30.0797C7.92779 31.4185 8.80482 32.6954 10.1314 32.9329C19.0324 34.5267 18.398 34.4261 18.6921 34.4261C19.8511 34.4261 20.8845 33.5853 21.0979 32.3933L22.5774 24.1235C22.6927 23.4785 22.5537 22.827 22.1855 22.2894C21.8147 21.7475 21.2562 21.3854 20.6134 21.2707L13.966 20.0813L13.9737 19.5013C13.9808 18.9565 13.7741 18.4432 13.3921 18.0552C12.5991 17.2502 11.2347 17.255 10.4451 18.0433C10.0625 18.4253 9.85167 18.9338 9.85167 19.4747C9.79207 20.1203 10.0484 20.8618 9.4162 21.57C9.09609 21.9286 8.65133 22.1307 8.17997 22.141L9.04835 17.2877C9.15569 16.6879 9.6937 16.2751 10.2734 16.3264C38.9903 21.4585 37.5903 21.2082 37.64 21.2172C38.2559 21.3274 38.6651 21.9324 38.5516 22.5662Z" fill="#EE7500"/>
<path d="M31.577 24.2075C32.1215 24.4305 32.7114 24.0319 32.7114 23.4503C32.7114 23.0481 32.4175 22.7152 32.0513 22.6463C31.668 22.5694 31.2806 22.777 31.1332 23.1369C30.9634 23.5442 31.1483 24.0286 31.577 24.2075Z" fill="#EE7500"/>
</svg>
