<svg  width="32" height="32" viewBox="0 0 32 32" fill="red" xmlns="http://www.w3.org/2000/svg">
<rect width="32" height="32" rx="16" fill="white"/>
<path  d="M23.4998 14.675H21.4165C21.3063 14.6755 21.1972 14.6978 21.0956 14.7407C20.9941 14.7836 20.902 14.8463 20.8248 14.925L19.7915 16L17.4582 13.3417C17.3802 13.2584 17.286 13.1921 17.1814 13.1467C17.0767 13.1013 16.9639 13.0779 16.8498 13.0779C16.7358 13.0779 16.623 13.1013 16.5183 13.1467C16.4137 13.1921 16.3195 13.2584 16.2415 13.3417L14.8248 14.7584H13.4998C13.2788 14.7584 13.0669 14.8462 12.9106 15.0024C12.7543 15.1587 12.6665 15.3707 12.6665 15.5917C12.6665 15.8127 12.7543 16.0247 12.9106 16.1809C13.0669 16.3372 13.2788 16.425 13.4998 16.425H15.1665C15.2762 16.4257 15.3849 16.4046 15.4864 16.3632C15.588 16.3217 15.6803 16.2606 15.7582 16.1834L16.8332 15.0667L19.1665 17.725C19.2418 17.8108 19.3339 17.8802 19.4371 17.929C19.5403 17.9777 19.6524 18.0047 19.7665 18.0084C19.8762 18.009 19.9849 17.988 20.0864 17.9465C20.188 17.905 20.2803 17.8439 20.3582 17.7667L21.7748 16.3417H23.4998C23.7209 16.3417 23.9328 16.2539 24.0891 16.0976C24.2454 15.9413 24.3332 15.7294 24.3332 15.5084C24.3332 15.2873 24.2454 15.0754 24.0891 14.9191C23.9328 14.7628 23.7209 14.675 23.4998 14.675ZM17.3415 19.0917L15.7582 20.675C15.6807 20.7531 15.5885 20.8151 15.487 20.8574C15.3854 20.8997 15.2765 20.9215 15.1665 20.9215C15.0565 20.9215 14.9476 20.8997 14.846 20.8574C14.7445 20.8151 14.6523 20.7531 14.5748 20.675L10.2332 16.3334C9.94745 16.0478 9.72078 15.7087 9.56613 15.3355C9.41148 14.9623 9.33189 14.5623 9.33189 14.1584C9.33189 13.7544 9.41148 13.3544 9.56613 12.9812C9.72078 12.608 9.94745 12.2689 10.2332 11.9834C10.8096 11.4088 11.5902 11.0862 12.404 11.0862C13.2178 11.0862 13.9985 11.4088 14.5748 11.9834C14.6523 12.0615 14.7445 12.1235 14.846 12.1658C14.9476 12.2081 15.0565 12.2299 15.1665 12.2299C15.2765 12.2299 15.3854 12.2081 15.487 12.1658C15.5885 12.1235 15.6807 12.0615 15.7582 11.9834C16.3437 11.4265 17.1209 11.1159 17.929 11.1159C18.7371 11.1159 19.5143 11.4265 20.0998 11.9834C20.2855 12.1715 20.4478 12.3813 20.5832 12.6084C20.7045 12.7752 20.8834 12.8911 21.0853 12.9336C21.2872 12.9762 21.4976 12.9423 21.676 12.8386C21.8543 12.735 21.9879 12.5688 22.0508 12.3723C22.1137 12.1758 22.1015 11.963 22.0165 11.775C21.8105 11.433 21.5643 11.1168 21.2832 10.8334C20.4923 10.0332 19.4424 9.54094 18.3215 9.44474C17.2006 9.34853 16.0821 9.6547 15.1665 10.3084C14.4589 9.7986 13.6242 9.49425 12.7545 9.4289C11.8849 9.36355 11.0141 9.53973 10.2382 9.938C9.46237 10.3363 8.81163 10.9412 8.35782 11.6859C7.90401 12.4306 7.66478 13.2863 7.66651 14.1584C7.66626 14.7784 7.78915 15.3924 8.02805 15.9646C8.26695 16.5368 8.61709 17.0559 9.05818 17.4917L13.3998 21.8334C13.8686 22.3015 14.504 22.5645 15.1665 22.5645C15.829 22.5645 16.4644 22.3015 16.9332 21.8334L18.4998 20.2667C18.6551 20.1106 18.7422 19.8993 18.7422 19.6792C18.7422 19.459 18.6551 19.2478 18.4998 19.0917C18.3445 18.9415 18.1368 18.8575 17.9207 18.8575C17.7046 18.8575 17.4969 18.9415 17.3415 19.0917Z" fill="#679AB4"/>
</svg>
