<svg width="666" height="300" viewBox="0 0 666 300" fill="none" xmlns="http://www.w3.org/2000/svg">
<path d="M320.427 251.458H353.181V287.763H320.427V251.458Z" fill="#F2F3F5"/>
<path d="M343.519 235.75H384.472V287.293H343.519V235.75Z" fill="#F2F3F5"/>
<path d="M367.353 214.628H394.878V287.763H367.353V214.628Z" fill="#F2F3F5"/>
<path d="M290.767 270.888H292.714V287.763H290.767V270.888Z" fill="#F2F3F5"/>
<path d="M286.807 279.129H301.769V287.758H286.807V279.129Z" fill="#F2F3F5"/>
<path d="M399.154 223.124H403.053V287.763H399.154V223.124Z" fill="#F2F3F5"/>
<path d="M391.78 242.646H420.548V287.763H391.78V242.646Z" fill="#F2F3F5"/>
<path d="M418.199 251.34H446.967V287.757H418.199V251.34Z" fill="#F2F3F5"/>
<path d="M187.995 267.43H248.345V287.762H187.995V267.43Z" fill="#F2F3F5"/>
<path d="M167.667 278.384H297.866V287.762H167.667V278.384Z" fill="#F2F3F5"/>
<path d="M158.452 283.071H171.876V287.763H158.452V283.071Z" fill="#F2F3F5"/>
<path d="M179.688 271.056H183.409V287.762H179.688V271.056Z" fill="#F2F3F5"/>
<path d="M153.769 287.763H140.346V283.071H153.769V287.763Z" fill="#F2F3F5"/>
<path d="M288.566 282.994H278.959V263.809C281.79 264.922 284.221 266.862 285.934 269.377C287.648 271.892 288.565 274.865 288.566 277.909V282.994Z" fill="#F2F3F5"/>
<path d="M278.19 282.994H268.583V277.303C268.584 273.717 269.459 270.186 271.133 267.016C272.808 263.846 275.23 261.133 278.19 259.112V282.994Z" fill="#F2F3F5"/>
<path d="M249.533 271.056H255.837V287.762H249.533V271.056Z" fill="#F2F3F5"/>
<path d="M293.865 270.888H324.244V287.763H293.865V270.888Z" fill="#F2F3F5"/>
<path d="M377.031 184.279V287.762H347.646V184.279H377.031ZM350.48 193.255C350.48 199.914 352.238 206.454 355.576 212.215C356.264 213.401 357.251 214.385 358.438 215.069C359.625 215.753 360.971 216.113 362.341 216.113C363.711 216.113 365.057 215.753 366.244 215.069C367.432 214.385 368.419 213.401 369.107 212.215C372.444 206.454 374.202 199.914 374.203 193.255V187.11H350.48V193.255Z" fill="#F2F3F5"/>
<path d="M347.641 220.019H377.031V220.631H347.641V220.019Z" fill="white"/>
<path d="M347.641 221.481H377.031V222.093H347.641V221.481Z" fill="white"/>
<path d="M347.641 222.94H377.031V223.552H347.641V222.94Z" fill="white"/>
<path d="M347.641 224.404H377.031V225.016H347.641V224.404Z" fill="white"/>
<path d="M347.641 225.867H377.031V226.479H347.641V225.867Z" fill="white"/>
<path d="M347.641 227.331H377.031V227.943H347.641V227.331Z" fill="white"/>
<path d="M347.641 228.795H377.031V229.407H347.641V228.795Z" fill="white"/>
<path d="M347.641 230.253H377.031V230.865H347.641V230.253Z" fill="white"/>
<path d="M347.641 231.717H377.031V232.329H347.641V231.717Z" fill="white"/>
<path d="M347.641 233.181H377.031V233.793H347.641V233.181Z" fill="white"/>
<path d="M347.641 234.644H377.031V235.256H347.641V234.644Z" fill="white"/>
<path d="M347.641 236.103H377.031V236.715H347.641V236.103Z" fill="white"/>
<path d="M347.641 237.566H377.031V238.178H347.641V237.566Z" fill="white"/>
<path d="M347.641 239.03H377.031V239.642H347.641V239.03Z" fill="white"/>
<path d="M347.641 240.493H377.031V241.105H347.641V240.493Z" fill="white"/>
<path d="M347.641 241.957H377.031V242.569H347.641V241.957Z" fill="white"/>
<path d="M347.641 243.415H377.031V244.027H347.641V243.415Z" fill="white"/>
<path d="M347.641 246.343H377.031V246.955H347.641V246.343Z" fill="white"/>
<path d="M347.641 247.807H377.031V248.419H347.641V247.807Z" fill="white"/>
<path d="M347.641 249.27H377.031V249.882H347.641V249.27Z" fill="white"/>
<path d="M347.641 250.729H377.031V251.34H347.641V250.729Z" fill="white"/>
<path d="M347.641 252.192H377.031V252.804H347.641V252.192Z" fill="white"/>
<path d="M347.641 253.656H377.031V254.268H347.641V253.656Z" fill="white"/>
<path d="M347.641 255.119H377.031V255.731H347.641V255.119Z" fill="white"/>
<path d="M347.641 256.577H377.031V257.189H347.641V256.577Z" fill="white"/>
<path d="M347.641 258.041H377.031V258.653H347.641V258.041Z" fill="white"/>
<path d="M347.641 259.505H377.031V260.117H347.641V259.505Z" fill="white"/>
<path d="M347.641 260.969H377.031V261.581H347.641V260.969Z" fill="white"/>
<path d="M347.641 262.433H377.031V263.045H347.641V262.433Z" fill="white"/>
<path d="M347.641 263.891H377.031V264.503H347.641V263.891Z" fill="white"/>
<path d="M347.641 265.354H377.031V265.966H347.641V265.354Z" fill="white"/>
<path d="M347.641 266.818H377.031V267.43H347.641V266.818Z" fill="white"/>
<path d="M347.641 268.281H377.031V268.893H347.641V268.281Z" fill="white"/>
<path d="M347.641 269.745H377.031V270.357H347.641V269.745Z" fill="white"/>
<path d="M347.641 272.667H377.031V273.279H347.641V272.667Z" fill="white"/>
<path d="M347.641 274.131H377.031V274.743H347.641V274.131Z" fill="white"/>
<path d="M347.641 275.595H377.031V276.207H347.641V275.595Z" fill="white"/>
<path d="M347.641 277.053H377.031V277.665H347.641V277.053Z" fill="white"/>
<path d="M347.641 278.517H377.031V279.129H347.641V278.517Z" fill="white"/>
<path d="M347.641 279.98H377.031V280.592H347.641V279.98Z" fill="white"/>
<path d="M347.641 281.444H377.031V282.056H347.641V281.444Z" fill="white"/>
<path d="M347.641 282.907H377.031V283.519H347.641V282.907Z" fill="white"/>
<path d="M347.641 284.366H377.031V284.978H347.641V284.366Z" fill="white"/>
<path d="M347.641 285.829H377.031V286.441H347.641V285.829Z" fill="white"/>
<path d="M347.641 287.293H377.031V287.905H347.641V287.293Z" fill="white"/>
<path d="M308.558 256.461H337.025V287.763H308.558V256.461Z" fill="#F2F3F5"/>
<path d="M298.732 265.722H304.812V287.763H298.732V265.722Z" fill="#F2F3F5"/>
<path d="M297.53 261.453H299.93V287.757H297.53V261.453Z" fill="#F2F3F5"/>
<path d="M331.415 211.624C339.935 242.36 340.705 275.916 340.705 275.916L331.43 280.302L322.155 275.916C322.155 275.916 322.868 242.36 331.415 211.624Z" fill="#F2F3F5"/>
<path d="M331.415 236.092C329.202 236.092 327.409 234.297 327.409 232.084C327.409 229.87 329.202 228.075 331.415 228.075C333.627 228.075 335.42 229.87 335.42 232.084C335.42 234.297 333.627 236.092 331.415 236.092Z" fill="white"/>
<path d="M405.178 250.729H415.681V287.059H405.178V250.729Z" fill="white"/>
<path d="M407.696 261.974H418.199V287.426H407.696V261.974Z" fill="#F2F3F5"/>
<path d="M410.601 274.697H410.254V249.245H410.601V274.697Z" fill="#F2F3F5"/>
<path d="M397.712 258.826V258.479H423.147V258.826H397.712Z" fill="#F2F3F5"/>
<path d="M397.712 262.142V261.795H423.147V262.142H397.712Z" fill="#F2F3F5"/>
<path d="M397.707 265.461V265.114H423.142V265.461H397.707Z" fill="#F2F3F5"/>
<path d="M397.712 268.776V268.43H423.147V268.776H397.712Z" fill="#F2F3F5"/>
<path d="M397.707 272.091V271.744H423.142V272.091H397.707Z" fill="#F2F3F5"/>
<path d="M397.712 275.411V275.064H423.147V275.411H397.712Z" fill="#F2F3F5"/>
<path d="M397.712 278.726V278.379H423.147V278.726H397.712Z" fill="#F2F3F5"/>
<path d="M397.712 282.046V281.699H423.147V282.046H397.712Z" fill="#F2F3F5"/>
<path d="M287.643 106.805C283.674 106.805 280.457 103.586 280.457 99.6144C280.457 95.6432 283.674 92.4238 287.643 92.4238C291.611 92.4238 294.828 95.6432 294.828 99.6144C294.828 103.586 291.611 106.805 287.643 106.805Z" fill="#F2F3F5"/>
<path d="M409.576 82.6368C412.096 83.8101 414.049 85.9361 415.004 88.5482C415.96 91.1603 415.84 94.0451 414.672 96.5692L410.524 105.585L407.466 104.163L411.63 95.1566C412.021 94.3098 412.242 93.3941 412.28 92.4617C412.318 91.5294 412.172 90.5988 411.851 89.723C411.529 88.8471 411.038 88.0433 410.406 87.3572C409.774 86.6712 409.013 86.1165 408.167 85.7247C407.321 85.3329 406.406 85.1118 405.474 85.0739C404.542 85.036 403.612 85.1821 402.737 85.5039C400.969 86.1538 399.532 87.4797 398.741 89.19L394.578 98.2011L391.52 96.7783L395.653 87.7365C396.826 85.2145 398.95 83.261 401.56 82.3048C404.171 81.3487 407.054 81.4681 409.576 82.6368Z" fill="#F2F3F5"/>
<path d="M404.083 94.5247C405.102 96.7992 407.701 100.573 414.423 104.785L411.717 110.645C410.501 112.972 408.856 115.048 406.87 116.764C402.691 120.365 397.728 121.604 392.091 120.452C387.571 116.882 385.298 112.292 385.328 106.805C385.354 104.182 385.873 101.587 386.857 99.1552L389.563 93.3008C397.136 95.6874 401.698 95.2285 404.083 94.5247ZM396.688 107.544L394.782 110.823L397.702 112.175L398.966 108.605C399.562 108.572 400.13 108.339 400.579 107.946C401.028 107.552 401.333 107.019 401.445 106.432C401.556 105.845 401.468 105.237 401.195 104.706C400.921 104.175 400.478 103.75 399.936 103.5C399.394 103.25 398.783 103.189 398.202 103.326C397.621 103.463 397.102 103.791 396.729 104.257C396.355 104.723 396.148 105.301 396.141 105.899C396.133 106.496 396.326 107.079 396.688 107.554V107.544Z" fill="#F2F3F5"/>
<path d="M417.093 165.717L427.316 171.092C428.043 171.475 428.863 171.647 429.683 171.588C430.503 171.529 431.29 171.241 431.955 170.758C432.62 170.274 433.137 169.614 433.446 168.852C433.756 168.09 433.846 167.257 433.707 166.446L431.755 155.053L440.026 146.986C440.614 146.411 441.03 145.683 441.227 144.884C441.424 144.085 441.393 143.246 441.139 142.464C440.884 141.681 440.416 140.986 439.787 140.455C439.158 139.925 438.394 139.582 437.58 139.463L426.159 137.806L421.063 127.443C420.699 126.706 420.135 126.085 419.437 125.651C418.739 125.216 417.933 124.986 417.111 124.986C416.288 124.986 415.483 125.216 414.784 125.651C414.086 126.085 413.523 126.706 413.158 127.443L408.062 137.806L396.636 139.463C395.823 139.582 395.059 139.927 394.431 140.457C393.803 140.988 393.335 141.683 393.081 142.466C392.827 143.248 392.797 144.086 392.994 144.885C393.191 145.683 393.607 146.411 394.195 146.986L402.431 155.053L400.479 166.441C400.341 167.252 400.432 168.085 400.743 168.847C401.053 169.608 401.57 170.268 402.235 170.751C402.9 171.235 403.687 171.522 404.507 171.581C405.327 171.641 406.147 171.469 406.875 171.087L417.093 165.717Z" fill="#F2F3F5"/>
<path d="M266.534 23.7408C266.534 23.7408 263.986 11.221 252.896 15.9586C252.896 15.9586 246.123 2.14864 230.84 11.8789C230.84 11.8789 227.634 -3.51713 207.728 0.746219C192.74 3.95903 189.891 23.7204 139.051 23.7204L266.534 23.7408Z" fill="#F2F3F5"/>
<path d="M512.837 69.6586C512.837 69.6586 510.798 55.0326 493.817 61.8764C493.817 61.8764 486.912 52.4165 474.263 57.7967C474.263 57.7967 463.622 37.5509 446.458 60.8208C446.458 60.8208 442.202 69.6382 397.712 69.6382L512.837 69.6586Z" fill="#F2F3F5"/>
<path d="M477.331 193.407C469.897 193.407 463.871 187.377 463.871 179.939C463.871 172.501 469.897 166.471 477.331 166.471C484.764 166.471 490.79 172.501 490.79 179.939C490.79 187.377 484.764 193.407 477.331 193.407Z" fill="#F2F3F5"/>
<path d="M382.372 77.6493L386.27 79.6891C386.548 79.8351 386.86 79.9006 387.173 79.8783C387.486 79.8559 387.786 79.7465 388.04 79.5625C388.294 79.3785 388.491 79.1272 388.61 78.8369C388.728 78.5466 388.764 78.2288 388.711 77.9195L387.967 73.5746L391.122 70.5148C391.347 70.2956 391.506 70.0178 391.581 69.7128C391.657 69.4078 391.645 69.0878 391.548 68.789C391.451 68.4902 391.272 68.2246 391.032 68.0222C390.792 67.8197 390.5 67.6886 390.189 67.6437L385.832 67.0113L383.88 63.059C383.741 62.7772 383.527 62.5399 383.26 62.374C382.993 62.2081 382.686 62.1201 382.372 62.1201C382.058 62.1201 381.75 62.2081 381.483 62.374C381.217 62.5399 381.002 62.7772 380.863 63.059L378.916 67.0113L374.554 67.6437C374.243 67.6886 373.951 67.8197 373.711 68.0222C373.471 68.2246 373.293 68.4902 373.195 68.789C373.098 69.0878 373.087 69.4078 373.162 69.7128C373.237 70.0178 373.397 70.2956 373.621 70.5148L376.776 73.5746L376.032 77.9195C375.98 78.2288 376.015 78.5466 376.134 78.8369C376.252 79.1272 376.45 79.3785 376.704 79.5625C376.958 79.7465 377.258 79.8559 377.57 79.8783C377.883 79.9006 378.196 79.8351 378.473 79.6891L382.372 77.6493Z" fill="#F2F3F5"/>
<path d="M321.936 87.875L325.814 89.9149C326.09 90.0604 326.402 90.1256 326.713 90.1031C327.024 90.0806 327.323 89.9714 327.575 89.7877C327.828 89.6041 328.024 89.3534 328.141 89.064C328.259 88.7747 328.293 88.4582 328.24 88.1504L327.501 83.831L330.635 80.7711C330.86 80.5539 331.019 80.278 331.094 79.9746C331.17 79.6713 331.158 79.3529 331.062 79.0557C330.965 78.7585 330.787 78.4945 330.547 78.2938C330.308 78.093 330.017 77.9637 329.707 77.9204L325.371 77.2881L323.434 73.3562C323.296 73.0753 323.083 72.8387 322.817 72.6732C322.552 72.5077 322.246 72.4199 321.933 72.4199C321.621 72.4199 321.314 72.5077 321.049 72.6732C320.784 72.8387 320.57 73.0753 320.432 73.3562L318.496 77.2881L314.159 77.9204C313.851 77.9655 313.561 78.0958 313.323 78.2968C313.085 78.4977 312.907 78.7613 312.811 79.0577C312.714 79.3541 312.703 79.6717 312.777 79.9744C312.851 80.2772 313.009 80.5531 313.231 80.7711L316.371 83.831L315.627 88.1504C315.575 88.4584 315.61 88.7747 315.728 89.0638C315.846 89.3528 316.043 89.6031 316.296 89.7865C316.548 89.9699 316.847 90.079 317.158 90.1017C317.469 90.1244 317.781 90.0597 318.057 89.9149L321.936 87.875Z" fill="#F2F3F5"/>
<path d="M350.057 58.2609C348.376 58.2609 347.014 56.8978 347.014 55.2164C347.014 53.535 348.376 52.1719 350.057 52.1719C351.737 52.1719 353.099 53.535 353.099 55.2164C353.099 56.8978 351.737 58.2609 350.057 58.2609Z" fill="#F2F3F5"/>
<path d="M319.657 53.309C318.292 53.309 317.186 52.2017 317.186 50.8357C317.186 49.4697 318.292 48.3623 319.657 48.3623C321.022 48.3623 322.129 49.4697 322.129 50.8357C322.129 52.2017 321.022 53.309 319.657 53.309Z" fill="#F2F3F5"/>
<path d="M414.382 244.874C414.377 252.66 416.679 260.272 420.998 266.748C425.317 273.224 431.458 278.273 438.645 281.256C445.832 284.239 453.741 285.022 461.372 283.506C469.004 281.99 476.015 278.243 481.518 272.74C487.022 267.236 490.77 260.223 492.29 252.588C493.81 244.952 493.032 237.037 490.056 229.843C487.08 222.65 482.038 216.501 475.569 212.175C469.101 207.849 461.495 205.54 453.715 205.54C443.287 205.539 433.285 209.682 425.91 217.058C418.534 224.434 414.387 234.439 414.382 244.874Z" fill="#34383E"/>
<path d="M248.345 189.526L513.112 191.77L556.455 254.405L547.353 262.646L526.178 267.853H245.517L248.345 189.526Z" fill="#34383E"/>
<path d="M416.355 179.057C412.237 177.109 361.091 151.081 345.802 143.931C335.609 139.157 321.962 136.337 321.962 136.337L322.721 134.17C371.482 140.677 434.869 178.41 434.869 178.41C434.869 178.41 420.472 181.011 416.355 179.057Z" fill="#676F7C"/>
<path d="M208.87 263.799L268.232 130.269C315.912 130.269 337.576 130.702 417.878 176.905L435.496 176.038C439.204 175.854 442.92 175.907 446.621 176.196C485.317 179.328 534.206 196.243 556.191 212.573C557.903 213.86 559.291 215.529 560.244 217.448C561.198 219.366 561.691 221.481 561.685 223.624V232.171C561.685 232.589 561.519 232.99 561.223 233.285C560.928 233.581 560.527 233.747 560.11 233.747C559.696 233.747 559.3 233.911 559.007 234.204C558.715 234.496 558.55 234.893 558.55 235.307V251.437C558.55 251.851 558.715 252.248 559.007 252.541C559.3 252.834 559.696 252.998 560.11 252.998C560.527 252.998 560.928 253.164 561.223 253.459C561.519 253.755 561.685 254.156 561.685 254.574V258.011C561.685 259.815 560.968 261.546 559.693 262.821C558.418 264.097 556.689 264.814 554.886 264.814H508.571V248.24C508.571 223.43 488.844 202.751 464.055 202.429C458.081 202.35 452.151 203.46 446.609 205.693C441.066 207.926 436.023 211.239 431.77 215.438C427.518 219.638 424.141 224.641 421.837 230.158C419.533 235.674 418.347 241.593 418.347 247.572V266.441L208.87 263.799Z" fill="#F2F3F5"/>
<path d="M218.813 186.064C301.795 190.995 433.799 198.344 433.799 198.344C439.564 195.188 445.896 193.203 452.43 192.505C424.136 189.144 409.525 187.589 409.525 187.589C409.525 187.589 290.818 180.362 219.241 175.859L218.813 186.064Z" fill="white"/>
<path d="M463.464 198.446C457.719 198.446 453.062 196.992 453.062 195.198C453.062 193.404 457.719 191.949 463.464 191.949C469.208 191.949 473.865 193.404 473.865 195.198C473.865 196.992 469.208 198.446 463.464 198.446Z" fill="white"/>
<path d="M427.576 180.694C427.576 180.694 428.289 180.541 429.39 180.291C437.848 178.374 446.579 177.975 455.177 179.113C493.205 184.213 524.257 195.652 543.531 208.13C543.337 209.441 553.087 214.556 552.297 215.336C529.511 213.189 495.728 195.448 477.545 189.955C464.493 186.013 452.313 183.866 427.576 180.694Z" fill="white"/>
<path d="M424.136 248.127C424.136 255.912 426.443 263.521 430.765 269.994C435.087 276.467 441.23 281.511 448.417 284.49C455.604 287.469 463.513 288.249 471.142 286.73C478.772 285.212 485.781 281.463 491.282 275.958C496.782 270.454 500.528 263.441 502.046 255.806C503.564 248.171 502.785 240.257 499.808 233.065C496.831 225.873 491.789 219.726 485.321 215.401C478.853 211.076 471.248 208.768 463.469 208.768C458.304 208.767 453.189 209.785 448.416 211.762C443.644 213.74 439.307 216.639 435.655 220.294C432.002 223.949 429.105 228.288 427.129 233.064C425.152 237.84 424.135 242.958 424.136 248.127Z" fill="#676F7C"/>
<path d="M502.578 244.023C501.712 244.023 500.874 243.723 500.205 243.173C499.537 242.624 499.08 241.858 498.913 241.009C497.271 232.812 492.842 225.437 486.379 220.139C479.917 214.84 471.821 211.945 463.466 211.945C455.112 211.945 447.015 214.84 440.553 220.139C434.091 225.437 429.662 232.812 428.019 241.009C427.852 241.857 427.396 242.621 426.728 243.171C426.061 243.72 425.224 244.021 424.36 244.023C425.373 234.347 429.931 225.389 437.155 218.878C444.379 212.367 453.757 208.764 463.479 208.764C473.201 208.764 482.579 212.367 489.803 218.878C497.027 225.389 501.585 234.347 502.598 244.023H502.578Z" fill="#818B9B"/>
<path d="M434.252 248.128C434.251 253.911 435.963 259.564 439.173 264.372C442.383 269.181 446.946 272.929 452.284 275.143C457.623 277.356 463.498 277.936 469.165 276.808C474.833 275.681 480.04 272.897 484.126 268.808C488.213 264.72 490.996 259.51 492.124 253.839C493.252 248.167 492.673 242.288 490.462 236.946C488.251 231.603 484.506 227.037 479.701 223.824C474.896 220.611 469.247 218.896 463.469 218.896C455.721 218.896 448.29 221.976 442.811 227.458C437.332 232.94 434.253 240.375 434.252 248.128Z" fill="white"/>
<path d="M437.381 248.128C437.38 253.291 438.91 258.339 441.775 262.632C444.641 266.926 448.715 270.273 453.482 272.249C458.249 274.226 463.495 274.744 468.556 273.737C473.616 272.73 478.265 270.245 481.914 266.594C485.563 262.943 488.048 258.292 489.055 253.227C490.062 248.163 489.546 242.914 487.572 238.144C485.597 233.373 482.254 229.296 477.963 226.427C473.673 223.559 468.629 222.027 463.469 222.027C456.551 222.027 449.916 224.777 445.024 229.672C440.132 234.566 437.383 241.205 437.381 248.128Z" fill="#34383E"/>
<path d="M454.387 248.127C454.386 249.925 454.918 251.683 455.915 253.178C456.913 254.673 458.331 255.838 459.99 256.527C461.649 257.216 463.476 257.396 465.238 257.046C467 256.696 468.618 255.831 469.889 254.56C471.159 253.29 472.025 251.67 472.376 249.907C472.726 248.144 472.547 246.317 471.86 244.656C471.172 242.995 470.008 241.576 468.515 240.577C467.021 239.578 465.265 239.045 463.469 239.045C461.061 239.045 458.752 240.002 457.049 241.705C455.346 243.408 454.389 245.718 454.387 248.127Z" fill="#E2E6F0"/>
<path d="M436.107 243.39H455.264L445.688 226.785L453.888 222.048L463.469 238.652L473.045 222.048L481.25 226.785L471.669 243.39H490.831V252.865H471.669L481.25 269.47L473.045 274.208L463.469 257.608L453.888 274.208L445.688 269.47L455.264 252.865H436.107V243.39Z" fill="white"/>
<path d="M463.469 252.988C460.786 252.988 458.612 250.812 458.612 248.128C458.612 245.443 460.786 243.268 463.469 243.268C466.151 243.268 468.325 245.443 468.325 248.128C468.325 250.812 466.151 252.988 463.469 252.988Z" fill="#34383E"/>
<path d="M257.219 137.331C261.861 137.173 266.54 137.112 271.371 137.096C318.506 136.938 341.261 143.604 407.747 180.78C408.766 181.77 409.525 187.589 409.525 187.589C409.525 187.589 324.764 182.53 252.474 178.001C223.96 176.201 231.539 138.223 257.219 137.331Z" fill="white"/>
<path d="M271.371 137.097H272.976C319.036 137.097 342.015 144.027 407.747 180.781C408.766 181.77 409.525 187.589 409.525 187.589C409.525 187.589 321.493 182.336 248.346 177.731C221.407 176.038 239.8 137.204 271.371 137.097ZM242.536 175.411C309.603 179.643 392.096 184.59 407.217 185.493C407.037 184.391 406.759 183.307 406.386 182.255C371.614 162.825 350.837 152.931 332.388 147.016C311.718 140.386 294.33 139.045 272.976 139.045H271.396C254.772 139.106 217.845 173.85 242.536 175.411Z" fill="#676F7C"/>
<path d="M431.419 201.46L224.944 190.358C224.944 190.358 191.365 194.948 204.523 210.931C210.206 217.83 215.088 226.454 218.36 232.89C219.79 235.699 221.951 238.071 224.614 239.755C227.278 241.44 230.346 242.375 233.495 242.462L401.076 247.179C402.942 247.232 404.773 246.658 406.275 245.549C407.778 244.44 408.866 242.859 409.367 241.06C410.896 235.45 413.287 227.397 415.381 222.043C420.579 208.768 431.419 201.46 431.419 201.46Z" fill="white"/>
<path d="M561.694 258.001C561.694 259.805 560.978 261.536 559.703 262.811C558.428 264.087 556.699 264.804 554.896 264.804H508.581V255.293H561.694V258.001Z" fill="#D1D5DB"/>
<path d="M208.87 248.306L418.357 254.986V266.42L208.87 263.799V248.306Z" fill="#D1D5DB"/>
<path d="M250.139 153.728C261.606 153.728 273.521 153.962 285.512 154.554C320.615 156.298 358.323 162.57 383.305 167.415C390.781 171.383 398.869 175.819 407.767 180.781C408.786 181.771 409.545 187.59 409.545 187.59C409.545 187.59 324.764 182.531 252.473 178.002L250.139 153.728Z" fill="#676F7C"/>
<path d="M501.196 204.954C501.196 204.954 508.713 212.562 514.997 230.559C517.371 237.215 519.148 244.069 520.307 251.04H554.391V222.17C551.532 213.715 544.785 215.097 540.524 211.711C531.101 204.214 501.196 204.954 501.196 204.954Z" fill="#D1D5DB"/>
<path d="M554.391 222.17H524.104C522.971 222.17 521.85 221.946 520.803 221.513C519.757 221.079 518.806 220.443 518.005 219.641C517.204 218.839 516.569 217.887 516.136 216.84C515.703 215.792 515.481 214.67 515.481 213.536V205.479H537.716C539.906 205.479 542.075 205.91 544.099 206.749C546.122 207.588 547.961 208.818 549.509 210.368C551.057 211.918 552.286 213.758 553.123 215.783C553.961 217.808 554.392 219.978 554.391 222.17Z" fill="#519BC6"/>
<path d="M524.104 222.425H554.391C554.459 222.425 554.524 222.398 554.571 222.35C554.619 222.302 554.646 222.238 554.646 222.17C554.642 217.678 552.857 213.37 549.683 210.193C546.509 207.016 542.206 205.229 537.716 205.224H515.481C515.414 205.224 515.349 205.251 515.301 205.298C515.253 205.346 515.226 205.411 515.226 205.479V213.536C515.228 215.892 516.163 218.152 517.828 219.818C519.492 221.485 521.75 222.422 524.104 222.425ZM554.136 221.915H524.104C521.885 221.912 519.757 221.028 518.188 219.458C516.619 217.887 515.737 215.757 515.736 213.536V205.734H537.716C542.026 205.74 546.162 207.439 549.232 210.465C552.303 213.491 554.064 217.603 554.136 221.915Z" fill="#676F7C"/>
<g opacity="0.4">
<path opacity="0.4" d="M163.758 198.446C158.013 198.446 153.356 196.992 153.356 195.198C153.356 193.404 158.013 191.949 163.758 191.949C169.502 191.949 174.159 193.404 174.159 195.198C174.159 196.992 169.502 198.446 163.758 198.446Z" fill="white"/>
</g>
<path d="M485.439 208.386C485.466 208.391 485.494 208.391 485.521 208.386C493.165 205.805 496.814 204.954 516.674 205.749C516.742 205.749 516.807 205.722 516.854 205.675C516.902 205.627 516.929 205.562 516.929 205.494C516.929 205.427 516.902 205.362 516.854 205.314C516.807 205.266 516.742 205.239 516.674 205.239C496.717 204.439 493.043 205.301 485.337 207.901C485.27 207.912 485.209 207.949 485.169 208.005C485.129 208.06 485.112 208.129 485.123 208.197C485.134 208.265 485.171 208.325 485.227 208.365C485.282 208.406 485.351 208.422 485.419 208.411L485.439 208.386Z" fill="#676F7C"/>
<path d="M404.327 259.949C404.384 259.949 404.439 259.93 404.484 259.895C404.528 259.859 404.559 259.81 404.572 259.755C407.9 245.011 410.184 230.05 411.406 214.985C412.522 201.399 408.537 183.137 408.042 180.939L417.97 177.14C418.033 177.116 418.083 177.068 418.111 177.007C418.139 176.946 418.141 176.876 418.118 176.813C418.093 176.75 418.044 176.7 417.982 176.672C417.92 176.644 417.85 176.642 417.787 176.665L407.655 180.541C407.597 180.564 407.549 180.607 407.52 180.662C407.491 180.717 407.483 180.781 407.497 180.842C407.543 181.036 412.084 200.619 410.901 214.939C409.681 229.91 407.416 244.778 404.123 259.434C397.656 259.337 247.587 257.057 237.476 255.792C237.408 255.784 237.34 255.803 237.287 255.845C237.233 255.887 237.198 255.949 237.19 256.017C237.182 256.084 237.201 256.152 237.243 256.206C237.285 256.26 237.347 256.294 237.415 256.302C247.714 257.593 402.747 259.928 404.312 259.954L404.327 259.949Z" fill="#676F7C"/>
<path d="M291.699 257.235C291.763 257.237 291.825 257.214 291.872 257.171C291.919 257.129 291.949 257.07 291.954 257.006C291.984 256.618 295.144 218.07 289.783 192.306C284.422 166.542 280.289 137.841 280.248 137.551C280.243 137.517 280.231 137.485 280.214 137.456C280.196 137.427 280.173 137.402 280.146 137.382C280.119 137.361 280.088 137.347 280.055 137.339C280.022 137.331 279.988 137.329 279.955 137.334C279.921 137.339 279.889 137.35 279.86 137.368C279.831 137.385 279.806 137.408 279.786 137.436C279.766 137.463 279.751 137.494 279.743 137.527C279.735 137.559 279.733 137.594 279.738 137.627C279.779 137.913 283.922 166.695 289.278 192.408C294.635 218.121 291.475 256.578 291.439 256.96C291.436 256.994 291.44 257.027 291.451 257.059C291.461 257.091 291.477 257.121 291.499 257.147C291.521 257.172 291.548 257.193 291.578 257.208C291.607 257.224 291.64 257.233 291.674 257.235H291.699Z" fill="#676F7C"/>
<path d="M418.356 266.675C418.39 266.675 418.423 266.668 418.454 266.655C418.484 266.642 418.512 266.623 418.535 266.598C418.582 266.551 418.61 266.487 418.611 266.42V252.395C418.611 252.328 418.584 252.263 418.537 252.215C418.489 252.167 418.424 252.14 418.356 252.14C418.289 252.14 418.224 252.167 418.176 252.215C418.129 252.263 418.102 252.328 418.102 252.395V266.165L209.124 263.549V248.489L255.021 250.019C255.055 250.02 255.088 250.015 255.12 250.004C255.151 249.992 255.18 249.974 255.204 249.952C255.229 249.929 255.249 249.901 255.263 249.871C255.277 249.841 255.285 249.808 255.286 249.774C255.288 249.707 255.263 249.642 255.217 249.592C255.172 249.543 255.109 249.513 255.042 249.509L208.875 247.979C208.841 247.977 208.807 247.982 208.775 247.994C208.743 248.006 208.715 248.026 208.691 248.051C208.666 248.074 208.647 248.103 208.633 248.134C208.62 248.166 208.614 248.2 208.615 248.234V263.804C208.616 263.87 208.643 263.933 208.689 263.981C208.735 264.028 208.798 264.056 208.864 264.058L418.351 266.68L418.356 266.675Z" fill="#676F7C"/>
<path d="M275.698 250.693C275.764 250.692 275.827 250.665 275.875 250.619C275.922 250.573 275.95 250.51 275.953 250.443C275.954 250.377 275.929 250.312 275.883 250.263C275.838 250.215 275.775 250.186 275.708 250.183L259.441 249.673C259.407 249.671 259.373 249.676 259.342 249.687C259.31 249.699 259.281 249.716 259.256 249.739C259.231 249.762 259.211 249.79 259.197 249.82C259.184 249.851 259.176 249.884 259.176 249.918C259.174 249.986 259.2 250.052 259.246 250.102C259.293 250.151 259.357 250.181 259.425 250.183L275.693 250.693H275.698Z" fill="#676F7C"/>
<path d="M410.101 255.007C410.167 255.006 410.231 254.979 410.278 254.933C410.325 254.886 410.353 254.824 410.356 254.757C410.357 254.691 410.332 254.626 410.287 254.577C410.241 254.529 410.178 254.5 410.111 254.497L328.061 251.876C327.993 251.875 327.927 251.9 327.878 251.947C327.828 251.994 327.799 252.058 327.796 252.126C327.796 252.159 327.802 252.193 327.814 252.224C327.826 252.255 327.844 252.284 327.867 252.308C327.891 252.332 327.918 252.351 327.949 252.365C327.98 252.378 328.013 252.385 328.046 252.386L410.096 255.007H410.101Z" fill="#676F7C"/>
<path d="M418.357 266.675C418.391 266.676 418.424 266.669 418.454 266.656C418.485 266.643 418.513 266.623 418.535 266.599C418.583 266.551 418.61 266.487 418.612 266.42V247.551C418.612 235.649 423.337 224.234 431.747 215.818C440.158 207.402 451.565 202.674 463.459 202.674H464.035C488.441 202.99 508.301 223.425 508.301 248.23V264.804C508.301 264.871 508.328 264.936 508.376 264.984C508.423 265.032 508.488 265.059 508.556 265.059H554.896C554.964 265.059 555.029 265.032 555.076 264.984C555.124 264.936 555.151 264.871 555.151 264.804C555.151 264.736 555.124 264.671 555.076 264.623C555.029 264.576 554.964 264.549 554.896 264.549H508.836V248.23C508.836 223.149 488.752 202.48 464.066 202.164H463.464C451.435 202.164 439.898 206.946 431.392 215.458C422.886 223.969 418.107 235.514 418.107 247.551V266.15L209.13 263.534V248.235C209.13 248.167 209.103 248.102 209.055 248.054C209.008 248.007 208.943 247.98 208.875 247.98C208.808 247.98 208.743 248.007 208.695 248.054C208.647 248.102 208.62 248.167 208.62 248.235V263.804C208.622 263.87 208.648 263.934 208.695 263.981C208.741 264.029 208.804 264.057 208.87 264.059L418.357 266.68V266.675Z" fill="#676F7C"/>
<path d="M561.694 258.255C561.762 258.255 561.826 258.229 561.874 258.181C561.922 258.133 561.949 258.068 561.949 258V254.563C561.949 254.078 561.756 253.612 561.413 253.269C561.07 252.925 560.605 252.732 560.119 252.732C559.777 252.73 559.449 252.592 559.207 252.35C558.965 252.108 558.828 251.78 558.825 251.437V245.731C558.825 245.663 558.798 245.598 558.75 245.55C558.702 245.502 558.638 245.476 558.57 245.476C558.503 245.477 558.439 245.504 558.391 245.552C558.344 245.599 558.317 245.663 558.315 245.731V251.437C558.315 251.919 558.506 252.38 558.847 252.721C559.187 253.061 559.648 253.253 560.13 253.253C560.48 253.253 560.815 253.392 561.063 253.639C561.31 253.887 561.449 254.223 561.449 254.573V258.011C561.453 258.074 561.48 258.135 561.525 258.18C561.57 258.225 561.63 258.252 561.694 258.255Z" fill="#676F7C"/>
<path d="M558.56 238.356C558.627 238.356 558.692 238.33 558.74 238.282C558.788 238.234 558.815 238.169 558.815 238.101V235.307C558.815 234.961 558.952 234.629 559.197 234.384C559.441 234.139 559.773 234.001 560.119 234.001C560.605 234.001 561.07 233.808 561.413 233.465C561.756 233.122 561.949 232.656 561.949 232.171V223.623C561.952 221.441 561.448 219.287 560.475 217.333C559.502 215.38 558.087 213.68 556.343 212.368C556.288 212.329 556.221 212.312 556.154 212.322C556.088 212.331 556.028 212.366 555.986 212.419C555.946 212.473 555.928 212.541 555.938 212.608C555.947 212.675 555.983 212.736 556.037 212.776C557.717 214.041 559.078 215.679 560.014 217.562C560.95 219.445 561.435 221.52 561.429 223.623V232.171C561.429 232.344 561.395 232.516 561.329 232.676C561.262 232.836 561.165 232.982 561.042 233.104C560.92 233.227 560.774 233.324 560.614 233.391C560.454 233.457 560.282 233.491 560.109 233.491C559.628 233.493 559.168 233.684 558.828 234.025C558.488 234.365 558.296 234.826 558.295 235.307V238.101C558.295 238.136 558.302 238.17 558.315 238.201C558.329 238.233 558.348 238.262 558.373 238.285C558.398 238.309 558.427 238.328 558.459 238.34C558.491 238.352 558.526 238.358 558.56 238.356Z" fill="#676F7C"/>
<path d="M544.785 205.581C544.83 205.581 544.875 205.568 544.915 205.545C544.954 205.522 544.986 205.488 545.009 205.449C545.025 205.419 545.035 205.387 545.039 205.353C545.042 205.32 545.039 205.286 545.03 205.254C545.02 205.222 545.005 205.192 544.984 205.166C544.962 205.139 544.936 205.118 544.907 205.102C531.998 197.926 514.839 191.027 496.589 185.677C496.556 185.662 496.52 185.654 496.484 185.654C496.447 185.654 496.411 185.662 496.378 185.677C496.345 185.693 496.315 185.715 496.292 185.742C496.268 185.77 496.25 185.802 496.24 185.837C496.229 185.872 496.227 185.909 496.232 185.945C496.237 185.981 496.25 186.016 496.269 186.046C496.289 186.077 496.315 186.103 496.345 186.123C496.376 186.143 496.41 186.156 496.447 186.161C514.655 191.506 531.784 198.401 544.662 205.54C544.698 205.566 544.741 205.58 544.785 205.581Z" fill="#676F7C"/>
<path d="M477.978 181.377C478.045 181.385 478.113 181.365 478.166 181.322C478.219 181.28 478.253 181.218 478.261 181.15C478.268 181.083 478.248 181.015 478.206 180.962C478.163 180.909 478.102 180.875 478.034 180.867C467.704 178.509 457.223 176.87 446.666 175.961C442.953 175.668 439.225 175.615 435.506 175.803L417.939 176.66C336.878 130.023 315.361 130.028 268.231 130.028C268.163 130.028 268.099 130.055 268.051 130.103C268.003 130.151 267.976 130.216 267.976 130.283C267.976 130.351 268.003 130.416 268.051 130.464C268.099 130.511 268.163 130.538 268.231 130.538C315.28 130.538 336.755 130.538 417.75 177.139C417.791 177.166 417.839 177.178 417.888 177.175L435.531 176.308C439.229 176.122 442.935 176.175 446.626 176.466C457.159 177.383 467.616 179.028 477.922 181.387L477.978 181.377Z" fill="#676F7C"/>
<path d="M427.576 198.706C427.642 198.706 427.704 198.682 427.751 198.637C427.799 198.593 427.827 198.532 427.831 198.467C427.834 198.399 427.811 198.334 427.766 198.283C427.721 198.233 427.659 198.202 427.592 198.196L298.534 190.445C298.501 190.443 298.467 190.447 298.435 190.458C298.404 190.469 298.374 190.486 298.349 190.509C298.324 190.531 298.304 190.558 298.289 190.588C298.274 190.618 298.266 190.651 298.264 190.685C298.261 190.752 298.284 190.818 298.329 190.868C298.374 190.918 298.436 190.95 298.503 190.955L427.561 198.706H427.576Z" fill="#676F7C"/>
<path d="M279.999 189.843C280.064 189.844 280.127 189.819 280.174 189.774C280.221 189.73 280.25 189.669 280.254 189.604C280.255 189.537 280.232 189.472 280.187 189.422C280.143 189.371 280.081 189.34 280.014 189.334L224.903 186.024C224.869 186.02 224.835 186.024 224.803 186.034C224.771 186.045 224.741 186.062 224.715 186.084C224.69 186.107 224.67 186.134 224.655 186.165C224.641 186.196 224.634 186.23 224.633 186.263C224.63 186.331 224.654 186.397 224.698 186.447C224.743 186.497 224.806 186.529 224.873 186.534L279.984 189.843H279.999Z" fill="#676F7C"/>
<path d="M540.443 214.852C536.413 214.852 533.145 213.832 533.145 212.573C533.145 211.314 536.413 210.293 540.443 210.293C544.474 210.293 547.741 211.314 547.741 212.573C547.741 213.832 544.474 214.852 540.443 214.852Z" fill="white"/>
<path d="M537.34 255.548H550.035C550.102 255.548 550.167 255.521 550.215 255.473C550.262 255.426 550.289 255.361 550.289 255.293C550.289 255.225 550.262 255.161 550.215 255.113C550.167 255.065 550.102 255.038 550.035 255.038H537.34C537.273 255.039 537.208 255.067 537.161 255.114C537.113 255.162 537.086 255.226 537.085 255.293C537.085 255.361 537.112 255.426 537.16 255.473C537.207 255.521 537.272 255.548 537.34 255.548Z" fill="#676F7C"/>
<path d="M513.234 255.548H525.929C525.997 255.548 526.062 255.521 526.109 255.473C526.157 255.426 526.184 255.361 526.184 255.293C526.184 255.225 526.157 255.161 526.109 255.113C526.062 255.065 525.997 255.038 525.929 255.038H513.234C513.167 255.039 513.103 255.067 513.056 255.114C513.008 255.162 512.981 255.226 512.98 255.293C512.98 255.327 512.986 255.36 512.999 255.391C513.012 255.422 513.031 255.45 513.054 255.473C513.078 255.497 513.106 255.516 513.137 255.529C513.168 255.541 513.201 255.548 513.234 255.548Z" fill="#676F7C"/>
<path d="M369.637 131.773C363.562 152.84 365.239 171.393 365.239 171.393C356.657 159.082 357.472 147.404 357.472 147.404C357.472 147.404 370.508 128.749 369.637 131.773Z" fill="#F2F3F5"/>
<path d="M337.372 78.5571L336.608 83.0653C336.608 83.0653 337.739 88.2415 336.608 92.7802C335.476 97.3189 330.227 105.193 331.109 113.658L358.542 111.873L357.675 79.6128L344.272 76.2266L337.372 78.5571Z" fill="#9AA2AF"/>
<path d="M306.891 139.55L320.549 118.008C323.209 113.804 327.263 110.67 332.001 109.155L341.77 106.029L355.658 108.135L362.726 111.073C365.959 112.417 368.841 114.486 371.15 117.119C373.458 119.753 375.132 122.882 376.043 126.265L381.649 147.046C382.901 151.699 383.181 156.56 382.469 161.325L378.117 187.691L371.186 187.268L372.46 154.492L365.325 140.656L357.09 167.465L356.386 184.952L348.956 184.371C344.95 183.527 341.369 181.299 338.84 178.078L338.361 177.471L323.806 182.601L325.162 135.715L308.104 150.738L306.891 139.55Z" fill="#B3B9C3"/>
<path d="M365.345 140.671L359.959 130.187L359.964 158.184L365.345 140.671Z" fill="#9AA2AF"/>
<path d="M368.148 191.577L368.785 190.557C369.076 190.113 369.467 189.743 369.927 189.476C370.385 189.192 370.725 188.752 370.885 188.237L371.186 187.283L371.767 187.084C372.806 186.72 373.912 186.585 375.008 186.69C376.104 186.795 377.165 187.136 378.116 187.691L376.379 194.765C376.375 194.997 376.296 195.222 376.153 195.406C376.011 195.59 375.813 195.723 375.589 195.784C375.442 195.823 375.29 195.832 375.14 195.81C374.993 195.79 374.844 195.805 374.704 195.854C374.564 195.903 374.438 195.984 374.335 196.09C374.203 196.225 374.038 196.322 373.856 196.371C373.674 196.419 373.482 196.419 373.3 196.371C373.148 196.331 372.988 196.332 372.836 196.373C372.684 196.414 372.546 196.494 372.434 196.606C372.301 196.742 372.134 196.841 371.95 196.891C371.684 196.96 371.403 196.927 371.16 196.799C370.931 196.693 370.67 196.68 370.431 196.764C370.332 196.79 370.229 196.802 370.126 196.799C369.783 196.844 369.436 196.765 369.147 196.575C369.038 196.488 368.949 196.38 368.885 196.257C368.821 196.133 368.785 195.998 368.777 195.859C368.769 195.72 368.791 195.581 368.841 195.452C368.89 195.322 368.967 195.204 369.066 195.106C369.16 194.984 369.223 194.84 369.249 194.688L369.458 193.372L369.784 195.642C369.274 195.616 368.51 194.112 368.046 193.153C367.929 192.903 367.876 192.628 367.894 192.352C367.912 192.076 367.999 191.81 368.148 191.577Z" fill="#F2F3F5"/>
<path d="M325.182 135.73C325.763 127.06 326.573 122.471 326.573 122.471L316.172 143.64L325.182 135.73Z" fill="#9AA2AF"/>
<path d="M324.877 146.593C324.944 146.593 325.009 146.566 325.057 146.518C325.105 146.47 325.131 146.406 325.131 146.338C325.131 146.165 325.131 128.683 327.46 119.488C327.469 119.456 327.471 119.422 327.466 119.389C327.461 119.357 327.45 119.325 327.433 119.296C327.416 119.268 327.393 119.243 327.366 119.224C327.34 119.204 327.309 119.19 327.277 119.182C327.245 119.174 327.211 119.172 327.177 119.176C327.144 119.181 327.112 119.192 327.083 119.209C327.055 119.226 327.029 119.249 327.009 119.276C326.989 119.303 326.974 119.333 326.966 119.366C324.647 128.622 324.622 146.165 324.622 146.338C324.622 146.406 324.649 146.47 324.696 146.518C324.744 146.566 324.809 146.593 324.877 146.593Z" fill="#676F7C"/>
<path d="M370.962 151.851C371.002 151.852 371.043 151.844 371.079 151.825C371.109 151.81 371.136 151.79 371.158 151.765C371.18 151.739 371.197 151.71 371.207 151.678C371.218 151.646 371.222 151.612 371.219 151.579C371.216 151.546 371.207 151.513 371.191 151.483L358.369 126.541C358.355 126.508 358.335 126.479 358.31 126.455C358.285 126.431 358.255 126.412 358.222 126.4C358.189 126.387 358.154 126.382 358.119 126.384C358.084 126.386 358.05 126.395 358.018 126.411C357.987 126.427 357.96 126.449 357.937 126.476C357.915 126.503 357.898 126.534 357.889 126.568C357.879 126.602 357.876 126.637 357.881 126.672C357.885 126.707 357.897 126.74 357.915 126.77L370.737 151.713C370.758 151.755 370.79 151.79 370.829 151.814C370.869 151.839 370.915 151.851 370.962 151.851Z" fill="#676F7C"/>
<path d="M369.071 195.341C369.117 195.341 369.162 195.328 369.201 195.305C369.24 195.282 369.273 195.248 369.295 195.208L370.141 193.612C370.304 193.308 370.405 192.974 370.438 192.63C370.472 192.286 370.436 191.938 370.335 191.608L370.228 191.251C370.218 191.218 370.202 191.186 370.18 191.159C370.158 191.132 370.131 191.109 370.101 191.092C370.07 191.076 370.037 191.065 370.002 191.061C369.968 191.057 369.933 191.06 369.899 191.07C369.866 191.08 369.834 191.096 369.807 191.118C369.78 191.14 369.757 191.166 369.741 191.197C369.724 191.228 369.713 191.261 369.709 191.296C369.706 191.33 369.709 191.366 369.718 191.399L369.825 191.756C369.908 192.022 369.937 192.302 369.911 192.58C369.885 192.857 369.804 193.127 369.672 193.373L368.826 194.969C368.811 194.998 368.801 195.03 368.798 195.064C368.794 195.097 368.798 195.13 368.808 195.162C368.818 195.194 368.834 195.224 368.856 195.249C368.877 195.275 368.904 195.295 368.933 195.31C368.975 195.335 369.023 195.345 369.071 195.341Z" fill="#676F7C"/>
<path d="M370.131 197.039H370.192C370.875 196.832 371.501 196.471 372.021 195.983C372.064 195.935 372.088 195.873 372.087 195.809C372.086 195.744 372.06 195.683 372.016 195.636C371.971 195.59 371.911 195.562 371.847 195.558C371.783 195.554 371.719 195.575 371.67 195.616C371.213 196.042 370.666 196.359 370.07 196.544C370.037 196.552 370.006 196.566 369.978 196.586C369.951 196.606 369.928 196.631 369.91 196.66C369.893 196.689 369.881 196.721 369.876 196.755C369.871 196.788 369.873 196.822 369.881 196.855C369.897 196.909 369.931 196.955 369.976 196.988C370.021 197.021 370.075 197.039 370.131 197.039Z" fill="#676F7C"/>
<path d="M331.807 276.752H323.25V263.977H331.807V276.752Z" fill="#F2F3F5"/>
<path d="M331.802 274.228H325.319C324.896 274.226 324.478 274.313 324.092 274.485C323.705 274.656 323.359 274.907 323.077 275.222C320.605 278.032 315.483 279.439 312.375 280.113C311.24 280.332 310.207 280.913 309.43 281.769C308.653 282.625 308.173 283.709 308.063 284.86H331.802V274.228Z" fill="#818B9B"/>
<path d="M312.396 280.113C311.261 280.333 310.228 280.914 309.451 281.77C308.674 282.625 308.194 283.71 308.084 284.861H315.112C313.955 280.506 312.396 280.113 312.396 280.113Z" fill="#B3B9C3"/>
<path d="M307.442 286.804H332.439V285.687C332.439 285.43 332.337 285.183 332.155 285.002C331.974 284.82 331.727 284.718 331.47 284.718H308.41C308.153 284.718 307.907 284.82 307.725 285.002C307.544 285.183 307.442 285.43 307.442 285.687V286.804Z" fill="#9AA2AF"/>
<path d="M360.147 276.752H351.591V263.977H360.147V276.752Z" fill="#F2F3F5"/>
<path d="M360.153 274.228H353.665C353.242 274.226 352.824 274.314 352.438 274.485C352.051 274.656 351.706 274.908 351.423 275.222C348.951 278.032 343.834 279.439 340.721 280.113C339.586 280.332 338.553 280.913 337.776 281.769C336.999 282.625 336.519 283.709 336.409 284.86H360.153V274.228Z" fill="#B3B9C3"/>
<path d="M340.741 280.113C339.607 280.333 338.573 280.914 337.796 281.77C337.019 282.625 336.54 283.71 336.43 284.861H343.457C342.301 280.506 340.741 280.113 340.741 280.113Z" fill="#818B9B"/>
<path d="M360.789 286.809H335.818V285.483C335.818 285.283 335.897 285.091 336.039 284.95C336.18 284.808 336.372 284.729 336.572 284.729H360.035C360.235 284.729 360.427 284.808 360.568 284.95C360.71 285.091 360.789 285.283 360.789 285.483V286.809Z" fill="#9AA2AF"/>
<path d="M368.077 279.542L318.093 275.11L323.826 182.617L357.11 160.928L368.077 279.542Z" fill="#B3B9C3"/>
<path d="M318.093 275.11L318.343 270.806L367.751 275.492L368.077 279.541L318.093 275.11Z" fill="#F2F3F5"/>
<path d="M344.272 109.809L339.925 128.244C339.297 130.906 338.787 133.59 338.396 136.296L336.073 152.692L338.157 151.789L340.394 136.893C340.799 134.231 341.317 131.591 341.949 128.973L344.894 116.851L346.561 109.992L344.272 109.809Z" fill="#9AA2AF"/>
<path d="M339.09 78.0273L337.372 78.5424L338.264 84.4989L341.077 79.7306L339.09 78.0273Z" fill="#676F7C"/>
<path d="M342.091 105.428L351.234 107.223L355.709 106.137V90.3633L342.091 91.3271V105.428Z" fill="#F2F3F5"/>
<path d="M355.709 106.137L352.503 106.912C351.891 102.21 353.639 95.5548 354.307 90.4602L355.709 90.3633V106.137Z" fill="#B3B9C3"/>
<path d="M349.465 97.89L348.9 100.95C348.9 100.95 345.531 103.597 342.091 103.316V97.4922L349.465 97.89Z" fill="#9AA2AF"/>
<path d="M357.68 80.1178L356.33 87.9L353.639 87.5073L353.598 79.0928L357.68 80.1178Z" fill="#818B9B"/>
<path d="M356.596 91.3218C355.135 91.3218 353.951 90.1368 353.951 88.6751C353.951 87.2133 355.135 86.0283 356.596 86.0283C358.056 86.0283 359.241 87.2133 359.241 88.6751C359.241 90.1368 358.056 91.3218 356.596 91.3218Z" fill="#B3B9C3"/>
<path d="M338.264 84.4989C338.386 83.6676 338.463 82.8262 338.56 81.9898C338.787 80.0318 339.725 78.2255 341.196 76.9144C342.667 75.6033 344.568 74.8789 346.538 74.8789C348.508 74.8789 350.409 75.6033 351.88 76.9144C353.351 78.2255 354.289 80.0318 354.516 81.9898C354.613 82.8262 354.689 83.6676 354.817 84.4989C355.148 86.7019 355.709 90.6185 355.709 92.1025C355.709 94.5371 354.742 96.8719 353.022 98.5934C351.301 100.315 348.968 101.282 346.535 101.282C344.102 101.282 341.769 100.315 340.049 98.5934C338.328 96.8719 337.362 94.5371 337.362 92.1025C337.372 90.6032 337.928 86.7172 338.264 84.4989Z" fill="#F2F3F5"/>
<path d="M345.465 96.0644C348.716 96.0644 349.603 92.8771 349.608 92.8465C349.617 92.8144 349.62 92.7807 349.616 92.7475C349.612 92.7143 349.601 92.6822 349.585 92.6532C349.568 92.6242 349.546 92.5988 349.519 92.5786C349.493 92.5584 349.462 92.5437 349.43 92.5354C349.398 92.5255 349.364 92.5222 349.33 92.5259C349.297 92.5296 349.265 92.5401 349.235 92.5569C349.206 92.5736 349.181 92.5962 349.161 92.6232C349.141 92.6503 349.126 92.6811 349.119 92.7139C349.083 92.8465 348.212 95.9267 344.869 95.5188C344.835 95.5147 344.801 95.5174 344.769 95.5265C344.736 95.5356 344.706 95.551 344.679 95.5718C344.653 95.5926 344.631 95.6185 344.614 95.6479C344.598 95.6773 344.587 95.7097 344.583 95.7431C344.579 95.7766 344.582 95.8106 344.591 95.8431C344.6 95.8755 344.615 95.9059 344.636 95.9324C344.657 95.9589 344.683 95.9811 344.712 95.9976C344.742 96.0141 344.774 96.0247 344.807 96.0287C345.026 96.0552 345.245 96.0672 345.465 96.0644Z" fill="#676F7C"/>
<path d="M339.732 78.6598C340.021 78.6195 340.312 78.5939 340.603 78.5833C341.836 76.7271 344.976 73.81 351.596 76.8086L351.937 76.9718C353.376 78.2765 354.293 80.0598 354.516 81.9899C354.613 82.8263 354.689 83.6677 354.817 84.499C355.148 86.7021 355.709 90.6186 355.709 92.1026C355.708 94.0285 355.101 95.9054 353.976 97.4675C355.27 90.0373 356.779 83.1527 351.071 84.3613C343.987 85.8555 341.388 83.2955 340.455 81.4647C340.17 81.7381 339.841 81.9621 339.482 82.1276C339.192 82.2602 338.855 82.4132 338.493 82.5968C338.493 82.3928 338.539 82.1939 338.56 81.995C338.699 80.8102 339.099 79.671 339.732 78.6598Z" fill="#B3B9C3"/>
<path d="M346.54 101.532C347.925 101.533 349.294 101.227 350.547 100.638C351.801 100.048 352.909 99.1883 353.792 98.1204C353.814 98.0952 353.831 98.0658 353.841 98.034C353.851 98.0023 353.855 97.9688 353.852 97.9355C353.849 97.9022 353.84 97.8698 353.824 97.8403C353.809 97.8107 353.787 97.7846 353.762 97.7634C353.709 97.7203 353.642 97.6993 353.575 97.705C353.507 97.7107 353.444 97.7427 353.4 97.794C352.178 99.2702 350.513 100.313 348.652 100.768C346.792 101.222 344.834 101.065 343.07 100.318C343.007 100.293 342.936 100.293 342.873 100.319C342.811 100.344 342.76 100.394 342.733 100.456C342.709 100.518 342.71 100.588 342.736 100.649C342.761 100.711 342.81 100.761 342.871 100.788C344.031 101.282 345.279 101.535 346.54 101.532Z" fill="#676F7C"/>
<path d="M355.108 90.1842C355.168 90.1849 355.227 90.1635 355.273 90.1241C355.319 90.0847 355.349 90.03 355.357 89.9701L355.531 88.7869C355.587 88.4024 355.794 88.0561 356.105 87.8238C356.417 87.5915 356.807 87.4922 357.192 87.5477C357.225 87.5524 357.259 87.5504 357.292 87.5419C357.325 87.5335 357.356 87.5186 357.383 87.4983C357.409 87.4779 357.432 87.4524 357.449 87.4233C357.466 87.3941 357.478 87.3619 357.482 87.3284C357.487 87.2949 357.485 87.2608 357.477 87.2281C357.468 87.1954 357.453 87.1646 357.433 87.1376C357.413 87.1107 357.387 87.0879 357.358 87.0708C357.329 87.0537 357.297 87.0424 357.263 87.0377C356.746 86.9633 356.22 87.0969 355.801 87.4094C355.381 87.7219 355.103 88.1879 355.026 88.7053L354.853 89.8885C354.848 89.922 354.849 89.9562 354.858 89.989C354.866 90.0219 354.881 90.0528 354.901 90.0798C354.922 90.1069 354.947 90.1296 354.977 90.1467C355.006 90.1637 355.038 90.1748 355.072 90.1791L355.108 90.1842Z" fill="#676F7C"/>
<path d="M355.275 89.0063L357.155 88.838C357.189 88.8354 357.221 88.8262 357.251 88.8109C357.281 88.7956 357.307 88.7745 357.328 88.7488C357.35 88.7231 357.366 88.6934 357.375 88.6614C357.385 88.6295 357.388 88.5958 357.385 88.5626C357.382 88.5291 357.373 88.4964 357.358 88.4664C357.343 88.4365 357.322 88.4098 357.296 88.388C357.27 88.3662 357.241 88.3497 357.209 88.3394C357.177 88.3291 357.143 88.3252 357.11 88.328L355.229 88.5014C355.196 88.504 355.163 88.5132 355.134 88.5285C355.104 88.5438 355.078 88.5649 355.056 88.5906C355.035 88.6163 355.019 88.646 355.009 88.678C354.999 88.7099 354.996 88.7436 355 88.7768C355.006 88.8436 355.039 88.9051 355.09 88.9481C355.142 88.9911 355.208 89.012 355.275 89.0063Z" fill="#676F7C"/>
<path d="M352.646 81.4999L350.067 82.3617C350.067 82.3617 353.313 86.5792 356.692 85.9315L357.141 83.7335L355.658 80.791L352.646 81.4999Z" fill="#818B9B"/>
<path d="M343.253 92.3726C343.294 92.372 343.334 92.362 343.37 92.3435C343.406 92.3249 343.438 92.2982 343.462 92.2655C343.501 92.2103 343.516 92.1423 343.506 92.0757C343.496 92.0091 343.46 91.9491 343.406 91.9085L342.387 91.1997C342.135 91.0226 341.942 90.7736 341.834 90.4852C341.726 90.1967 341.707 89.8823 341.78 89.583L343.182 83.7031C343.189 83.6696 343.19 83.6349 343.185 83.6011C343.179 83.5672 343.167 83.5347 343.149 83.5056C343.13 83.4765 343.107 83.4512 343.079 83.4313C343.051 83.4114 343.019 83.3972 342.985 83.3895C342.952 83.3818 342.917 83.3807 342.884 83.3864C342.85 83.3921 342.817 83.4045 342.788 83.4227C342.759 83.4409 342.734 83.4647 342.714 83.4927C342.694 83.5207 342.68 83.5523 342.672 83.5858L341.271 89.4658C341.174 89.8626 341.198 90.2795 341.341 90.6623C341.484 91.0451 341.738 91.3762 342.071 91.6127L343.09 92.3216C343.136 92.3585 343.194 92.3767 343.253 92.3726Z" fill="#676F7C"/>
<path d="M346.097 87.3492C345.472 87.3492 344.966 86.8424 344.966 86.2171C344.966 85.5918 345.472 85.085 346.097 85.085C346.722 85.085 347.228 85.5918 347.228 86.2171C347.228 86.8424 346.722 87.3492 346.097 87.3492Z" fill="#676F7C"/>
<path d="M340.221 87.3492C339.596 87.3492 339.089 86.8424 339.089 86.2171C339.089 85.5918 339.596 85.085 340.221 85.085C340.845 85.085 341.352 85.5918 341.352 86.2171C341.352 86.8424 340.845 87.3492 340.221 87.3492Z" fill="#676F7C"/>
<path d="M345.735 84.4227H347.085C347.356 84.4227 347.615 84.3152 347.806 84.124C347.997 83.9327 348.105 83.6733 348.105 83.4027C348.105 83.1322 347.997 82.8728 347.806 82.6815C347.615 82.4903 347.356 82.3828 347.085 82.3828H345.735C345.465 82.3828 345.205 82.4903 345.014 82.6815C344.823 82.8728 344.716 83.1322 344.716 83.4027C344.716 83.6733 344.823 83.9327 345.014 84.124C345.205 84.3152 345.465 84.4227 345.735 84.4227Z" fill="#676F7C"/>
<path d="M340.002 82.9891H341.347C341.618 82.9891 341.877 82.8816 342.068 82.6904C342.259 82.4991 342.367 82.2397 342.367 81.9692C342.367 81.6987 342.259 81.4392 342.068 81.248C341.877 81.0567 341.618 80.9492 341.347 80.9492H340.002C339.732 80.9492 339.472 81.0567 339.281 81.248C339.09 81.4392 338.983 81.6987 338.983 81.9692C338.983 82.2397 339.09 82.4991 339.281 82.6904C339.472 82.8816 339.732 82.9891 340.002 82.9891Z" fill="#676F7C"/>
<path d="M346.245 111.593C341.877 110.716 341.342 107.982 341.444 106.32L342.091 101.276C342.091 103.316 342.601 104.204 346.484 104.984C353.109 106.315 355.709 102.378 355.709 102.378V108.916C355.709 108.916 353.053 112.955 346.245 111.593Z" fill="#9AA2AF"/>
<path d="M341.526 77.4714C341.526 77.4714 342.152 84.1877 352.666 81.9694C362.349 79.9295 351.203 101.277 355.724 108.916L361.33 111.231L370.105 114.862C370.105 114.862 358.058 108.391 359.913 99.2726C362.018 88.8488 363.129 78.9044 353.232 74.4167C344.013 70.2604 341.526 77.4714 341.526 77.4714Z" fill="#F2F3F5"/>
<path d="M360.372 81.9692C358.807 80.1341 357.61 78.0149 356.845 75.7272C356.014 73.1264 352.345 71.0049 347.244 71.0049C336.226 71.0049 336.608 83.0504 336.608 83.0504L336.837 82.5149C337.102 81.8947 337.486 81.3327 337.968 80.861C338.45 80.3894 339.02 80.0174 339.645 79.7662L343.07 78.3943L350.561 80.526L360.372 81.9692Z" fill="#F2F3F5"/>
<path d="M343.065 77.4712C342.903 77.9625 342.643 78.4159 342.302 78.8041C341.96 79.1923 341.544 79.5074 341.077 79.7304C339.518 80.4444 336.491 81.8264 336.766 83.9479C336.766 83.9479 333.866 81.6224 336.394 78.8482C337.261 77.9151 338.33 77.1935 339.519 76.739C340.708 76.2846 341.986 76.1094 343.253 76.2269L343.065 77.4712Z" fill="#F2F3F5"/>
<path d="M337.48 77.8847C339.148 76.9191 341.046 76.4206 342.973 76.4415C351.637 76.4415 356.122 77.7062 359.281 79.6135C359.34 79.0755 359.242 78.532 359 78.0481C358.758 77.5642 358.381 77.1604 357.916 76.8851C356.244 75.7632 352.819 73.5448 343.228 73.9885C337.179 74.269 337.373 77.4563 337.48 77.8847Z" fill="#676F7C"/>
<path d="M338.595 75.498C340.091 74.6286 341.793 74.1794 343.523 74.1975C351.326 74.1975 355.326 75.3348 358.18 77.0483C358.231 76.5653 358.143 76.0779 357.926 75.6433C357.709 75.2088 357.373 74.8452 356.957 74.5953C355.453 73.5754 352.37 71.5967 343.768 71.9945C338.325 72.2597 338.493 75.1206 338.595 75.498Z" fill="#676F7C"/>
<path d="M353.314 78.6953L359.297 79.6133C359.297 79.6133 367.451 82.6119 360.316 96.8706L358.93 83.0505L353.314 78.6953Z" fill="#F2F3F5"/>
<path d="M358.277 93.6172L361.605 94.0507C360.522 96.3744 359.846 98.867 359.607 101.42C359.311 105.357 357.981 95.4378 357.981 95.4378L358.277 93.6172Z" fill="#F2F3F5"/>
<path d="M329.422 126.291V128.479C331.538 129.269 333.79 129.629 336.047 129.54L336.389 127.347C334.427 127.403 331.715 127.255 329.422 126.291Z" fill="#9AA2AF"/>
<path d="M337.322 144.099L339.314 144.17L338.168 151.789L336.078 152.692L337.322 144.099Z" fill="#818B9B"/>
<path d="M330.655 126.138L330.294 131.594C330.289 131.644 330.296 131.695 330.312 131.742C330.328 131.79 330.354 131.833 330.388 131.87C330.422 131.907 330.464 131.937 330.51 131.957C330.556 131.977 330.605 131.987 330.655 131.987C330.748 131.987 330.837 131.952 330.904 131.888C330.972 131.825 331.012 131.738 331.017 131.645L331.323 126.291L330.655 126.138Z" fill="#818B9B"/>
<path d="M330.212 126.587L330.237 126.138C330.244 126.024 330.276 125.914 330.331 125.814C330.386 125.714 330.462 125.627 330.554 125.561C330.646 125.494 330.752 125.448 330.864 125.427C330.975 125.406 331.091 125.41 331.201 125.439C331.378 125.484 331.534 125.59 331.64 125.74C331.746 125.89 331.794 126.073 331.776 126.255L331.71 126.984C331.71 126.984 330.37 126.638 330.212 126.587Z" fill="#818B9B"/>
<path d="M330.624 125.653V125.372C330.633 125.303 330.656 125.235 330.691 125.175C330.727 125.114 330.775 125.062 330.832 125.02C330.889 124.979 330.953 124.95 331.022 124.935C331.091 124.921 331.162 124.92 331.231 124.934C331.342 124.962 331.439 125.028 331.504 125.122C331.57 125.216 331.599 125.33 331.587 125.444L331.547 125.903C331.547 125.903 330.721 125.689 330.624 125.653Z" fill="#818B9B"/>
<path d="M339.772 94.9678C339.671 94.6762 339.633 94.3662 339.661 94.0587C339.689 93.7511 339.782 93.4531 339.935 93.1846C340.087 92.9162 340.295 92.6834 340.545 92.5019C340.795 92.3204 341.08 92.1945 341.383 92.1324L344.588 91.3981C345.23 91.2624 345.9 91.3657 346.471 91.6887C347.043 92.0116 347.477 92.532 347.692 93.1523L339.772 94.9678Z" fill="#676F7C"/>
<path d="M354.975 116.473L361.091 110.502L359.266 109.747L359.776 108.329L363.853 109.349C365.861 109.854 367.709 110.855 369.229 112.261C370.749 113.667 371.892 115.433 372.552 117.396C372.614 117.58 372.601 117.781 372.516 117.956C372.432 118.131 372.281 118.265 372.099 118.33L361.31 122.057C358.966 122.869 356.811 124.146 354.972 125.811C353.133 127.476 351.649 129.495 350.608 131.747L350.404 128.243C350.279 126.068 350.623 123.892 351.412 121.861C352.2 119.831 353.416 117.993 354.975 116.473Z" fill="#F2F3F5"/>
<path d="M308.935 136.373L322.563 164.1L316.172 165.538L306.56 152.595C305.314 150.921 304.603 148.908 304.521 146.822C304.439 144.736 304.99 142.674 306.102 140.907L308.935 136.373Z" fill="#B3B9C3"/>
<path d="M319.678 180.577C319.855 180.691 320.052 180.77 320.259 180.812L323 173.351C323.036 173.234 321.104 172.785 321.104 172.79L319.066 178.512C318.917 178.874 318.897 179.277 319.008 179.652C319.119 180.028 319.356 180.354 319.678 180.577Z" fill="#F2F3F5"/>
<path d="M317.527 178.053C317.735 178.091 317.947 178.091 318.154 178.053L318.042 170.108C318.042 169.985 316.075 170.261 316.075 170.261L316.192 176.344C316.187 176.739 316.316 177.123 316.559 177.434C316.802 177.745 317.143 177.963 317.527 178.053Z" fill="#F2F3F5"/>
<path d="M317.018 180.617C317.178 180.754 317.36 180.861 317.558 180.934L321.385 173.967C321.436 173.855 319.596 173.126 319.596 173.126L316.697 178.476C316.497 178.816 316.421 179.214 316.479 179.603C316.537 179.993 316.727 180.351 317.018 180.617Z" fill="#F2F3F5"/>
<path d="M313.435 180.746C313.548 180.923 313.693 181.079 313.863 181.205L319.504 175.595C319.586 175.503 318.026 174.279 318.026 174.284L313.735 178.588C313.444 178.858 313.255 179.22 313.2 179.613C313.145 180.006 313.228 180.407 313.435 180.746Z" fill="#F2F3F5"/>
<path d="M311.442 175.809C311.407 176.016 311.407 176.229 311.442 176.436L316.345 176.298L316.009 174.355L313.124 174.452C312.731 174.452 312.35 174.586 312.043 174.833C311.737 175.08 311.525 175.424 311.442 175.809Z" fill="#F2F3F5"/>
<path d="M324.367 176.527C324.578 176.517 324.785 176.469 324.978 176.385L323.755 171.637L321.936 172.397L322.67 175.186C322.756 175.57 322.972 175.913 323.281 176.158C323.59 176.402 323.973 176.532 324.367 176.527Z" fill="#F2F3F5"/>
<path d="M322.537 164.095L323.888 169.378C324.178 170.546 324.026 171.78 323.459 172.841L322.583 174.483L314.103 175.396L314.495 172.127C314.608 171.215 315.033 170.37 315.698 169.735C315.857 169.589 315.984 169.412 316.071 169.214C316.159 169.017 316.205 168.804 316.207 168.588V165.528C317.112 164.876 318.139 164.413 319.226 164.167C320.314 163.92 321.44 163.896 322.537 164.095Z" fill="#F2F3F5"/>
<path d="M314.48 147.913C314.533 147.914 314.586 147.896 314.628 147.862C314.681 147.823 314.717 147.764 314.727 147.698C314.738 147.632 314.722 147.565 314.684 147.51C314.684 147.485 313.027 145.16 313.771 142.895C313.789 142.832 313.782 142.764 313.751 142.706C313.72 142.647 313.668 142.603 313.605 142.583C313.543 142.562 313.475 142.567 313.415 142.596C313.356 142.625 313.31 142.675 313.287 142.737C312.462 145.251 314.199 147.704 314.271 147.806C314.294 147.84 314.325 147.867 314.362 147.886C314.398 147.905 314.439 147.914 314.48 147.913Z" fill="#676F7C"/>
<path d="M315.137 180.194C315.17 180.195 315.204 180.188 315.234 180.175C315.265 180.162 315.293 180.142 315.315 180.118L319.224 176.247C319.248 176.223 319.267 176.195 319.28 176.164C319.293 176.133 319.3 176.1 319.3 176.066C319.3 176.032 319.293 175.999 319.28 175.968C319.267 175.937 319.248 175.909 319.224 175.885C319.201 175.86 319.174 175.841 319.143 175.828C319.112 175.814 319.079 175.808 319.046 175.808C319.012 175.808 318.979 175.814 318.949 175.828C318.918 175.841 318.89 175.86 318.867 175.885L314.959 179.756C314.935 179.779 314.916 179.807 314.903 179.839C314.89 179.87 314.883 179.903 314.883 179.937C314.883 179.97 314.89 180.004 314.903 180.035C314.916 180.066 314.935 180.094 314.959 180.118C314.982 180.142 315.009 180.161 315.04 180.174C315.071 180.187 315.104 180.194 315.137 180.194Z" fill="#676F7C"/>
<path d="M318.501 179.475C318.547 179.474 318.591 179.461 318.63 179.438C318.669 179.415 318.702 179.382 318.725 179.343L321.61 174.09C321.642 174.03 321.65 173.96 321.631 173.895C321.612 173.83 321.567 173.776 321.508 173.743C321.448 173.711 321.379 173.703 321.314 173.722C321.249 173.741 321.194 173.786 321.161 173.845L318.282 179.093C318.266 179.122 318.256 179.155 318.252 179.188C318.248 179.221 318.251 179.255 318.261 179.287C318.27 179.32 318.286 179.35 318.307 179.376C318.328 179.402 318.354 179.423 318.384 179.44C318.419 179.463 318.459 179.475 318.501 179.475Z" fill="#676F7C"/>
<path d="M321.849 176.691C321.9 176.691 321.951 176.675 321.993 176.646C322.036 176.617 322.069 176.576 322.088 176.528L323.974 171.729C323.986 171.698 323.992 171.665 323.992 171.631C323.991 171.598 323.984 171.564 323.971 171.534C323.958 171.503 323.939 171.475 323.915 171.452C323.891 171.428 323.862 171.41 323.831 171.398C323.768 171.374 323.698 171.375 323.637 171.402C323.575 171.429 323.526 171.478 323.5 171.54L321.614 176.344C321.602 176.375 321.596 176.408 321.596 176.441C321.597 176.474 321.604 176.507 321.617 176.537C321.631 176.568 321.65 176.595 321.674 176.618C321.698 176.641 321.726 176.659 321.757 176.671C321.785 176.685 321.817 176.692 321.849 176.691Z" fill="#676F7C"/>
<path d="M356.723 176.736C356.756 176.737 356.789 176.73 356.82 176.717C356.851 176.704 356.879 176.684 356.901 176.66C356.926 176.637 356.945 176.609 356.958 176.579C356.972 176.548 356.979 176.515 356.979 176.481C356.979 176.448 356.972 176.415 356.958 176.384C356.945 176.353 356.926 176.326 356.901 176.303C354.639 174.018 362.405 149.866 365.59 140.758C365.613 140.69 365.607 140.617 365.575 140.553C365.543 140.489 365.487 140.441 365.42 140.419C365.352 140.396 365.278 140.402 365.215 140.434C365.151 140.466 365.103 140.522 365.081 140.59C365.081 140.671 362.176 148.923 359.689 157.419C354.593 174.758 356.045 176.186 356.519 176.66C356.545 176.688 356.576 176.709 356.612 176.723C356.647 176.736 356.685 176.741 356.723 176.736Z" fill="#676F7C"/>
<path d="M375.054 197.131C374.01 197.131 373.163 196.284 373.163 195.239C373.163 194.194 374.01 193.347 375.054 193.347C376.098 193.347 376.945 194.194 376.945 195.239C376.945 196.284 376.098 197.131 375.054 197.131Z" fill="#519BC6"/>
<path d="M368.225 195.646C368.308 195.65 368.391 195.635 368.467 195.604C368.544 195.572 368.613 195.524 368.669 195.462C368.767 195.314 368.83 195.145 368.853 194.968C368.876 194.791 368.858 194.611 368.801 194.443C368.743 194.256 368.73 194.058 368.762 193.865C368.794 193.672 368.87 193.489 368.985 193.331C369.204 193.152 369.601 193.29 369.897 193.433C369.926 193.448 369.959 193.458 369.992 193.461C370.026 193.464 370.059 193.46 370.091 193.449C370.123 193.439 370.153 193.422 370.178 193.4C370.203 193.378 370.224 193.351 370.238 193.321C370.268 193.26 370.274 193.191 370.253 193.127C370.232 193.063 370.186 193.009 370.126 192.979C369.504 192.673 369.01 192.653 368.663 192.933C368.195 193.31 368.195 194.116 368.307 194.565C368.365 194.73 368.365 194.91 368.307 195.075C368.307 195.106 368.2 195.075 368.169 195.075C368.102 195.064 368.034 195.08 367.979 195.119C367.924 195.159 367.886 195.218 367.874 195.284C367.863 195.351 367.879 195.419 367.918 195.474C367.957 195.529 368.016 195.567 368.082 195.58L368.225 195.646Z" fill="#676F7C"/>
<path d="M366.365 195.637C366.388 195.454 366.455 195.279 366.559 195.127C366.699 195.024 366.847 194.932 367.002 194.852H367.792C368.002 194.852 368.202 194.935 368.351 195.083C368.499 195.231 368.582 195.432 368.582 195.642C368.969 195.654 369.336 195.816 369.607 196.094C369.877 196.372 370.028 196.744 370.029 197.131V201.303C370.029 201.699 369.872 202.079 369.592 202.359C369.312 202.639 368.932 202.797 368.536 202.797H367.053C366.657 202.797 366.277 202.639 365.997 202.359C365.717 202.079 365.56 201.699 365.56 201.303V197.126C365.56 196.315 365.56 195.662 366.365 195.637ZM367.532 195.244C367.468 195.286 367.415 195.344 367.378 195.411C367.342 195.479 367.323 195.555 367.323 195.632H367.624C367.624 195.632 367.603 195.193 367.532 195.244Z" fill="#A8C5D6"/>
<path d="M366.186 195.636C366.178 195.527 366.191 195.418 366.227 195.315C366.263 195.212 366.319 195.117 366.393 195.037C366.467 194.956 366.557 194.892 366.657 194.849C366.757 194.805 366.865 194.782 366.974 194.782C367.083 194.782 367.191 194.805 367.291 194.849C367.391 194.892 367.48 194.956 367.554 195.037C367.628 195.117 367.685 195.212 367.72 195.315C367.756 195.418 367.77 195.527 367.761 195.636C368.155 195.637 368.532 195.795 368.81 196.074C369.088 196.353 369.244 196.731 369.244 197.125V201.297C369.244 201.693 369.087 202.073 368.807 202.353C368.527 202.634 368.147 202.791 367.751 202.791H366.268C365.872 202.791 365.492 202.634 365.212 202.353C364.932 202.073 364.775 201.693 364.775 201.297V197.125C364.774 196.743 364.92 196.376 365.183 196.098C365.446 195.821 365.805 195.656 366.186 195.636ZM366.976 195.162C366.852 195.162 366.733 195.211 366.645 195.299C366.557 195.387 366.507 195.507 366.507 195.631H367.445C367.445 195.511 367.399 195.395 367.317 195.308C367.234 195.221 367.122 195.168 367.002 195.162H366.976Z" fill="#519BC6"/>
<path d="M367.904 198.115C367.468 198.115 367.114 197.761 367.114 197.325C367.114 196.888 367.468 196.534 367.904 196.534C368.34 196.534 368.694 196.888 368.694 197.325C368.694 197.761 368.34 198.115 367.904 198.115Z" fill="#A8C5D6"/>
<path d="M366.095 198.115C365.659 198.115 365.305 197.761 365.305 197.325C365.305 196.888 365.659 196.534 366.095 196.534C366.531 196.534 366.885 196.888 366.885 197.325C366.885 197.761 366.531 198.115 366.095 198.115Z" fill="#A8C5D6"/>
<path d="M366.095 198.4H367.904C368.114 198.4 368.315 198.484 368.463 198.632C368.611 198.78 368.694 198.981 368.694 199.191C368.694 199.4 368.611 199.602 368.463 199.75C368.315 199.898 368.114 199.981 367.904 199.981H366.095C365.885 199.981 365.684 199.898 365.536 199.75C365.388 199.602 365.305 199.4 365.305 199.191C365.305 198.981 365.388 198.78 365.536 198.632C365.684 198.484 365.885 198.4 366.095 198.4Z" fill="#A8C5D6"/>
<path d="M366.095 200.379H367.904C368.114 200.379 368.315 200.462 368.463 200.61C368.611 200.759 368.694 200.96 368.694 201.169C368.694 201.379 368.611 201.58 368.463 201.728C368.315 201.877 368.114 201.96 367.904 201.96H366.095C365.885 201.96 365.684 201.877 365.536 201.728C365.388 201.58 365.305 201.379 365.305 201.169C365.305 200.96 365.388 200.759 365.536 200.61C365.684 200.462 365.885 200.379 366.095 200.379Z" fill="#A8C5D6"/>
<path d="M366.436 200.68H367.563C367.638 200.659 367.718 200.657 367.794 200.672C367.871 200.687 367.944 200.719 368.006 200.767C368.068 200.815 368.118 200.876 368.153 200.946C368.188 201.016 368.206 201.094 368.206 201.172C368.206 201.25 368.188 201.328 368.153 201.398C368.118 201.468 368.068 201.53 368.006 201.577C367.944 201.625 367.871 201.657 367.794 201.672C367.718 201.688 367.638 201.685 367.563 201.664H366.436C366.361 201.685 366.281 201.688 366.205 201.672C366.128 201.657 366.055 201.625 365.993 201.577C365.931 201.53 365.881 201.468 365.846 201.398C365.811 201.328 365.793 201.25 365.793 201.172C365.793 201.094 365.811 201.016 365.846 200.946C365.881 200.876 365.931 200.815 365.993 200.767C366.055 200.719 366.128 200.687 366.205 200.672C366.281 200.657 366.361 200.659 366.436 200.68Z" fill="#519BC6"/>
<path d="M331.19 122.848V192.791C331.19 192.964 330.987 212.633 321.324 233.899C308.991 261.03 287.429 278.384 257.208 285.508H249.054C246.649 284.544 236.864 278.613 234.596 277.491C216 268.266 202.087 253.691 193.097 233.899C183.414 212.633 183.231 192.964 183.231 192.77V122.848C211.321 119.278 230.167 112.572 242.643 105.876C244.401 104.933 249.054 95.9932 249.054 95.9932H257.208C267.319 104.851 288.662 117.448 331.19 122.848Z" fill="#A8C5D6"/>
<path d="M305.368 192.791H331.19C331.19 192.964 330.987 212.634 321.324 233.9L293.656 223.297L305.368 192.791Z" fill="#519BC6"/>
<path d="M275.193 126.296L263.955 112.526H286.644C297.983 116.739 312.548 120.487 331.19 122.853H318.959L275.193 126.296Z" fill="#519BC6"/>
<path d="M323.031 122.848V192.791C323.031 192.964 322.832 212.633 313.165 233.899C300.837 261.03 279.274 278.384 249.054 285.508C218.833 278.369 197.27 261.03 184.937 233.899C175.255 212.633 175.076 192.964 175.071 192.77V122.848C217.599 117.448 238.943 104.851 249.054 95.9932C259.165 104.851 280.503 117.448 323.031 122.848Z" fill="#519BC6"/>
<path d="M249.054 285.764H249.11C279.407 278.624 301.035 261.214 313.399 234.012C323.082 212.746 323.286 193 323.286 192.801V122.849C323.286 122.788 323.264 122.728 323.224 122.682C323.183 122.636 323.127 122.606 323.067 122.599C281.247 117.285 259.827 105.092 249.222 95.8001C249.175 95.7602 249.115 95.7383 249.054 95.7383C248.992 95.7383 248.932 95.7602 248.885 95.8001C238.27 105.076 216.866 117.285 175.041 122.599C174.979 122.606 174.923 122.636 174.881 122.682C174.84 122.728 174.817 122.787 174.816 122.849V192.791C174.816 192.99 175.03 212.731 184.708 234.022C197.067 261.204 218.7 278.614 248.972 285.754L249.054 285.764ZM322.776 123.083V192.791C322.776 192.985 322.557 212.624 312.935 233.793C300.653 260.821 279.157 278.16 249.054 285.244C218.95 278.135 197.454 260.821 185.172 233.793C175.54 212.593 175.331 192.965 175.326 192.771V123.073C216.906 117.759 238.356 105.632 249.054 96.3304C259.751 105.632 281.201 117.759 322.776 123.073V123.083Z" fill="white"/>
<path d="M249.054 272.622H249.12C261.086 269.434 271.473 264.34 279.994 257.481C289.167 250.117 296.48 240.442 301.8 228.734C310.041 210.604 310.53 193.433 310.546 192.709V133.854C310.546 133.794 310.526 133.736 310.488 133.69C310.449 133.644 310.396 133.614 310.337 133.604C285.013 129.32 264.47 121.982 249.182 111.777C249.139 111.75 249.089 111.735 249.039 111.735C248.988 111.735 248.939 111.75 248.896 111.777C233.648 121.976 213.08 129.32 187.741 133.604C187.682 133.613 187.628 133.644 187.588 133.69C187.549 133.735 187.527 133.793 187.527 133.854V192.674C188.211 205.125 191.177 217.345 196.277 228.723C201.598 240.453 208.936 250.106 218.084 257.47C226.605 264.329 236.996 269.424 248.957 272.611L249.054 272.622ZM310.036 134.068V192.714C310.036 193.428 309.526 210.497 301.337 228.535C296.052 240.172 288.759 249.78 279.673 257.093C271.223 263.896 260.923 268.95 249.054 272.122C237.185 268.95 226.885 263.896 218.436 257.093C209.344 249.78 202.056 240.172 196.772 228.535C191.698 217.22 188.747 205.067 188.067 192.684V134.068C213.289 129.784 233.801 122.461 249.054 112.297C264.307 122.461 284.82 129.784 310.036 134.068Z" fill="white"/>
<g opacity="0.32">
<path opacity="0.7" d="M310.29 133.854C309.302 133.685 308.328 133.517 307.36 133.344L318.465 122.231C319.958 122.451 321.482 122.655 323.051 122.854V150.463L310.311 163.146L310.29 133.854Z" fill="#A8C5D6"/>
<path opacity="0.7" d="M216.901 256.129L207.84 265.151C202.079 260.13 197.011 254.365 192.771 248.005L201.985 238.785C206.033 245.302 211.065 251.152 216.901 256.129Z" fill="#A8C5D6"/>
<path opacity="0.7" d="M259.165 117.927L268.669 108.416C273.248 110.555 277.946 112.428 282.74 114.026L272.746 123.97C268.111 122.209 263.577 120.191 259.165 117.927Z" fill="#A8C5D6"/>
<path opacity="0.7" d="M187.817 192.674C188.033 197.389 188.622 202.08 189.58 206.703L178.97 217.269C177.546 212.055 176.481 206.749 175.784 201.389L187.817 189.328V192.674Z" fill="#A8C5D6"/>
<path opacity="0.7" d="M189.917 133.487L206.735 116.658C222.243 112.364 233.235 107.065 240.88 102.113L215.495 127.362C207.105 129.935 198.562 131.98 189.917 133.487Z" fill="#A8C5D6"/>
<path opacity="0.7" d="M187.817 135.593V154.89L175.076 167.563V148.342L187.817 135.593Z" fill="#A8C5D6"/>
<path opacity="0.7" d="M301.571 228.621C303.95 223.337 305.86 217.854 307.279 212.236L322.817 196.687C322.444 201.075 321.813 205.438 320.927 209.752L301.229 229.34L301.571 228.621Z" fill="#A8C5D6"/>
<path opacity="0.7" d="M249.054 272.346C253.76 271.1 258.361 269.486 262.814 267.517L245.624 284.621C242.818 283.87 240.089 283.02 237.439 282.071L247.596 271.958L249.054 272.346Z" fill="#A8C5D6"/>
<path opacity="0.7" d="M310.291 133.854V156.583L213.431 252.967C207.904 247.581 203.221 241.392 199.539 234.608L301.805 132.268C304.537 132.839 307.365 133.367 310.291 133.854Z" fill="#A8C5D6"/>
<path opacity="0.7" d="M268.033 122.074L188.612 201.068C188.197 198.286 187.931 195.484 187.817 192.674V182.699L254.879 115.592C259.13 118.013 263.523 120.178 268.033 122.074Z" fill="#A8C5D6"/>
<path opacity="0.7" d="M206.23 129.983L187.817 148.302V133.854C194.442 132.727 200.594 131.422 206.23 129.983Z" fill="#A8C5D6"/>
<path opacity="0.7" d="M305.46 218.544L252.28 271.438C251.215 271.765 250.145 272.076 249.054 272.366C246.829 271.771 244.658 271.112 242.541 270.388L309.063 203.821C308.215 208.809 307.011 213.729 305.46 218.544Z" fill="#A8C5D6"/>
</g>
<path d="M249.054 285.764H249.11C279.407 278.624 301.035 261.214 313.399 234.012C323.082 212.746 323.286 193 323.286 192.801V122.849C323.286 122.788 323.264 122.728 323.224 122.682C323.183 122.636 323.127 122.606 323.067 122.599C281.247 117.285 259.827 105.092 249.222 95.8001C249.175 95.7602 249.115 95.7383 249.054 95.7383C248.992 95.7383 248.932 95.7602 248.885 95.8001C238.27 105.076 216.866 117.285 175.041 122.599C174.979 122.606 174.923 122.636 174.881 122.682C174.84 122.728 174.817 122.787 174.816 122.849V192.791C174.816 192.99 175.03 212.731 184.708 234.022C197.067 261.204 218.7 278.614 248.972 285.754L249.054 285.764ZM322.776 123.083V192.791C322.776 192.985 322.557 212.624 312.935 233.793C300.653 260.821 279.157 278.16 249.054 285.244C218.95 278.135 197.454 260.821 185.172 233.793C175.54 212.593 175.331 192.965 175.326 192.771V123.073C216.906 117.759 238.356 105.632 249.054 96.3304C259.751 105.632 281.201 117.759 322.776 123.073V123.083Z" fill="white"/>
<path d="M278.933 164.421C279.145 164.687 279.263 165.015 279.267 165.355C279.272 165.695 279.163 166.026 278.959 166.298C278.816 166.481 275.361 170.923 267.92 170.923C264.21 170.923 261.152 169.215 258.207 167.567C255.261 165.92 252.463 164.375 249.064 164.375C245.665 164.375 242.994 166.012 240.12 167.746C237.149 169.541 234.071 171.392 230.203 171.392C222.456 171.392 219.21 166.4 219.088 166.196C218.917 165.927 218.835 165.611 218.852 165.293C218.87 164.975 218.986 164.67 219.185 164.421C222.788 159.968 227.341 156.376 232.51 153.909C237.678 151.442 243.332 150.162 249.059 150.162C254.785 150.162 260.439 151.442 265.608 153.909C270.777 156.376 275.329 159.968 278.933 164.421Z" fill="white"/>
<path d="M285.084 174.794C287.138 180.144 287.971 185.886 287.522 191.6C287.073 197.314 285.354 202.855 282.49 207.818C279.626 212.782 275.69 217.042 270.969 220.287C266.248 223.533 260.862 225.682 255.205 226.576C254.871 226.626 254.53 226.565 254.235 226.4C253.94 226.236 253.708 225.979 253.574 225.669C253.482 225.449 251.367 220.222 255.103 213.771C256.953 210.568 259.955 208.773 262.849 207.039C265.744 205.305 268.491 203.674 270.193 200.716C271.875 197.809 271.814 194.642 271.747 191.281C271.676 187.798 271.61 184.198 273.546 180.852C277.414 174.131 283.367 173.83 283.616 173.82C283.932 173.811 284.242 173.9 284.505 174.074C284.767 174.249 284.97 174.5 285.084 174.794Z" fill="white"/>
<path d="M214.623 173.922C214.858 173.957 220.438 174.743 224.169 181.194C226.013 184.412 226.064 187.905 226.11 191.291C226.156 194.677 226.212 197.86 227.919 200.797C229.627 203.734 232.368 205.249 235.309 206.861C238.367 208.543 241.496 210.277 243.427 213.638C244.763 215.861 245.484 218.399 245.517 220.992C245.555 222.682 245.206 224.358 244.498 225.893C244.35 226.173 244.118 226.4 243.834 226.54C243.551 226.68 243.23 226.727 242.918 226.673C237.262 225.775 231.877 223.624 227.158 220.378C222.438 217.132 218.502 212.873 215.637 207.911C212.772 202.949 211.05 197.41 210.597 191.697C210.144 185.985 210.971 180.243 213.018 174.891C213.14 174.574 213.364 174.306 213.655 174.131C213.945 173.956 214.286 173.882 214.623 173.922Z" fill="white"/>
<path d="M566.872 272.311C574.19 247.567 542.639 232.808 524.731 250.892C514.121 261.601 566.153 253.263 556.277 284.04C553.729 291.929 565.756 276.089 566.872 272.311Z" fill="#F2F3F5"/>
<path d="M564.706 279.772C564.706 279.772 571.168 218.861 606.531 210.696C641.894 202.532 615.032 258.164 595.65 266.839" fill="white"/>
<path d="M564.706 280.026C564.769 280.027 564.831 280.003 564.878 279.961C564.925 279.918 564.954 279.86 564.961 279.797C566.336 269.074 568.893 258.537 572.585 248.378C578.068 233.619 588.419 215.143 606.577 210.951C615.47 208.911 620.933 210.701 622.819 216.316C627.405 229.957 609.089 260.54 595.533 266.614C595.502 266.627 595.475 266.647 595.451 266.671C595.428 266.695 595.41 266.724 595.398 266.755C595.386 266.787 595.381 266.82 595.382 266.854C595.383 266.887 595.392 266.92 595.406 266.951C595.434 267.012 595.485 267.06 595.548 267.084C595.611 267.108 595.681 267.106 595.742 267.078C602.429 264.085 610.394 255.385 616.525 244.369C622.87 232.976 625.403 222.441 623.298 216.153C620.836 208.794 612.779 209.013 606.48 210.451C588.103 214.694 577.656 233.328 572.126 248.189C568.424 258.387 565.86 268.963 564.482 279.725C564.475 279.792 564.494 279.859 564.536 279.912C564.578 279.964 564.639 279.998 564.706 280.006V280.026Z" fill="#676F7C"/>
<path d="M580.174 260.729C580.219 260.728 580.264 260.716 580.304 260.693C580.343 260.669 580.375 260.636 580.398 260.596C580.571 260.275 597.796 228.703 611.628 220.579C611.685 220.544 611.726 220.488 611.742 220.423C611.758 220.358 611.748 220.29 611.714 220.232C611.68 220.174 611.625 220.132 611.56 220.115C611.495 220.098 611.426 220.107 611.368 220.14C597.419 228.336 580.123 260.03 579.949 260.351C579.918 260.411 579.911 260.481 579.93 260.545C579.949 260.61 579.993 260.665 580.051 260.698C580.089 260.718 580.131 260.728 580.174 260.729Z" fill="#B3B9C3"/>
<path d="M559.844 279.486L554.595 286.116H574.797C574.797 286.116 585.351 269.725 595.692 273.076C606.032 276.426 605.288 264.136 605.288 264.136L583.884 259.883L568.865 269.44L559.844 279.486Z" fill="#A8C5D6"/>
<path d="M-0.153238 286.12H665.847V288.614H-0.153238V286.12Z" fill="#F2F3F5"/>
<path d="M593.572 251.947C576.754 257.516 563.504 271.229 553.551 286.115H555.671C555.671 286.115 585.321 246.389 597.328 276.548C608.208 303.873 620.72 301.537 626.698 297.733C642.955 287.339 637.966 237.26 593.572 251.947Z" fill="#519BC6"/>
<path d="M121.291 267.94C121.441 267.602 121.72 267.337 122.066 267.205C122.411 267.072 122.795 267.083 123.133 267.233C123.471 267.384 123.735 267.663 123.868 268.009C124 268.355 123.99 268.739 123.839 269.077C123.57 269.593 123.256 270.084 122.901 270.546C122.318 271.324 121.83 272.17 121.449 273.065C121.359 273.268 121.192 273.427 120.985 273.506C120.778 273.586 120.548 273.581 120.345 273.491C120.143 273.401 119.984 273.234 119.904 273.027C119.824 272.82 119.83 272.589 119.92 272.387C120.329 271.504 120.632 270.576 120.822 269.623C120.93 269.049 121.087 268.486 121.291 267.94Z" fill="#F2F3F5"/>
<path d="M119.752 275.829C119.189 275.829 118.733 275.372 118.733 274.809C118.733 274.246 119.189 273.789 119.752 273.789C120.315 273.789 120.771 274.246 120.771 274.809C120.771 275.372 120.315 275.829 119.752 275.829Z" fill="#F2F3F5"/>
<path d="M124.511 264.146C125.963 264.793 127.19 265.856 128.038 267.201C128.886 268.546 129.316 270.113 129.274 271.703C129.232 273.292 128.721 274.834 127.803 276.133C126.886 277.431 125.605 278.429 124.121 278.999C122.638 279.569 121.019 279.686 119.469 279.336C117.918 278.985 116.507 278.183 115.413 277.03C114.318 275.877 113.59 274.425 113.32 272.858C113.05 271.291 113.25 269.679 113.896 268.225C114.325 267.26 114.94 266.388 115.705 265.66C116.471 264.932 117.373 264.363 118.358 263.984C119.344 263.605 120.395 263.424 121.451 263.452C122.507 263.48 123.547 263.715 124.511 264.146ZM118.549 277.507C119.739 278.039 121.06 278.207 122.345 277.988C123.63 277.769 124.821 277.173 125.768 276.277C126.715 275.38 127.375 274.223 127.664 272.951C127.953 271.679 127.859 270.35 127.393 269.131C126.928 267.913 126.111 266.86 125.047 266.106C123.984 265.353 122.72 264.931 121.417 264.896C120.114 264.861 118.83 265.213 117.727 265.908C116.624 266.603 115.752 267.61 115.221 268.802C114.511 270.398 114.462 272.211 115.086 273.843C115.71 275.475 116.955 276.792 118.549 277.507Z" fill="#F2F3F5"/>
<path d="M154.595 262.351C154.706 262.485 154.8 262.632 154.875 262.789C155.035 263.115 155.113 263.475 155.105 263.838C155.097 264.201 155.003 264.556 154.829 264.875C156.129 266.589 157.617 268.419 159.248 270.179L156.246 271.867L153.367 268.414C152.94 267.876 152.331 267.513 151.654 267.394C152.419 268.414 153.494 269.863 155.252 272.428L151.767 274.381L148.607 267.848C148.377 267.95 148.154 268.068 147.939 268.2L151.068 274.774L147.465 276.813C146.528 273.698 146.054 271.867 145.722 270.582C145.393 271.243 145.299 271.997 145.457 272.718L146.405 277.405L143.083 279.266C142.711 276.645 142.191 274.136 141.64 271.892C141.263 271.858 140.902 271.724 140.592 271.506C140.283 271.288 140.036 270.992 139.877 270.648C139.797 270.486 139.737 270.315 139.699 270.138C134.393 273.131 130.062 269.878 127.325 262.998C123.533 253.477 129.43 244.578 135.764 241.967C141.829 239.473 151.502 241.335 156.017 249.423C159.233 255.201 159.324 260.107 154.595 262.351ZM141.1 259.633C141.1 256.42 141.38 255.078 140.397 254.604C137.966 253.441 132.859 259.148 135.087 263.452C137.314 267.756 141.131 265.62 141.1 259.633ZM145.238 259.898C145.102 259.824 144.95 259.784 144.795 259.781C144.64 259.779 144.487 259.813 144.348 259.881C144.209 259.949 144.088 260.05 143.996 260.174C143.903 260.299 143.842 260.443 143.816 260.596C143.582 261.805 143.404 263.493 144.209 263.615C145.473 263.799 145.121 262.825 145.641 262.565C146.161 262.305 146.691 263.177 147.307 262.055C147.695 261.336 146.309 260.448 145.238 259.898ZM152.327 255.038C150.477 250.887 143.317 250.999 142.711 253.508C142.466 254.528 143.694 255.165 146.135 257.169C150.579 260.831 154.213 259.265 152.327 255.038Z" fill="#F2F3F5"/>
<path d="M74.3899 251.957C66.1319 251.957 59.4375 245.258 59.4375 236.995C59.4375 228.731 66.1319 222.032 74.3899 222.032C82.6479 222.032 89.3423 228.731 89.3423 236.995C89.3423 245.258 82.6479 251.957 74.3899 251.957Z" fill="#F2F3F5"/>
<path d="M74.0327 228.953C74.3274 228.168 74.9216 227.532 75.6848 227.185C76.4479 226.838 77.3174 226.809 78.102 227.104C78.8867 227.399 79.5221 227.994 79.8686 228.757C80.215 229.521 80.2441 230.391 79.9494 231.176C79.4098 232.384 78.7634 233.541 78.018 234.634C76.8097 236.48 75.8227 238.462 75.0775 240.539V240.565C74.8851 241.011 74.5286 241.366 74.082 241.556C73.6354 241.746 73.1328 241.757 72.6783 241.587C72.2238 241.416 71.8521 241.077 71.6404 240.64C71.4286 240.203 71.3929 239.702 71.5406 239.239V239.208C72.3465 237.155 72.9059 235.014 73.2071 232.829C73.3704 231.515 73.6466 230.219 74.0327 228.953Z" fill="white"/>
<path d="M71.4905 247.041C70.2154 247.041 69.1818 246.007 69.1818 244.731C69.1818 243.455 70.2154 242.421 71.4905 242.421C72.7655 242.421 73.7991 243.455 73.7991 244.731C73.7991 246.007 72.7655 247.041 71.4905 247.041Z" fill="white"/>
<path d="M121.953 231.972C122.001 231.972 122.048 231.959 122.089 231.933C122.129 231.908 122.162 231.872 122.183 231.829C135.275 205.448 158.259 186.671 175.214 175.529C175.246 175.512 175.273 175.489 175.295 175.461C175.317 175.433 175.332 175.4 175.341 175.366C175.35 175.332 175.351 175.296 175.345 175.261C175.339 175.226 175.326 175.193 175.306 175.163C175.287 175.133 175.261 175.108 175.231 175.089C175.202 175.07 175.168 175.057 175.133 175.052C175.098 175.046 175.062 175.048 175.028 175.058C174.994 175.067 174.962 175.083 174.934 175.105C157.918 186.263 134.867 205.122 121.724 231.605C121.709 231.635 121.701 231.668 121.698 231.701C121.696 231.735 121.701 231.768 121.712 231.8C121.723 231.832 121.74 231.861 121.762 231.886C121.784 231.911 121.811 231.932 121.841 231.946C121.876 231.963 121.915 231.971 121.953 231.972Z" fill="#B3B9C3"/>
<path d="M175.076 175.574C175.128 175.574 175.177 175.558 175.219 175.528C181.174 171.623 187.33 168.034 193.663 164.778C193.723 164.747 193.768 164.693 193.789 164.629C193.809 164.564 193.803 164.494 193.772 164.434C193.741 164.374 193.687 164.329 193.623 164.308C193.558 164.287 193.488 164.293 193.428 164.324C187.078 167.587 180.906 171.186 174.939 175.105C174.883 175.143 174.844 175.201 174.831 175.266C174.817 175.332 174.831 175.401 174.868 175.457C174.889 175.493 174.92 175.523 174.957 175.543C174.993 175.564 175.034 175.574 175.076 175.574Z" fill="white"/>
<path d="M202.795 160.438C202.833 160.437 202.871 160.428 202.905 160.411C202.939 160.394 202.97 160.37 202.994 160.341C203.035 160.287 203.054 160.218 203.045 160.15C203.037 160.083 203.002 160.021 202.948 159.979C194.241 153.235 184.953 147.277 175.194 142.176C175.164 142.16 175.131 142.15 175.098 142.147C175.064 142.143 175.03 142.147 174.998 142.157C174.966 142.167 174.936 142.183 174.91 142.205C174.884 142.226 174.863 142.253 174.847 142.283C174.817 142.342 174.811 142.412 174.831 142.476C174.851 142.54 174.895 142.593 174.954 142.625C184.689 147.712 193.953 153.654 202.637 160.382C202.682 160.417 202.738 160.437 202.795 160.438Z" fill="white"/>
<path d="M175.076 142.655C175.123 142.655 175.17 142.642 175.21 142.618C175.25 142.594 175.283 142.559 175.306 142.518C175.336 142.458 175.342 142.389 175.322 142.325C175.302 142.261 175.258 142.207 175.199 142.176C105.543 105.672 71.082 59.9585 70.7252 59.4995C70.7052 59.4724 70.6799 59.4495 70.651 59.4322C70.6221 59.4148 70.5901 59.4033 70.5567 59.3983C70.5233 59.3933 70.4893 59.395 70.4565 59.4032C70.4238 59.4114 70.3931 59.4259 70.366 59.446C70.3389 59.4661 70.3159 59.4913 70.2986 59.5203C70.2812 59.5492 70.2698 59.5813 70.2648 59.6147C70.2598 59.6481 70.2615 59.6821 70.2697 59.7148C70.2778 59.7476 70.2924 59.7784 70.3125 59.8055C70.6539 60.2645 105.186 106.07 174.939 142.63C174.982 142.648 175.029 142.656 175.076 142.655Z" fill="#B3B9C3"/>
<path d="M128.813 244.333C128.872 244.333 128.929 244.313 128.974 244.276C129.02 244.239 129.051 244.187 129.063 244.129C129.114 243.874 134.434 218.406 148.153 203.704C148.177 203.68 148.196 203.652 148.209 203.621C148.222 203.59 148.229 203.557 148.229 203.523C148.229 203.489 148.222 203.456 148.209 203.425C148.196 203.394 148.177 203.366 148.153 203.342C148.105 203.295 148.04 203.269 147.972 203.269C147.905 203.269 147.84 203.295 147.792 203.342C133.97 218.131 128.624 243.757 128.574 244.012C128.566 244.045 128.565 244.079 128.571 244.112C128.578 244.145 128.59 244.177 128.609 244.205C128.627 244.233 128.651 244.257 128.68 244.276C128.708 244.294 128.739 244.307 128.772 244.313L128.813 244.333Z" fill="#B3B9C3"/>
<path d="M109.493 231.972C109.54 231.972 109.585 231.959 109.625 231.935C109.664 231.911 109.696 231.876 109.717 231.834C115.532 220.513 129.593 207.111 140.382 197.865C152.077 187.839 162.525 180.399 162.627 180.322C162.672 180.28 162.7 180.223 162.706 180.162C162.712 180.101 162.696 180.039 162.661 179.989C162.626 179.939 162.573 179.903 162.514 179.888C162.454 179.874 162.391 179.881 162.336 179.909C162.229 179.98 151.767 187.431 140.055 197.478C129.241 206.754 115.119 220.207 109.269 231.6C109.238 231.66 109.232 231.73 109.252 231.795C109.272 231.86 109.316 231.914 109.376 231.946C109.413 231.962 109.453 231.971 109.493 231.972Z" fill="#B3B9C3"/>
<path d="M204.187 159.893H204.233C204.266 159.887 204.298 159.875 204.326 159.857C204.355 159.839 204.379 159.816 204.399 159.789C204.418 159.761 204.432 159.73 204.439 159.697C204.447 159.664 204.447 159.63 204.442 159.597C203.621 154.956 206.256 154.339 206.281 154.334C206.314 154.327 206.345 154.314 206.373 154.296C206.401 154.277 206.424 154.253 206.443 154.225C206.461 154.197 206.474 154.166 206.481 154.133C206.487 154.1 206.487 154.066 206.48 154.033C206.465 153.968 206.426 153.91 206.37 153.873C206.314 153.836 206.245 153.822 206.179 153.834C206.144 153.834 203.035 154.569 203.937 159.689C203.948 159.747 203.979 159.799 204.025 159.837C204.07 159.874 204.128 159.894 204.187 159.893Z" fill="white"/>
<path d="M202.796 158.113H202.852C202.885 158.105 202.916 158.091 202.943 158.071C202.971 158.051 202.994 158.026 203.011 157.997C203.029 157.968 203.04 157.936 203.045 157.902C203.05 157.869 203.049 157.834 203.04 157.802C202.481 155.145 202.481 152.401 203.04 149.744C203.056 149.676 203.044 149.605 203.007 149.547C202.97 149.488 202.912 149.446 202.844 149.43C202.776 149.415 202.706 149.427 202.647 149.464C202.588 149.501 202.546 149.559 202.531 149.627C201.941 152.361 201.941 155.19 202.531 157.924C202.546 157.981 202.581 158.032 202.629 158.066C202.678 158.101 202.736 158.117 202.796 158.113Z" fill="white"/>
<path d="M200.634 161.03C200.675 161.029 200.715 161.02 200.751 161.001C200.788 160.982 200.819 160.956 200.843 160.923C200.881 160.868 200.896 160.8 200.884 160.734C200.873 160.668 200.836 160.61 200.782 160.571C200.67 160.489 198.071 158.684 194.157 159.938C194.092 159.959 194.039 160.005 194.007 160.065C193.976 160.125 193.969 160.195 193.989 160.26C194.01 160.324 194.055 160.377 194.115 160.408C194.176 160.438 194.245 160.444 194.31 160.423C197.974 159.25 200.461 160.968 200.486 160.984C200.53 161.013 200.581 161.029 200.634 161.03Z" fill="white"/>
<path d="M124.425 250.32C124.403 250.504 124.358 250.683 124.292 250.856C124.156 251.218 123.934 251.542 123.647 251.801C123.36 252.06 123.015 252.246 122.641 252.345C122.225 254.766 121.931 257.207 121.76 259.658L118.253 258.556L118.824 253.804C118.93 253.077 118.765 252.336 118.36 251.723C118.131 253.064 117.795 254.961 117.091 258.199L113.014 256.925L115.771 249.688C115.522 249.586 115.267 249.499 115.007 249.428L112.199 256.664L108 255.349C109.727 252.335 110.798 250.632 111.567 249.433C110.812 249.659 110.157 250.138 109.712 250.79L106.771 254.951L102.898 253.732C104.662 251.529 106.221 249.285 107.561 247.22C107.313 246.901 107.152 246.523 107.095 246.123C107.038 245.724 107.086 245.316 107.235 244.94C107.309 244.76 107.403 244.589 107.516 244.43C101.313 242.497 100.666 236.75 103.989 229.611C108.576 219.702 119.818 217.774 126.474 220.788C132.844 223.669 138.475 232.548 135.504 241.972C133.364 248.694 129.628 252.345 124.425 250.32ZM116.663 237.847C119.145 235.48 120.404 234.736 120.052 233.629C119.176 230.891 111.017 231.079 109.304 235.97C107.566 240.932 112.046 242.258 116.663 237.847ZM119.487 241.253C119.448 241.091 119.369 240.94 119.259 240.815C119.148 240.69 119.008 240.593 118.852 240.535C118.695 240.477 118.526 240.458 118.361 240.48C118.195 240.502 118.038 240.564 117.902 240.662C116.791 241.365 115.354 242.462 115.863 243.176C116.643 244.293 117.142 243.308 117.723 243.517C118.304 243.727 118.014 244.787 119.339 244.435C120.164 244.216 119.838 242.492 119.487 241.238V241.253ZM128.441 243.211C130.306 238.739 124.985 233.257 122.58 234.639C121.591 235.205 122.014 236.607 122.244 239.973C122.667 246.088 126.54 247.765 128.441 243.211Z" fill="#519BC6"/>
<path d="M154.034 201.323C154.087 201.324 154.138 201.308 154.181 201.278C154.224 201.247 154.256 201.204 154.274 201.155C156.929 193.837 166.505 187.385 166.581 187.299C166.609 187.28 166.634 187.256 166.653 187.228C166.672 187.2 166.685 187.168 166.692 187.135C166.698 187.102 166.698 187.068 166.691 187.035C166.685 187.001 166.671 186.97 166.652 186.942C166.614 186.887 166.556 186.849 166.49 186.836C166.424 186.824 166.356 186.838 166.301 186.875C166.204 186.942 156.506 193.505 153.794 200.981C153.772 201.045 153.775 201.115 153.803 201.176C153.832 201.237 153.884 201.285 153.947 201.308C153.975 201.318 154.004 201.323 154.034 201.323Z" fill="#B3B9C3"/>
<path d="M100.743 223.419C100.691 223.478 100.633 223.531 100.569 223.577C100.43 223.674 100.271 223.74 100.104 223.771C99.9373 223.801 99.7658 223.796 99.601 223.756C98.9181 224.459 98.1995 225.25 97.5319 226.086L96.4668 225.015L97.8224 223.485C98.032 223.261 98.1486 222.966 98.1485 222.659C97.7357 223.083 97.1293 223.679 96.11 224.663L94.8258 223.378L97.6542 221.395C97.5847 221.302 97.508 221.215 97.4249 221.134L94.5608 223.118L93.1898 221.741C94.627 221.027 95.473 220.645 96.0692 220.38C95.711 220.295 95.3352 220.323 94.9939 220.461L92.7771 221.323L91.4571 220.007C92.7414 219.589 93.9441 219.12 95.0245 218.661C95.0033 218.482 95.0326 218.301 95.1091 218.138C95.1857 217.974 95.3065 217.836 95.4577 217.738C95.5331 217.685 95.6154 217.642 95.7023 217.611C93.6128 215.372 94.8105 212.975 98.0466 211.052C102.501 208.401 107.22 210.639 108.835 213.419C110.278 215.943 109.941 220.242 106.669 222.812C104.3 224.638 102.129 225.138 100.743 223.419ZM100.916 217.325C102.445 217.034 103.092 217.055 103.24 216.575C103.607 215.367 100.452 213.444 98.5257 214.867C96.5993 216.29 98.0313 217.866 100.916 217.325ZM101.13 219.191C101.152 219.123 101.157 219.051 101.144 218.981C101.132 218.91 101.102 218.844 101.057 218.788C101.013 218.732 100.955 218.688 100.89 218.659C100.824 218.631 100.753 218.619 100.681 218.625C100.085 218.625 99.2646 218.702 99.2799 219.074C99.2799 219.65 99.7335 219.406 99.9016 219.584C100.07 219.763 99.7029 220.094 100.289 220.268C100.671 220.4 100.957 219.712 101.13 219.191ZM103.902 221.797C105.645 220.65 105.125 217.57 103.902 217.519C103.393 217.519 103.204 218.095 102.455 219.35C101.125 221.593 102.124 222.975 103.902 221.797Z" fill="#B3B9C3"/>
<path d="M97.3588 252.6L103.428 250.688L103.53 249.928C103.627 249.208 103.476 248.476 103.102 247.853C102.083 246.19 99.2648 243.018 91.8191 240.244C81.117 236.271 70.8429 250.612 71.485 258.944C72.1272 267.277 87.4873 251.841 87.4873 251.841L97.3588 252.6Z" fill="#818B9B"/>
<path d="M94.7286 256.868C94.7286 256.868 96.2575 260.576 94.3668 261.29C92.4761 262.004 88.7965 262.432 88.7965 262.432L96.3798 264.793L98.9585 260.606L94.7286 256.868Z" fill="#818B9B"/>
<path d="M84.4347 243.992C89.5972 243.201 93.3175 246.179 96.8034 248.291C103.097 252.095 103.474 249.275 103.525 249.056C103.525 249.056 104.738 254.981 100.57 272.514C99.8357 275.574 90.3769 268.297 91.9772 272.723C92.9404 275.38 89.9947 274.473 89.1284 274.534C89.1284 274.534 90.3158 275.997 89.7603 276.895C89.2048 277.792 87.7218 277.094 87.2428 277.604C86.7637 278.114 83.8996 282.979 83.8996 282.979C83.8996 282.979 82.4064 286.039 79.9704 284.555C78.6963 283.769 72.0355 278.073 68.7331 270.464C65.6346 255.517 77.4376 245.063 84.4347 243.992ZM96.9817 262.351C96.1714 256.017 88.578 257.71 88.578 257.71C92.0995 264.472 96.9817 262.361 96.9817 262.361V262.351Z" fill="#D1D5DB"/>
<path d="M82.5136 261.58C82.4007 262.703 82.5106 263.836 82.8368 264.916C83.163 265.996 83.6991 267.001 84.4144 267.873L85.556 269.271C85.9142 269.717 86.3617 270.084 86.8699 270.347C87.378 270.611 87.9355 270.765 88.5067 270.8C89.0016 270.826 89.4904 270.92 89.9592 271.081C90.2312 271.177 90.458 271.37 90.5959 271.624C90.7338 271.878 90.7729 272.173 90.7057 272.454C90.6386 272.735 90.47 272.981 90.2324 273.144C89.9948 273.308 89.705 273.378 89.419 273.34C87.3345 273.079 85.4372 272.005 84.1393 270.352L83.7469 269.842C82.84 268.686 82.2494 267.315 82.0331 265.862C81.8169 264.409 81.9824 262.924 82.5136 261.555V261.58Z" fill="#818B9B"/>
<path d="M86.7178 278.358C86.948 278.954 86.9727 279.609 86.788 280.219C86.6033 280.83 86.2198 281.362 85.6986 281.729L83.92 282.963L86.7178 278.358Z" fill="#818B9B"/>
<path d="M75.7506 257.2C75.1286 257.2 74.6244 256.696 74.6244 256.073C74.6244 255.451 75.1286 254.946 75.7506 254.946C76.3726 254.946 76.8769 255.451 76.8769 256.073C76.8769 256.696 76.3726 257.2 75.7506 257.2Z" fill="#818B9B"/>
<path d="M73.2127 256.909C74.1417 256.944 75.0632 256.731 75.8831 256.292C75.9124 256.276 75.938 256.254 75.9584 256.227C75.9788 256.201 75.9935 256.17 76.0016 256.138C76.0097 256.105 76.0111 256.071 76.0056 256.038C76.0001 256.005 75.9879 255.974 75.9698 255.946C75.9534 255.916 75.9313 255.891 75.9049 255.87C75.8785 255.85 75.8482 255.835 75.8159 255.826C75.7835 255.818 75.7499 255.816 75.7168 255.821C75.6837 255.825 75.6518 255.837 75.6232 255.854C73.2331 257.256 68.5241 255.803 64.921 253.743C61.2161 251.626 58.8055 249.03 58.8055 247.113C58.8055 246.241 59.3152 245.512 60.2937 244.946C64.6408 242.437 74.9709 247.863 75.0728 247.914C75.1024 247.932 75.1355 247.944 75.1701 247.95C75.2046 247.955 75.2399 247.953 75.2736 247.944C75.3074 247.935 75.3389 247.919 75.3663 247.897C75.3936 247.876 75.4163 247.848 75.4328 247.818C75.4492 247.787 75.4591 247.753 75.462 247.718C75.4648 247.683 75.4604 247.648 75.4491 247.615C75.4378 247.582 75.4199 247.552 75.3963 247.526C75.3728 247.5 75.3442 247.479 75.3123 247.465C74.8792 247.235 64.6102 241.855 60.0235 244.502C58.8667 245.17 58.2806 246.032 58.2806 247.113C58.2806 249.637 61.5728 252.417 64.6459 254.171C67.3367 255.716 70.6034 256.909 73.2127 256.909Z" fill="#B3B9C3"/>
<path d="M64.6971 260.616L67.0362 277.92C67.101 278.403 67.0352 278.894 66.8457 279.344C66.6562 279.793 66.3499 280.183 65.9586 280.473C65.5674 280.764 65.1055 280.944 64.621 280.995C64.1366 281.047 63.6472 280.967 63.2038 280.765L46.2333 273.008C45.7903 272.805 45.4097 272.487 45.1314 272.087C44.853 271.686 44.6871 271.219 44.6506 270.732C44.6142 270.246 44.7087 269.759 44.9243 269.321C45.1399 268.884 45.4687 268.512 45.8765 268.245L60.4926 258.694C60.8781 258.438 61.3225 258.284 61.7838 258.248C62.245 258.211 62.708 258.293 63.1288 258.486C63.5496 258.678 63.9145 258.975 64.1889 259.348C64.4633 259.72 64.6382 260.157 64.6971 260.616Z" fill="#F2F3F5"/>
<path d="M58.7598 262.32C58.8832 262.024 59.0648 261.756 59.2938 261.532C59.5228 261.307 59.7945 261.132 60.0928 261.015C60.3911 260.898 60.7098 260.842 61.0301 260.85C61.3503 260.859 61.6655 260.932 61.957 261.065C62.2485 261.198 62.5103 261.389 62.7269 261.625C62.9434 261.861 63.1102 262.138 63.2175 262.441C63.3248 262.743 63.3702 263.063 63.3512 263.383C63.3322 263.703 63.2492 264.016 63.1069 264.303C62.633 265.185 62.084 266.025 61.4659 266.812C60.4525 268.142 59.5974 269.584 58.9177 271.111C58.7603 271.456 58.4724 271.725 58.1173 271.857C57.7623 271.989 57.3691 271.975 57.0245 271.818C56.6798 271.66 56.4118 271.372 56.2794 271.017C56.1471 270.662 56.1612 270.268 56.3186 269.923C57.034 268.417 57.5694 266.832 57.9138 265.201C58.1079 264.217 58.3911 263.252 58.7598 262.32Z" fill="white"/>
<path d="M56.0126 275.829C55.05 275.829 54.2697 275.048 54.2697 274.085C54.2697 273.122 55.05 272.341 56.0126 272.341C56.9752 272.341 57.7556 273.122 57.7556 274.085C57.7556 275.048 56.9752 275.829 56.0126 275.829Z" fill="white"/>
<path d="M142.679 118.06C142.721 118.059 142.763 118.049 142.8 118.03C142.837 118.01 142.869 117.982 142.893 117.948C142.93 117.891 142.944 117.821 142.93 117.755C142.917 117.688 142.878 117.629 142.822 117.591C119.563 101.873 107.265 79.5163 101.033 63.5339C94.2902 46.1949 93.0315 32.4257 93.0213 32.288C93.0148 32.2212 92.9823 32.1597 92.9308 32.1167C92.8792 32.0738 92.8129 32.0529 92.7461 32.0585C92.7128 32.0611 92.6803 32.0703 92.6506 32.0856C92.6209 32.1009 92.5946 32.122 92.5732 32.1477C92.5519 32.1734 92.5359 32.2031 92.5261 32.2351C92.5164 32.2671 92.5133 32.3007 92.5168 32.3339C92.5168 32.4716 93.7857 46.3224 100.559 63.7175C106.807 79.7764 119.16 102.235 142.526 118.024C142.572 118.052 142.626 118.064 142.679 118.06Z" fill="#B3B9C3"/>
<path d="M98.9588 99.0634C99.0039 99.0632 99.0481 99.0507 99.0866 99.0274C99.1252 99.004 99.1567 98.9707 99.1779 98.9308C99.2109 98.872 99.2193 98.8024 99.2011 98.7374C99.183 98.6724 99.1398 98.6173 99.0811 98.5841C87.541 91.8696 76.5131 84.31 66.0879 75.9669C50.0754 63.1718 29.14 43.1962 20.3336 20.7015C20.3076 20.6394 20.2586 20.5898 20.1968 20.5632C20.135 20.5366 20.0653 20.535 20.0024 20.5587C19.9712 20.571 19.9429 20.5894 19.9188 20.6128C19.8948 20.6361 19.8756 20.664 19.8623 20.6948C19.8491 20.7256 19.842 20.7587 19.8416 20.7922C19.8411 20.8257 19.8473 20.859 19.8597 20.8902C28.7068 43.492 49.7136 63.5338 65.777 76.3698C76.2219 84.7291 87.2701 92.3041 98.8314 99.0328C98.8708 99.0532 98.9145 99.0637 98.9588 99.0634Z" fill="#B3B9C3"/>
<path d="M200.634 165.859C200.668 165.858 200.701 165.85 200.731 165.836C200.762 165.822 200.789 165.802 200.812 165.777C200.834 165.753 200.852 165.724 200.864 165.692C200.875 165.661 200.88 165.627 200.879 165.594C200.865 165.014 201.004 164.441 201.283 163.933C201.561 163.424 201.968 162.998 202.464 162.697C202.515 162.661 202.551 162.607 202.565 162.546C202.579 162.485 202.57 162.421 202.54 162.366C202.509 162.311 202.46 162.27 202.401 162.249C202.342 162.228 202.277 162.23 202.219 162.254C201.641 162.599 201.164 163.093 200.839 163.683C200.514 164.274 200.352 164.94 200.369 165.614C200.371 165.648 200.379 165.681 200.393 165.711C200.407 165.742 200.427 165.769 200.451 165.792C200.476 165.814 200.505 165.832 200.536 165.844C200.568 165.855 200.601 165.86 200.634 165.859Z" fill="white"/>
</svg>
