<svg width="33" height="32" viewBox="0 0 33 32" fill="none" xmlns="http://www.w3.org/2000/svg">
<rect x="0.333984" width="32" height="32" rx="16" fill="#F2F3F5"/>
<path d="M21.2673 15.6838C21.2277 15.5815 21.1682 15.4881 21.0923 15.4088L16.9257 11.2421C16.848 11.1644 16.7557 11.1028 16.6542 11.0608C16.5527 11.0187 16.4439 10.9971 16.334 10.9971C16.1121 10.9971 15.8992 11.0852 15.7423 11.2421C15.6646 11.3198 15.603 11.4121 15.5609 11.5136C15.5189 11.6151 15.4972 11.7239 15.4972 11.8338C15.4972 12.0557 15.5854 12.2686 15.7423 12.4255L18.4923 15.1671H12.1673C11.9463 15.1671 11.7343 15.2549 11.5781 15.4112C11.4218 15.5675 11.334 15.7795 11.334 16.0005C11.334 16.2215 11.4218 16.4335 11.5781 16.5897C11.7343 16.746 11.9463 16.8338 12.1673 16.8338H18.4923L15.7423 19.5755C15.6642 19.653 15.6022 19.7451 15.5599 19.8467C15.5176 19.9482 15.4958 20.0571 15.4958 20.1671C15.4958 20.2772 15.5176 20.3861 15.5599 20.4876C15.6022 20.5892 15.6642 20.6813 15.7423 20.7588C15.8198 20.8369 15.912 20.8989 16.0135 20.9412C16.1151 20.9835 16.224 21.0053 16.334 21.0053C16.444 21.0053 16.5529 20.9835 16.6545 20.9412C16.756 20.8989 16.8482 20.8369 16.9257 20.7588L21.0923 16.5921C21.1682 16.5129 21.2277 16.4194 21.2673 16.3171C21.3507 16.1143 21.3507 15.8867 21.2673 15.6838Z" fill="#9AA2AF"/>
</svg>
