<svg width="30" height="30" viewBox="0 0 30 30" fill="none" xmlns="http://www.w3.org/2000/svg">
<path d="M29.5763 18.393C29.5763 14.5085 26.5887 11.309 22.7906 10.9713V4.48226C22.7906 4.11472 22.4927 3.81678 22.1251 3.81678H19.3977V1.0894C19.3977 0.721861 19.0998 0.423926 18.7323 0.423926H1.0894C0.721861 0.423926 0.423926 0.721861 0.423926 1.0894V25.1787C0.423926 25.5462 0.721861 25.8442 1.0894 25.8442H4.15607V28.9108C4.15607 29.2783 4.454 29.5763 4.82154 29.5763H11.6638C12.0314 29.5763 12.3293 29.2783 12.3293 28.9108C12.3293 28.5434 12.0314 28.2454 11.6638 28.2454H5.48702V10.237H9.91083C10.2784 10.237 10.5763 9.93909 10.5763 9.57154V5.14774H21.4596V10.9713C17.6615 11.309 14.6739 14.5085 14.6739 18.393C14.6739 22.2775 17.6615 25.4769 21.4596 25.8147V28.2454H16.7531C16.3855 28.2454 16.0876 28.5434 16.0876 28.9108C16.0876 29.2783 16.3855 29.5763 16.7531 29.5763H22.1251C22.4927 29.5763 22.7906 29.2783 22.7906 28.9108V25.8147C26.5887 25.4769 29.5763 22.2775 29.5763 18.393ZM1.75488 24.5132V1.75488H18.0668V3.81678H9.91083C9.72899 3.81678 9.55848 3.89344 9.44027 4.0117C9.44026 4.01171 9.44026 4.01171 9.44025 4.01172L4.35099 9.10099C4.22853 9.22345 4.15607 9.3933 4.15607 9.57154V24.5132H1.75488ZM9.24535 8.90607H6.42814L9.24535 6.08885V8.90607ZM22.1251 24.5132C18.7505 24.5132 16.0049 21.7676 16.0049 18.393C16.0049 15.0184 18.7505 12.2727 22.1251 12.2727C25.4997 12.2727 28.2454 15.0184 28.2454 18.393C28.2454 21.7676 25.4997 24.5132 22.1251 24.5132Z" fill="#F4812F" stroke="#F4812F" stroke-width="0.2"/>
</svg>
