<svg width="1043" height="1043" viewBox="0 0 1043 1043" fill="none" xmlns="http://www.w3.org/2000/svg">
<path fill-rule="evenodd" clip-rule="evenodd" d="M117.454 194.421C114.636 198.071 113.105 202.563 113.105 207.187C113.105 211.812 114.636 216.304 117.454 219.953C119.073 223.071 165.605 282.447 266.177 282.447C316.243 282.447 357.473 259.29 397.231 236.876C436.989 214.461 474.832 193.382 520.775 193.382C566.134 193.382 601.877 215.087 640.19 238.353L641.668 239.251L641.853 239.363C680.678 262.935 723.328 288.83 775.519 288.83C880.215 288.83 923.948 220.992 925.715 218.172C928.011 214.499 929.117 210.196 928.88 205.861C928.642 201.526 927.073 197.372 924.39 193.976C875.715 133.393 814.228 84.5366 744.424 50.9764C674.619 17.4163 598.259 0 520.922 0C443.585 0 367.225 17.4163 297.42 50.9764C227.615 84.5366 166.129 133.393 117.454 193.976V194.421ZM34.2559 335.593C6.64991 408.359 -4.49427 486.42 1.63632 564.081C7.76691 641.742 31.0176 717.043 69.6923 784.492C108.367 851.942 161.49 909.837 225.186 953.954C288.882 998.072 361.544 1027.3 437.871 1039.5C442.392 1040.26 447.034 1039.46 451.043 1037.22C455.053 1034.98 458.195 1031.45 459.959 1027.18C461.137 1024.21 489.409 952.962 439.344 865.233C414.214 821.825 373.83 797.491 334.734 773.933L334.501 773.793C295.332 750.19 258.519 727.924 235.548 687.696C212.771 648.292 213.604 605.192 214.486 559.577L214.491 559.294C215.375 513.574 216.258 462.956 190.195 417.384C137.921 325.944 57.6689 321.936 54.1348 321.788C49.7976 321.668 45.5347 322.94 41.9617 325.421C38.3886 327.903 35.6901 331.465 34.2559 335.593ZM856.953 422.728C907.461 334.999 982.706 323.717 985.945 323.717C990.533 323.201 995.159 324.252 999.084 326.701C1003.01 329.15 1006 332.856 1007.59 337.226C1035.28 410.015 1046.49 488.119 1040.4 565.834C1034.32 643.549 1011.1 718.914 972.437 786.427C933.772 853.94 880.64 911.896 816.919 956.066C753.198 1000.24 680.497 1029.5 604.123 1041.73C599.882 1042.43 595.529 1041.78 591.674 1039.86C587.82 1037.94 584.656 1034.86 582.625 1031.04C573.09 1010.16 568.358 987.376 568.783 964.392C569.177 929.116 578.885 894.583 596.908 864.342C622.508 819.687 664.826 795.848 703.827 773.876C704.757 773.353 705.685 772.83 706.61 772.308C707.812 771.631 709.012 770.955 710.21 770.281C748.599 748.663 784.17 728.633 806.446 689.478C829.417 649.102 830.154 606.054 830.743 560.037C831.332 514.02 832.068 466.518 856.953 422.728Z" fill="#D9DCE1"/>
</svg>
