<svg width="228" height="118" viewBox="0 0 228 118" fill="none" xmlns="http://www.w3.org/2000/svg">
<path d="M72.3078 94.1085C74.9139 94.1085 76.9728 94.8382 78.4843 96.2976C79.9959 97.7049 80.7517 99.5814 80.7517 101.927V116H0.691162V108.182C0.691162 106.67 1.0039 105.054 1.62937 103.334C2.25484 101.614 3.34942 100.05 4.9131 98.6431L37.7504 65.5713C40.5651 62.7566 43.0148 60.0723 45.0997 57.5183C47.1846 54.9643 48.9047 52.4624 50.2599 50.0126C51.6151 47.5107 52.6315 45.0349 53.3091 42.5851C53.9867 40.0833 54.3255 37.4511 54.3255 34.6885C54.3255 30.1539 53.2309 26.6877 51.0417 24.2901C48.9047 21.8403 45.621 20.6154 41.1905 20.6154C37.5941 20.6154 34.5449 21.5797 32.043 23.5082C29.5932 25.3846 27.8992 27.7302 26.961 30.5448C25.8664 33.4115 24.4331 35.314 22.6609 36.2522C20.8887 37.1904 18.3608 37.3989 15.077 36.8777L2.25484 34.6104C3.08881 28.929 4.67855 23.9773 7.02407 19.7554C9.42172 15.5335 12.3667 12.0152 15.8589 9.20054C19.4032 6.38591 23.4427 4.301 27.9774 2.94581C32.5121 1.5385 37.3856 0.834839 42.5978 0.834839C48.2271 0.834839 53.283 1.6688 57.7656 3.33673C62.3002 4.95253 66.1573 7.21987 69.3368 10.1387C72.5163 13.0576 74.94 16.5498 76.6079 20.6154C78.328 24.6289 79.188 29.0593 79.188 33.9067C79.188 38.0765 78.5886 41.9336 77.3898 45.478C76.2431 49.0223 74.6533 52.4103 72.6205 55.6419C70.5877 58.8214 68.2162 61.9227 65.5058 64.9458C62.8475 67.9168 60.0068 70.9399 56.9837 74.0152L34.7012 96.8449C37.568 95.9588 40.4087 95.2812 43.2233 94.8121C46.0379 94.343 48.6441 94.1085 51.0417 94.1085H72.3078Z" fill="url(#paint0_linear_7_13129)"/>
<path d="M174.272 59.0038C174.272 68.9593 173.204 77.5856 171.067 84.8827C168.93 92.1799 165.959 98.2262 162.154 103.021C158.401 107.817 153.918 111.387 148.706 113.733C143.546 116.078 137.943 117.251 131.896 117.251C125.85 117.251 120.247 116.078 115.087 113.733C109.979 111.387 105.548 107.817 101.795 103.021C98.0426 98.2262 95.0976 92.1799 92.9606 84.8827C90.8757 77.5856 89.8333 68.9593 89.8333 59.0038C89.8333 49.0484 90.8757 40.4221 92.9606 33.1249C95.0976 25.8277 98.0426 19.7815 101.795 14.9862C105.548 10.1909 109.979 6.64652 115.087 4.35312C120.247 2.0076 125.85 0.834839 131.896 0.834839C137.943 0.834839 143.546 2.0076 148.706 4.35312C153.918 6.64652 158.401 10.1909 162.154 14.9862C165.959 19.7815 168.93 25.8277 171.067 33.1249C173.204 40.4221 174.272 49.0484 174.272 59.0038ZM149.253 59.0038C149.253 51.1333 148.758 44.6961 147.768 39.6923C146.777 34.6364 145.448 30.6751 143.78 27.8084C142.164 24.9416 140.314 22.987 138.229 21.9445C136.144 20.85 134.033 20.3027 131.896 20.3027C129.759 20.3027 127.648 20.85 125.563 21.9445C123.531 22.987 121.706 24.9416 120.09 27.8084C118.527 30.6751 117.25 34.6364 116.259 39.6923C115.321 44.6961 114.852 51.1333 114.852 59.0038C114.852 66.9265 115.321 73.3897 116.259 78.3935C117.25 83.3972 118.527 87.3586 120.09 90.2775C121.706 93.1442 123.531 95.1249 125.563 96.2194C127.648 97.2619 129.759 97.7831 131.896 97.7831C134.033 97.7831 136.144 97.2619 138.229 96.2194C140.314 95.1249 142.164 93.1442 143.78 90.2775C145.448 87.3586 146.777 83.3972 147.768 78.3935C148.758 73.3897 149.253 66.9265 149.253 59.0038Z" fill="url(#paint1_linear_7_13129)"/>
<path d="M202.645 15.3629C202.645 16.9396 202.359 18.3783 201.788 19.6791C201.216 20.9798 200.457 22.1032 199.511 23.0492C198.565 23.9755 197.462 24.6949 196.2 25.2073C194.959 25.7197 193.658 25.9759 192.298 25.9759C190.8 25.9759 189.421 25.7197 188.159 25.2073C186.918 24.6949 185.834 23.9755 184.907 23.0492C184.001 22.1032 183.291 20.9798 182.779 19.6791C182.266 18.3783 182.01 16.9396 182.01 15.3629C182.01 13.7271 182.266 12.249 182.779 10.9285C183.291 9.58835 184.001 8.44526 184.907 7.49925C185.834 6.55325 186.918 5.82404 188.159 5.31162C189.421 4.77949 190.8 4.51343 192.298 4.51343C193.796 4.51343 195.175 4.77949 196.437 5.31162C197.718 5.82404 198.812 6.55325 199.718 7.49925C200.645 8.44526 201.364 9.58835 201.876 10.9285C202.389 12.249 202.645 13.7271 202.645 15.3629ZM195.609 15.3629C195.609 14.3578 195.52 13.53 195.343 12.8797C195.185 12.2096 194.959 11.6774 194.663 11.2833C194.367 10.8891 194.013 10.6132 193.599 10.4555C193.205 10.2978 192.771 10.219 192.298 10.219C191.825 10.219 191.391 10.2978 190.997 10.4555C190.603 10.6132 190.268 10.8891 189.992 11.2833C189.716 11.6774 189.499 12.2096 189.342 12.8797C189.184 13.53 189.105 14.3578 189.105 15.3629C189.105 16.3089 189.184 17.0973 189.342 17.7279C189.499 18.3586 189.716 18.8612 189.992 19.2356C190.268 19.6101 190.603 19.8761 190.997 20.0338C191.391 20.1915 191.825 20.2703 192.298 20.2703C192.771 20.2703 193.205 20.1915 193.599 20.0338C194.013 19.8761 194.367 19.6101 194.663 19.2356C194.959 18.8612 195.185 18.3586 195.343 17.7279C195.52 17.0973 195.609 16.3089 195.609 15.3629ZM216.185 6.28719C216.48 5.95214 216.845 5.64666 217.278 5.37074C217.712 5.07512 218.313 4.92731 219.082 4.92731H225.763L193.303 46.6993C193.008 47.0738 192.633 47.3891 192.18 47.6453C191.746 47.8818 191.214 48.0001 190.583 48.0001H183.725L216.185 6.28719ZM227.418 37.8896C227.418 39.4663 227.133 40.9149 226.561 42.2354C225.99 43.5361 225.231 44.6595 224.285 45.6055C223.339 46.5318 222.235 47.2511 220.974 47.7636C219.732 48.276 218.431 48.5322 217.072 48.5322C215.574 48.5322 214.194 48.276 212.933 47.7636C211.691 47.2511 210.607 46.5318 209.681 45.6055C208.774 44.6595 208.065 43.5361 207.552 42.2354C207.04 40.9149 206.784 39.4663 206.784 37.8896C206.784 36.2538 207.04 34.7757 207.552 33.4552C208.065 32.1151 208.774 30.972 209.681 30.026C210.607 29.08 211.691 28.3508 212.933 27.8383C214.194 27.3062 215.574 27.0402 217.072 27.0402C218.569 27.0402 219.949 27.3062 221.21 27.8383C222.491 28.3508 223.585 29.08 224.492 30.026C225.418 30.972 226.137 32.1151 226.65 33.4552C227.162 34.7757 227.418 36.2538 227.418 37.8896ZM220.383 37.8896C220.383 36.9042 220.294 36.0863 220.116 35.4359C219.959 34.7659 219.732 34.2337 219.437 33.8396C219.141 33.4454 218.786 33.1695 218.372 33.0118C217.978 32.8541 217.545 32.7753 217.072 32.7753C216.599 32.7753 216.165 32.8541 215.771 33.0118C215.377 33.1695 215.042 33.4454 214.766 33.8396C214.49 34.2337 214.273 34.7659 214.115 35.4359C213.958 36.0863 213.879 36.9042 213.879 37.8896C213.879 38.8357 213.958 39.624 214.115 40.2547C214.273 40.8853 214.49 41.3879 214.766 41.7624C215.042 42.1368 215.377 42.4029 215.771 42.5605C216.165 42.7182 216.599 42.797 217.072 42.797C217.545 42.797 217.978 42.7182 218.372 42.5605C218.786 42.4029 219.141 42.1368 219.437 41.7624C219.732 41.3879 219.959 40.8853 220.116 40.2547C220.294 39.624 220.383 38.8357 220.383 37.8896Z" fill="url(#paint2_linear_7_13129)"/>
<defs>
<linearGradient id="paint0_linear_7_13129" x1="149.665" y1="-80.3355" x2="-61.5761" y2="114.354" gradientUnits="userSpaceOnUse">
<stop stop-color="white"/>
<stop offset="1" stop-color="white" stop-opacity="0"/>
</linearGradient>
<linearGradient id="paint1_linear_7_13129" x1="149.665" y1="-80.3355" x2="-61.5761" y2="114.354" gradientUnits="userSpaceOnUse">
<stop stop-color="white"/>
<stop offset="1" stop-color="white" stop-opacity="0"/>
</linearGradient>
<linearGradient id="paint2_linear_7_13129" x1="222.216" y1="-25.9809" x2="148.008" y2="23.5956" gradientUnits="userSpaceOnUse">
<stop stop-color="white"/>
<stop offset="1" stop-color="white" stop-opacity="0"/>
</linearGradient>
</defs>
</svg>
