<svg width="32" height="32" viewBox="0 0 32 32" fill="none" xmlns="http://www.w3.org/2000/svg">
<path d="M0 16C0 7.16344 7.16344 0 16 0C24.8366 0 32 7.16344 32 16C32 24.8366 24.8366 32 16 32C7.16344 32 0 24.8366 0 16Z" fill="#818B9B"/>
<path d="M21.25 14.125H21.01L20.0725 11.785C19.9051 11.369 19.6171 11.0124 19.2456 10.7612C18.8741 10.51 18.436 10.3755 17.9875 10.375H13.4875C12.9665 10.3735 12.4611 10.5529 12.0576 10.8825C11.6541 11.2122 11.3775 11.6716 11.275 12.1825L10.885 14.125H10.75C10.1533 14.125 9.58097 14.3621 9.15901 14.784C8.73705 15.206 8.5 15.7783 8.5 16.375V18.625C8.5 18.8239 8.57902 19.0147 8.71967 19.1553C8.86032 19.296 9.05109 19.375 9.25 19.375H10C10 19.9717 10.2371 20.544 10.659 20.966C11.081 21.388 11.6533 21.625 12.25 21.625C12.8467 21.625 13.419 21.388 13.841 20.966C14.2629 20.544 14.5 19.9717 14.5 19.375H17.5C17.5 19.9717 17.7371 20.544 18.159 20.966C18.581 21.388 19.1533 21.625 19.75 21.625C20.3467 21.625 20.919 21.388 21.341 20.966C21.7629 20.544 22 19.9717 22 19.375H22.75C22.9489 19.375 23.1397 19.296 23.2803 19.1553C23.421 19.0147 23.5 18.8239 23.5 18.625V16.375C23.5 15.7783 23.2629 15.206 22.841 14.784C22.419 14.3621 21.8467 14.125 21.25 14.125ZM16.75 11.875H17.9875C18.1364 11.8764 18.2816 11.922 18.4045 12.0062C18.5274 12.0903 18.6224 12.2091 18.6775 12.3475L19.39 14.125H16.75V11.875ZM12.745 12.475C12.7801 12.3031 12.8743 12.1488 13.0114 12.0392C13.1484 11.9296 13.3195 11.8715 13.495 11.875H15.25V14.125H12.415L12.745 12.475ZM12.25 20.125C12.1017 20.125 11.9567 20.081 11.8333 19.9986C11.71 19.9162 11.6139 19.7991 11.5571 19.662C11.5003 19.525 11.4855 19.3742 11.5144 19.2287C11.5433 19.0832 11.6148 18.9496 11.7197 18.8447C11.8246 18.7398 11.9582 18.6684 12.1037 18.6394C12.2492 18.6105 12.4 18.6253 12.537 18.6821C12.6741 18.7389 12.7912 18.835 12.8736 18.9583C12.956 19.0817 13 19.2267 13 19.375C13 19.5739 12.921 19.7647 12.7803 19.9053C12.6397 20.046 12.4489 20.125 12.25 20.125ZM19.75 20.125C19.6017 20.125 19.4567 20.081 19.3333 19.9986C19.21 19.9162 19.1139 19.7991 19.0571 19.662C19.0003 19.525 18.9855 19.3742 19.0144 19.2287C19.0434 19.0832 19.1148 18.9496 19.2197 18.8447C19.3246 18.7398 19.4582 18.6684 19.6037 18.6394C19.7492 18.6105 19.9 18.6253 20.037 18.6821C20.1741 18.7389 20.2912 18.835 20.3736 18.9583C20.456 19.0817 20.5 19.2267 20.5 19.375C20.5 19.5739 20.421 19.7647 20.2803 19.9053C20.1397 20.046 19.9489 20.125 19.75 20.125ZM22 17.875H21.415C21.2041 17.643 20.9471 17.4576 20.6603 17.3308C20.3736 17.2039 20.0635 17.1384 19.75 17.1384C19.4365 17.1384 19.1264 17.2039 18.8397 17.3308C18.5529 17.4576 18.2959 17.643 18.085 17.875H13.915C13.7041 17.643 13.4471 17.4576 13.1603 17.3308C12.8736 17.2039 12.5635 17.1384 12.25 17.1384C11.9365 17.1384 11.6264 17.2039 11.3397 17.3308C11.0529 17.4576 10.7959 17.643 10.585 17.875H10V16.375C10 16.1761 10.079 15.9853 10.2197 15.8447C10.3603 15.704 10.5511 15.625 10.75 15.625H21.25C21.4489 15.625 21.6397 15.704 21.7803 15.8447C21.921 15.9853 22 16.1761 22 16.375V17.875Z" fill="white"/>
</svg>
