<svg width="18" height="18" viewBox="0 0 18 18" fill="none" xmlns="http://www.w3.org/2000/svg">
<path d="M9.00034 12C8.85201 12 8.707 12.044 8.58366 12.1264C8.46033 12.2088 8.3642 12.326 8.30743 12.463C8.25067 12.6001 8.23581 12.7509 8.26475 12.8963C8.29369 13.0418 8.36512 13.1755 8.47001 13.2804C8.5749 13.3852 8.70854 13.4567 8.85402 13.4856C8.99951 13.5145 9.15031 13.4997 9.28735 13.4429C9.4244 13.3862 9.54153 13.29 9.62394 13.1667C9.70636 13.0434 9.75034 12.8984 9.75034 12.75C9.75034 12.5511 9.67132 12.3603 9.53067 12.2197C9.39002 12.079 9.19925 12 9.00034 12ZM17.0028 13.1025L10.9653 2.60252C10.7702 2.25266 10.4852 1.96124 10.1397 1.75837C9.79429 1.55551 9.40095 1.44855 9.00034 1.44855C8.59973 1.44855 8.20639 1.55551 7.86095 1.75837C7.5155 1.96124 7.23049 2.25266 7.03534 2.60252L1.03534 13.1025C0.833439 13.443 0.724949 13.8308 0.720825 14.2266C0.716702 14.6225 0.81709 15.0124 1.01186 15.3571C1.20662 15.7017 1.48887 15.9889 1.8301 16.1895C2.17134 16.3902 2.55948 16.4973 2.95534 16.5H15.0453C15.4444 16.504 15.8373 16.4017 16.1838 16.2037C16.5303 16.0057 16.8179 15.7192 17.0171 15.3734C17.2163 15.0276 17.32 14.6351 17.3175 14.236C17.315 13.837 17.2064 13.4458 17.0028 13.1025V13.1025ZM15.7053 14.6025C15.6396 14.7195 15.5437 14.8167 15.4276 14.8839C15.3115 14.9512 15.1795 14.9861 15.0453 14.985H2.95534C2.82117 14.9861 2.68917 14.9512 2.57308 14.8839C2.45699 14.8167 2.36108 14.7195 2.29534 14.6025C2.22952 14.4885 2.19486 14.3592 2.19486 14.2275C2.19486 14.0959 2.22952 13.9665 2.29534 13.8525L8.29534 3.35252C8.35828 3.22967 8.4539 3.12657 8.57168 3.05458C8.68945 2.98258 8.82481 2.94449 8.96284 2.94449C9.10088 2.94449 9.23623 2.98258 9.35401 3.05458C9.47178 3.12657 9.5674 3.22967 9.63034 3.35252L15.6678 13.8525C15.7423 13.9649 15.785 14.0953 15.7916 14.2299C15.7982 14.3645 15.7684 14.4984 15.7053 14.6175V14.6025ZM9.00034 6.00002C8.80143 6.00002 8.61066 6.07904 8.47001 6.21969C8.32936 6.36034 8.25034 6.55111 8.25034 6.75002V9.75002C8.25034 9.94893 8.32936 10.1397 8.47001 10.2804C8.61066 10.421 8.80143 10.5 9.00034 10.5C9.19925 10.5 9.39002 10.421 9.53067 10.2804C9.67132 10.1397 9.75034 9.94893 9.75034 9.75002V6.75002C9.75034 6.55111 9.67132 6.36034 9.53067 6.21969C9.39002 6.07904 9.19925 6.00002 9.00034 6.00002Z" fill="#332500"/>
</svg>
