<svg width="55" height="54" viewBox="0 0 55 54" fill="none" xmlns="http://www.w3.org/2000/svg">
<path d="M53.8063 48.0312L39.9632 41.3116V39.8679C42.2598 38.0189 44.1503 35.6463 45.4353 32.9932C46.7465 30.2862 47.4396 27.2655 47.4396 24.2579C47.4396 20.658 46.4725 17.126 44.6428 14.0437C44.3455 13.5428 43.6984 13.3781 43.1975 13.6751C42.6966 13.9724 42.5316 14.6195 42.8289 15.1204C44.4652 17.877 45.3301 21.0368 45.3301 24.2579C45.3301 29.1288 43.3945 33.694 39.9631 37.0514V32.4472C39.9631 31.8493 39.9718 31.3161 39.9796 30.8458C40.0181 28.518 40.0393 27.2357 38.9803 24.3718C38.9688 24.3409 38.956 24.3104 38.9416 24.2807L32.1446 10.1424C32.1426 10.1384 32.1406 10.1343 32.1386 10.1303C31.42 8.68355 30.0582 8.4261 29.0971 8.79883C28.367 9.0819 27.7993 9.5332 27.4004 10.1289C27.0015 9.5332 26.4338 9.0819 25.7038 8.79883C24.7426 8.42599 23.3808 8.68344 22.6622 10.1303C22.6602 10.1343 22.6582 10.1384 22.6562 10.1424L15.8591 24.2808C15.8447 24.3105 15.8318 24.3409 15.8203 24.3719C14.7612 27.2357 14.7825 28.5181 14.821 30.8459C14.8288 31.3163 14.8376 31.8494 14.8376 32.4473V37.0515C11.4063 33.6941 9.4707 29.1289 9.4707 24.258C9.4707 14.3716 17.514 6.32833 27.4004 6.32833C30.6218 6.32833 33.7812 7.19307 36.537 8.8291C37.0381 9.12662 37.6851 8.96167 37.9824 8.46059C38.2797 7.95972 38.1147 7.31267 37.6139 7.01535C34.5323 5.1859 31.0006 4.21896 27.4004 4.21896C16.3507 4.21896 7.36133 13.2084 7.36133 24.258C7.36133 27.2658 8.05436 30.2865 9.36555 32.9934C10.6506 35.6464 12.5411 38.0189 14.8376 39.8679V41.3117L0.994602 48.0312C0.631156 48.2077 0.400391 48.5761 0.400391 48.98V52.9453C0.400391 53.5277 0.872574 54 1.45508 54H16.7293C16.994 54 17.249 53.9004 17.4437 53.721L21.8117 49.6982C23.456 49.5902 25.0281 48.8625 26.1785 47.6646C26.6968 47.1249 27.1068 46.5168 27.4004 45.8646C27.6939 46.5168 28.104 47.1249 28.6221 47.6646C29.7726 48.8625 31.3447 49.5902 32.989 49.6982L37.357 53.721C37.5517 53.9003 37.8067 54 38.0714 54H53.3457C53.9282 54 54.4004 53.5277 54.4004 52.9453V48.98C54.4004 48.5761 54.1697 48.2077 53.8063 48.0312ZM24.6573 46.2036C23.8033 47.0929 22.6105 47.6029 21.385 47.6029C21.1203 47.6029 20.8652 47.7025 20.6705 47.8819L16.3177 51.8907H2.50977V49.6406L16.3529 42.921C16.7163 42.7445 16.947 42.3761 16.947 41.9722V32.4473C16.947 31.832 16.938 31.2896 16.9301 30.811C16.8938 28.6174 16.8771 27.6091 17.7819 25.1496L24.554 11.0631C24.6759 10.8199 24.8067 10.7206 24.9411 10.7654C26.3355 11.3061 26.0339 13.3233 25.723 14.4959L22.064 25.8401C21.2813 26.397 20.6794 27.3619 20.5936 28.7808L20.1229 36.5722C20.0878 37.1537 20.5307 37.6534 21.1121 37.6886C21.6941 37.7252 22.1933 37.2808 22.2285 36.6995L22.6992 28.908C22.7577 27.9402 23.2001 27.3641 23.8836 27.3641H23.8958C24.5156 27.3704 25.2032 27.8822 25.2481 28.9916L25.8235 43.2096C25.868 44.3108 25.4539 45.3741 24.6573 46.2036ZM27.4451 28.9063L27.4004 30.0109L27.3557 28.9063C27.2712 26.8173 25.8811 25.5697 24.4522 25.307L27.4004 16.167L30.3485 25.307C28.9198 25.5697 27.5297 26.8174 27.4451 28.9063ZM52.291 51.8906H38.4833L34.1306 47.8818C33.9359 47.7025 33.6808 47.6028 33.4161 47.6028C32.1905 47.6028 30.9977 47.0928 30.1437 46.2035C29.3471 45.3739 28.933 44.3107 28.9775 43.2094L29.5529 28.9914C29.5978 27.882 30.2854 27.3701 30.9052 27.3639H30.9174C31.6008 27.3639 32.0433 27.94 32.1018 28.9079L32.5726 36.6993C32.6077 37.2807 33.1068 37.7251 33.689 37.6884C34.2704 37.6532 34.7133 37.1535 34.6782 36.572L34.2073 28.7807C34.1216 27.3616 33.5198 26.3967 32.737 25.8398L29.078 14.4957C28.7669 13.3231 28.4654 11.3059 29.858 10.7659C29.9945 10.7196 30.1251 10.8198 30.247 11.0628L37.0192 25.1494C37.924 27.6087 37.9072 28.6171 37.8709 30.8107C37.863 31.2893 37.854 31.8318 37.854 32.4471V41.972C37.854 42.3759 38.0848 42.7443 38.4481 42.9207L52.291 49.6405V51.8906Z" fill="#679AB4"/>
<path d="M27.4008 2.10938C27.9833 2.10938 28.4555 1.63709 28.4555 1.05469C28.4555 0.472289 27.9833 0 27.4008 0H27.4001C26.8176 0 26.3457 0.472289 26.3457 1.05469C26.3457 1.63709 26.8183 2.10938 27.4008 2.10938Z" fill="#679AB4"/>
<path d="M38.4496 5.06176C38.6221 5.16786 38.8129 5.21827 39.0014 5.21827C39.3555 5.21827 39.7014 5.04003 39.9007 4.71624C40.206 4.22011 40.0513 3.57053 39.5552 3.2652L39.5546 3.26478C39.0586 2.95945 38.4092 3.11438 38.1039 3.6104C37.7986 4.10674 37.9536 4.75653 38.4496 5.06176Z" fill="#679AB4"/>
<path d="M47.4961 13.7115C47.6545 13.7115 47.8156 13.6757 47.9669 13.6C48.4879 13.3395 48.6991 12.7059 48.4386 12.1849L48.4382 12.1841C48.1777 11.6632 47.5442 11.4522 47.0234 11.7129C46.5024 11.9734 46.2914 12.6072 46.5518 13.1282C46.7367 13.4979 47.1091 13.7115 47.4961 13.7115Z" fill="#679AB4"/>
<path d="M50.6036 25.313C51.1861 25.313 51.6583 24.8407 51.6583 24.2583V24.2575C51.6583 23.6751 51.1861 23.2032 50.6036 23.2032C50.0211 23.2032 49.5489 23.6758 49.5489 24.2583C49.5489 24.8408 50.0212 25.313 50.6036 25.313Z" fill="#679AB4"/>
<path d="M47.9667 34.9162C47.4458 34.6554 46.8119 34.8671 46.5515 35.3883C46.291 35.9092 46.5022 36.5427 47.0232 36.8033C47.1746 36.879 47.3355 36.9148 47.494 36.9148C47.8808 36.9148 48.2534 36.7013 48.4381 36.3317L48.4385 36.331C48.6991 35.8097 48.4877 35.1766 47.9667 34.9162Z" fill="#679AB4"/>
<path d="M15.7999 5.21806C15.9886 5.21806 16.1796 5.16754 16.3519 5.06144C16.848 4.75611 17.0027 4.10652 16.6973 3.6104C16.392 3.11427 15.7423 2.95955 15.2463 3.26499L15.2456 3.26541C14.7495 3.57074 14.5952 4.22012 14.9006 4.71624C15.0999 5.03982 15.4457 5.21806 15.7999 5.21806Z" fill="#679AB4"/>
<path d="M6.83421 13.5996C6.98556 13.6753 7.14629 13.7111 7.30481 13.7111C7.69178 13.7111 8.06461 13.4974 8.24939 13.1276C8.5099 12.6067 8.29875 11.9731 7.77773 11.7126C7.25682 11.452 6.62316 11.6632 6.36266 12.1843L6.36234 12.185C6.10194 12.706 6.3133 13.3392 6.83421 13.5996Z" fill="#679AB4"/>
<path d="M4.19727 25.3126C4.77977 25.3126 5.25196 24.84 5.25196 24.2575C5.25196 23.6749 4.77977 23.2028 4.19727 23.2028C3.61476 23.2028 3.14258 23.6751 3.14258 24.2575V24.2583C3.14258 24.8407 3.61476 25.3126 4.19727 25.3126Z" fill="#679AB4"/>
<path d="M6.36275 36.3316C6.54753 36.701 6.91973 36.9145 7.30649 36.9145C7.46501 36.9145 7.62606 36.8786 7.77751 36.8027C8.29853 36.5422 8.50947 35.9085 8.24906 35.3874C7.98855 34.8664 7.35511 34.6553 6.83399 34.9157C6.31297 35.1762 6.10182 35.8097 6.36233 36.3307L6.36275 36.3316Z" fill="#679AB4"/>
<path d="M40.0787 11.5797C40.2847 11.7856 40.5546 11.8886 40.8245 11.8886C41.0943 11.8886 41.3642 11.7856 41.5702 11.5797C41.9821 11.1679 41.9821 10.5 41.5702 10.0881L41.5697 10.0875C41.1578 9.67579 40.4904 9.6759 40.0785 10.0879C39.6665 10.4998 39.6668 11.1679 40.0787 11.5797Z" fill="#679AB4"/>
</svg>
