<svg width="55" height="54" viewBox="0 0 55 54" fill="none" xmlns="http://www.w3.org/2000/svg">
<path d="M53.2752 33.1107H41.6326L44.2527 21.7517C44.6765 22.2402 45.2303 22.5766 45.8663 22.7245C46.0962 22.7774 46.328 22.8035 46.5579 22.8035C47.2463 22.8035 47.9172 22.5698 48.468 22.126C49.1019 21.6145 49.4988 20.8866 49.5855 20.0764C49.6722 19.2659 49.4384 18.4704 48.9268 17.8365L35.4502 1.13609C34.5714 0.0463904 33.069 -0.305137 31.7965 0.281691L12.4007 9.24348C11.6613 9.58541 11.0989 10.1948 10.8174 10.9594C10.5357 11.7244 10.5689 12.5531 10.911 13.2926C11.6029 14.7889 13.3623 15.4596 14.8703 14.8212L14.3492 17.0805C14.2604 17.4658 14.3936 17.8685 14.6948 18.1249L16.963 20.055L14.1218 20.7116C13.7274 20.8028 13.4196 21.1109 13.3286 21.5052L12.1145 26.768L1.39618 26.7346C1.39502 26.7346 1.39396 26.7346 1.39291 26.7346C1.11278 26.7346 0.843828 26.8457 0.645333 27.0436C0.446099 27.2421 0.333984 27.512 0.333984 27.7934V52.9412C0.333984 53.5259 0.808074 54 1.3928 54H53.2752C53.86 54 54.334 53.5259 54.334 52.9412V34.1695C54.334 33.5849 53.8599 33.1107 53.2752 33.1107ZM15.9024 12.0149L14.0725 12.8599C13.6049 13.0759 13.049 12.871 12.8331 12.404C12.7285 12.178 12.7185 11.9249 12.8046 11.6911C12.8908 11.457 13.063 11.2703 13.2892 11.1659L32.6839 2.20439C33.0732 2.02477 33.533 2.13214 33.8021 2.46584L47.2788 19.1664C47.435 19.3599 47.5063 19.603 47.4798 19.8509C47.4533 20.0989 47.332 20.3215 47.1387 20.4774C46.9135 20.6588 46.6226 20.7254 46.3432 20.6613C46.1999 20.628 45.9938 20.5448 45.8264 20.3371L33.325 4.84596C33.1188 4.59062 32.8133 4.45193 32.5007 4.45193C32.351 4.45193 32.1996 4.48378 32.0571 4.5497L15.9429 11.9953C15.929 12.0016 15.9157 12.0081 15.9024 12.0149ZM15.2433 22.6261L19.4905 21.6444C19.8803 21.5542 20.186 21.2522 20.2807 20.8633C20.3754 20.4746 20.2429 20.0657 19.9381 19.8064L16.5572 16.9296L17.3022 13.7001L32.1955 6.81854L42.5612 19.6632L40.6632 27.8915L39.3927 27.4339C38.8425 27.2357 38.2359 27.5211 38.0378 28.0712C37.8396 28.6214 38.125 29.2281 38.6752 29.4262L40.1841 29.9696L39.5152 32.8694L32.6501 31.2858L35.5278 18.8148C35.5908 18.5412 35.5429 18.2536 35.3938 18.0155C35.245 17.7774 35.0077 17.6082 34.7341 17.5451L25.2375 15.3544C24.6674 15.2231 24.0992 15.5782 23.9678 16.1481L21.0907 28.6194L14.2262 27.036L15.2433 22.6261ZM29.7851 35.7263L30.378 39.8849L27.5686 41.9191C27.3023 42.1118 27.1408 42.4171 27.1312 42.7456L27.0356 46.0006L24.3176 42.493L26.4199 39.6137C26.6454 39.3048 26.6868 38.8981 26.528 38.5501L24.0682 33.1575C24.0674 33.1557 24.0665 33.1538 24.0657 33.152L23.2128 31.2821L34.7012 33.9321L30.6779 34.5295C30.1018 34.615 29.7028 35.1497 29.7851 35.7263ZM23.154 29.0951L25.793 17.6557L33.226 19.3703L30.5864 30.8096L23.154 29.0951ZM52.2165 51.8824H2.45162V28.8556L12.8341 28.8879L20.6115 30.6819L21.6698 33.0019L19.036 33.9446C18.4854 34.1416 18.1989 34.7477 18.3959 35.2983C18.5507 35.7309 18.9583 36.0006 19.3929 36.0006C19.5112 36.0006 19.6318 35.9806 19.7497 35.9384L22.5517 34.9355L24.3443 38.8653L22.1377 41.8876C21.8595 42.2686 21.8669 42.7876 22.1559 43.1604L27.1705 49.6319C27.3749 49.8956 27.6861 50.0423 28.0076 50.0423C28.117 50.0423 28.2275 50.0252 28.3354 49.9901C28.7605 49.8516 29.0526 49.4613 29.0658 49.0144L29.2327 43.3286L31.6507 41.5778L34.0783 42.6198C34.2145 42.6782 34.3561 42.7059 34.4954 42.7059C34.9059 42.7059 35.2966 42.4655 35.4689 42.0643C35.6996 41.5271 35.451 40.9044 34.9136 40.6737L32.4806 39.6292L32.0302 36.4691L40.387 35.228H52.2162V51.8824H52.2165Z" fill="#679AB4"/>
<path d="M13.4313 47.3647H4.36053C3.77569 47.3647 3.30171 47.8388 3.30171 48.4235C3.30171 49.0083 3.7758 49.4823 4.36053 49.4823H13.4313C14.0161 49.4823 14.4901 49.0083 14.4901 48.4235C14.4901 47.8389 14.016 47.3647 13.4313 47.3647Z" fill="#679AB4"/>
<path d="M16.7782 47.3649C15.4156 47.3649 15.4134 49.4825 16.7782 49.4825C18.1409 49.4825 18.1431 47.3649 16.7782 47.3649Z" fill="#679AB4"/>
</svg>
