<svg width="54" height="54" viewBox="0 0 54 54" fill="none" xmlns="http://www.w3.org/2000/svg">
<path d="M46.4338 51.0076C45.2555 52.186 43.3381 52.186 42.1598 51.0076C40.1592 49.0065 36.9033 49.0065 34.9027 51.0076C33.7244 52.186 31.807 52.186 30.6287 51.0076C28.6277 49.0065 25.3722 49.0065 23.3716 51.0076C22.1933 52.186 20.2755 52.186 19.0972 51.0076C17.0966 49.0065 13.8411 49.0065 11.8401 51.0076C10.6618 52.186 8.74483 52.186 7.56613 51.0076C5.56553 49.0065 2.31001 49.0065 0.30899 51.0076C-0.102997 51.4192 -0.102997 52.0871 0.30899 52.4991C0.720976 52.9111 1.38881 52.9111 1.80079 52.4991C2.37139 51.9284 3.13027 51.6137 3.93777 51.6137C4.74485 51.6137 5.50373 51.928 6.07474 52.4991C8.07576 54.5002 11.3309 54.5002 13.3319 52.4991C13.9025 51.9284 14.6614 51.6137 15.4689 51.6137C16.2759 51.6137 17.0348 51.928 17.6058 52.4991C18.6065 53.4998 19.92 54 21.2342 54C22.5484 53.9996 23.8627 53.4994 24.863 52.4991C26.0413 51.3207 27.9586 51.3207 29.1369 52.4991C31.1379 54.5002 34.3935 54.5002 36.3941 52.4991C36.9651 51.9284 37.724 51.6137 38.531 51.6137C39.3385 51.6137 40.0974 51.928 40.668 52.4991C42.669 54.5002 45.9245 54.5002 47.9252 52.4991C48.4962 51.9284 49.255 51.6137 50.0621 51.6137C50.8696 51.6137 51.6285 51.928 52.1995 52.4991C52.6111 52.9111 53.2789 52.9111 53.6909 52.4991C54.1029 52.0875 54.1029 51.4196 53.6909 51.0076C51.6903 49.0065 48.4348 49.0065 46.4338 51.0076Z" fill="#679AB4"/>
<path d="M46.4338 43.1326C45.8632 43.7036 45.1039 44.018 44.2968 44.018C43.4897 44.018 42.7304 43.7036 42.1598 43.1326C40.1588 41.1319 36.9033 41.1319 34.9027 43.1326C34.3317 43.7036 33.5728 44.018 32.7657 44.018C31.9582 44.018 31.1993 43.7036 30.6287 43.1326C28.6277 41.1319 25.3722 41.1319 23.3712 43.1326C22.8006 43.7036 22.0417 44.018 21.2342 44.018C20.4271 44.018 19.6682 43.7036 19.0972 43.1326C17.0966 41.1319 13.8411 41.1319 11.8401 43.1326C11.2695 43.7036 10.5106 44.018 9.70311 44.018C8.89602 44.018 8.13715 43.7036 7.56613 43.1326C5.56511 41.1319 2.3096 41.1319 0.30899 43.1326C-0.102997 43.5446 -0.102997 44.2125 0.30899 44.6245C0.720564 45.036 1.38839 45.036 1.80038 44.6245C2.37139 44.0534 3.13027 43.7391 3.93735 43.7391C4.74485 43.7391 5.50373 44.0534 6.07433 44.6245C7.04373 45.5935 8.33243 46.1274 9.70311 46.1274C11.0738 46.1274 12.3625 45.5935 13.3319 44.6245C13.9025 44.0534 14.6614 43.7391 15.4689 43.7391C16.2759 43.7391 17.0348 44.0534 17.6058 44.6245C18.5748 45.5935 19.8635 46.1274 21.2342 46.1274C22.6049 46.1274 23.8936 45.5935 24.863 44.6245C26.0413 43.4461 27.9586 43.4461 29.1369 44.6245C30.1063 45.5935 31.395 46.1274 32.7657 46.1274C34.1364 46.1274 35.4251 45.5935 36.3941 44.6245C36.9651 44.0534 37.724 43.7391 38.531 43.7391C39.3385 43.7391 40.0974 44.0534 40.668 44.6245C41.6374 45.5935 42.9261 46.1274 44.2968 46.1274C45.6675 46.1274 46.9562 45.5935 47.9256 44.6245C48.4962 44.0534 49.255 43.7391 50.0625 43.7391C50.8696 43.7391 51.6285 44.0534 52.1995 44.6245C52.6111 45.036 53.2789 45.036 53.6909 44.6245C54.1029 44.2125 54.1029 43.5446 53.6909 43.1326C51.6903 41.1319 48.4348 41.1319 46.4338 43.1326Z" fill="#679AB4"/>
<path d="M48.3046 34.0669V26.2467L48.5267 26.3974C48.7026 26.5165 48.909 26.5787 49.1183 26.5787C49.1846 26.5787 49.2513 26.5725 49.3173 26.5598C49.5921 26.507 49.8347 26.3476 49.9917 26.116L53.8182 20.4687C54.1449 19.9863 54.0193 19.3308 53.5368 19.0036L44.7141 13.0242C44.2317 12.6975 43.5758 12.8236 43.2491 13.3056C42.9224 13.7881 43.0485 14.444 43.5305 14.7707L51.4806 20.1585L48.8373 24.0593L47.8423 23.3853C47.8407 23.3841 47.8391 23.3828 47.8374 23.3816L27.5916 9.66147C27.2344 9.41963 26.7655 9.41963 26.4083 9.66147L6.16291 23.382C6.16126 23.3828 6.15961 23.3841 6.15796 23.3853L5.16301 24.0597L2.51971 20.1585L26.9999 3.56836L35.6723 9.44517C36.1543 9.7723 36.8102 9.64623 37.1369 9.16377C37.4636 8.68173 37.3375 8.02582 36.8555 7.6991L27.5916 1.421C27.2344 1.17874 26.7655 1.17874 26.4083 1.421L15.6093 8.73941V6.32837H16.4531C17.0356 6.32837 17.5078 5.85621 17.5078 5.27364V1.05473C17.5078 0.472567 17.0356 0 16.4531 0H5.90624C5.3241 0 4.85155 0.472567 4.85155 1.05473V5.27364C4.85155 5.85621 5.3241 6.32837 5.90624 6.32837H6.74999V14.7435L0.463073 19.0041C-0.0189515 19.3308 -0.145019 19.9867 0.181686 20.4687L4.00863 26.116C4.1656 26.3476 4.40784 26.5075 4.68264 26.5602C4.95743 26.6129 5.2417 26.5544 5.47365 26.3974L5.69571 26.2471V34.0673C3.87927 33.4081 1.7633 33.8044 0.309402 35.2584C-0.102585 35.67 -0.102585 36.3378 0.309402 36.7498C0.720976 37.1618 1.38881 37.1618 1.80079 36.7498C2.37181 36.1792 3.13069 35.8644 3.93777 35.8644C4.74526 35.8644 5.50414 36.1788 6.07474 36.7498C8.07576 38.7509 11.3313 38.7509 13.3319 36.7498C13.9029 36.1792 14.6618 35.8644 15.4689 35.8644C16.2764 35.8644 17.0352 36.1788 17.6058 36.7498C18.6065 37.7506 19.9204 38.2508 21.2346 38.2508C22.5484 38.2504 23.8631 37.7502 24.863 36.7498C26.0417 35.5715 27.9591 35.5715 29.1373 36.7498C31.1379 38.7509 34.3935 38.7509 36.3945 36.7498C36.9651 36.1792 37.724 35.8644 38.5314 35.8644C39.3385 35.8644 40.0974 36.1788 40.6684 36.7498C42.669 38.7509 45.9245 38.7509 47.9256 36.7498C48.4962 36.1792 49.2555 35.8644 50.0625 35.8644C50.8696 35.8644 51.6289 36.1788 52.1995 36.7498C52.6115 37.1618 53.2793 37.1618 53.6913 36.7498C54.1029 36.3383 54.1029 35.6704 53.6913 35.2584C52.237 33.804 50.1206 33.4077 48.3046 34.0669ZM6.96092 2.10946H15.3984V4.21891H6.96092V2.10946ZM8.85936 6.32837H13.5V10.1691L8.85936 13.3139V6.32837ZM23.3716 35.258C22.225 36.4046 20.3797 36.4355 19.1953 35.3511V26.1572H25.9453V33.8671C25.0014 34.064 24.1024 34.5267 23.3716 35.258ZM30.6287 35.258C29.8975 34.5267 28.9985 34.064 28.0546 33.8671V26.1572H34.8046V35.3511C33.6206 36.4355 31.7749 36.4046 30.6287 35.258ZM42.1598 35.258C40.743 33.8411 38.6979 33.4291 36.914 34.0187V25.1025C36.914 24.5199 36.4419 24.0478 35.8593 24.0478H18.1406C17.558 24.0478 17.0859 24.5199 17.0859 25.1025V34.0183C15.302 33.4291 13.2569 33.8411 11.8405 35.258C10.731 36.3675 8.96647 36.4322 7.78036 35.452C7.79602 35.3799 7.80467 35.305 7.80467 35.2279V24.8174L26.9999 11.8088L46.1952 24.8174V35.2279C46.1952 35.305 46.2039 35.3799 46.2195 35.452C45.0334 36.4322 43.2693 36.3675 42.1598 35.258Z" fill="#679AB4"/>
<path d="M40.193 12.2896C40.4703 12.2896 40.7426 12.1772 40.9387 11.9806C41.1348 11.7845 41.2477 11.5122 41.2477 11.2349C41.2477 10.9576 41.1348 10.6853 40.9387 10.4896C40.7426 10.2931 40.4703 10.1802 40.193 10.1802C39.9157 10.1802 39.6434 10.2931 39.4473 10.4896C39.2512 10.6853 39.1383 10.9576 39.1383 11.2349C39.1383 11.5122 39.2512 11.7845 39.4473 11.9806C39.6434 12.1772 39.9157 12.2896 40.193 12.2896Z" fill="#679AB4"/>
</svg>
