<svg width="42" height="42" viewBox="0 0 42 42" fill="none" xmlns="http://www.w3.org/2000/svg">
<path d="M33.9918 27.4561L28.9324 25.803V19.5994C30.6102 19.2895 31.8856 17.8168 31.8856 16.0506V11.1562C31.8856 5.00455 26.8807 0 20.7293 0C14.5776 0 9.57307 5.00455 9.57307 11.1562V16.0509C9.57307 17.7588 10.7657 19.1924 12.3621 19.5651V25.8498L7.44571 27.4561C4.78674 28.3251 3 30.7886 3 33.586V41.1797C3 41.6328 3.36722 42 3.82031 42H37.6172C38.0703 42 38.4375 41.6328 38.4375 41.1797V33.586C38.4375 30.7886 36.6508 28.3251 33.9918 27.4561ZM23.9789 33.3274C24.0038 33.5735 24.1384 33.795 24.3451 33.9305L25.8435 34.9133L21.5391 39.2036V38.4214L24.9543 26.2292L29.2615 27.6365L24.216 32.6635C24.041 32.8378 23.9539 33.0817 23.9789 33.3274ZM17.2215 32.6635L12.176 27.6365L16.4832 26.2292L19.8984 38.4214V39.2036L15.594 34.9133L17.0924 33.9305C17.2991 33.795 17.4337 33.5735 17.4586 33.3274C17.4836 33.0817 17.3965 32.8378 17.2215 32.6635ZM20.7188 35.2673L18.4228 27.071C19.1563 27.3725 19.9375 27.524 20.7188 27.524C21.5 27.524 22.2812 27.3725 23.0147 27.071L20.7188 35.2673ZM27.2918 12.3201C26.253 12.1913 25.2561 11.8189 24.3861 11.2354C24.5358 11.1008 24.6828 10.9624 24.8261 10.8192C25.1465 10.4987 25.1465 9.97929 24.8261 9.65886C24.506 9.33875 23.9865 9.33875 23.6661 9.65886C21.9165 11.4084 19.5905 12.3717 17.1167 12.3717H14.1668V11.4844C14.1668 7.86571 17.1107 4.92188 20.7293 4.92188C24.3477 4.92188 27.2918 7.86571 27.2918 11.4844V12.3201ZM15.6434 14.0126H17.1167C19.2448 14.0126 21.2798 13.4063 23.0249 12.2765C23.8606 12.9212 24.8094 13.3974 25.8149 13.6864V17.017C25.8149 17.3602 25.7803 17.6954 25.7146 18.0196H20.7188C20.2657 18.0196 19.8984 18.3869 19.8984 18.84C19.8984 19.293 20.2657 19.6603 20.7188 19.6603H25.0658C24.1759 21.1025 22.5814 22.0664 20.7659 22.0664H20.6925C17.9082 22.0664 15.6434 19.8013 15.6434 17.017V14.0126ZM20.6925 23.707H20.7659C21.7688 23.707 22.7202 23.4837 23.5751 23.0863V24.8247C21.9383 26.2356 19.4992 26.2356 17.8624 24.8247V23.0771C18.7228 23.4802 19.6815 23.707 20.6925 23.707ZM25.2157 24.5885V22.0068C25.9386 21.3615 26.5209 20.562 26.9105 19.6599H27.2918V25.2669L25.2157 24.5885ZM28.2762 18.0196H27.4559V14.0821H28.2762C29.3615 14.0821 30.2449 14.9653 30.2449 16.0509C30.2449 17.1362 29.3615 18.0196 28.2762 18.0196ZM20.7293 1.64062C25.9761 1.64062 30.2449 5.90945 30.2449 11.1562V13.0279C29.8531 12.7719 29.4089 12.5902 28.9324 12.5024V11.4844C28.9324 6.96112 25.2523 3.28125 20.7293 3.28125C16.2061 3.28125 12.5262 6.96112 12.5262 11.4844V12.5024C12.0494 12.5902 11.6053 12.7719 11.2137 13.0279V11.1562C11.2137 5.90945 15.4822 1.64062 20.7293 1.64062ZM11.2137 16.0509C11.2137 14.9653 12.0968 14.0821 13.1824 14.0821H14.0028V18.0196H13.1824C12.0968 18.0196 11.2137 17.1362 11.2137 16.0509ZM14.0028 19.6603H14.5478C14.9336 20.5536 15.5085 21.3467 16.2218 21.9889V24.5885L14.0028 25.314V19.6603ZM4.64062 33.586C4.64062 31.5003 5.97267 29.6636 7.95552 29.0157L10.4258 28.2088L15.3479 33.1127L13.8499 34.0955C13.6432 34.2307 13.5087 34.4522 13.4837 34.6979C13.4587 34.9437 13.5458 35.1879 13.7208 35.3622L18.734 40.3594H9.89062V36.75C9.89062 36.2969 9.52341 35.9297 9.07031 35.9297C8.61722 35.9297 8.25 36.2969 8.25 36.75V40.3594H4.64062V33.586ZM36.7969 40.3594H33.2814V36.75C33.2814 36.2969 32.9142 35.9297 32.4611 35.9297C32.008 35.9297 31.6408 36.2969 31.6408 36.75V40.3594H22.7035L27.7167 35.3622C27.8917 35.1879 27.9788 34.9437 27.9538 34.6979C27.9288 34.4522 27.7943 34.2307 27.5876 34.0952L26.0896 33.1127L31.0117 28.2085L33.482 29.0157C35.4648 29.6636 36.7969 31.5003 36.7969 33.586V40.3594Z" fill="#679AB4"/>
<path d="M9.07031 34.1792C9.28596 34.1792 9.49777 34.0914 9.6503 33.9388C9.80283 33.7863 9.89062 33.5745 9.89062 33.3588C9.89062 33.1422 9.80283 32.9314 9.6503 32.7789C9.49777 32.6263 9.28596 32.5385 9.07031 32.5385C8.85466 32.5385 8.64285 32.6263 8.49033 32.7789C8.3378 32.9314 8.25 33.1432 8.25 33.3588C8.25 33.5745 8.3378 33.7863 8.49033 33.9388C8.64285 34.0914 8.85466 34.1792 9.07031 34.1792Z" fill="#679AB4"/>
<path d="M32.4614 32.5385C32.2451 32.5385 32.0343 32.6263 31.8814 32.7789C31.7282 32.9314 31.6411 33.1422 31.6411 33.3588C31.6411 33.5745 31.7282 33.7863 31.8814 33.9388C32.0343 34.0914 32.2457 34.1792 32.4614 34.1792C32.6774 34.1792 32.8889 34.0914 33.0414 33.9388C33.1939 33.7863 33.2817 33.5745 33.2817 33.3588C33.2817 33.1432 33.1939 32.9314 33.0414 32.7789C32.8889 32.6263 32.6774 32.5385 32.4614 32.5385Z" fill="#679AB4"/>
</svg>
