<svg width="44" height="42" viewBox="0 0 44 42" fill="none" xmlns="http://www.w3.org/2000/svg">
<path d="M42.1822 40.3597H1.81902C1.36588 40.3597 0.998632 40.7273 0.998632 41.1801C0.998632 41.6332 1.36588 42.0005 1.81902 42.0005H42.1822C42.6353 42.0005 43.0025 41.6332 43.0025 41.1801C43.0025 40.7273 42.6353 40.3597 42.1822 40.3597Z" fill="#679AB4"/>
<path d="M7.19032 20.3583C7.63801 20.806 8.22606 21.03 8.81443 21.03C9.40249 21.03 9.99054 20.806 10.4385 20.3583L12.0248 18.772L15.5157 22.2628C15.8358 22.5833 16.3553 22.5833 16.6757 22.2628C16.9962 21.9427 16.9962 21.4232 16.6757 21.1027L8.09307 12.52C7.50438 11.9313 7.50438 10.9732 8.09307 10.3845L12.3584 6.11908C13.5929 4.88465 15.6012 4.88465 16.8357 6.11908L36.8804 26.1641C37.4784 26.7618 37.8078 27.5569 37.8078 28.4026C37.8078 29.2483 37.4784 30.0434 36.8804 30.6413L32.6153 34.9064C32.0263 35.4954 31.0684 35.4954 30.4794 34.9064L29.3094 33.7364C29.3091 33.7361 29.3091 33.7357 29.3088 33.7357L21.8968 26.3234C21.5763 26.0033 21.0571 26.0029 20.7364 26.3234C20.4159 26.6439 20.4159 27.1633 20.7364 27.4838L24.2275 30.9749L22.6415 32.5609C21.7458 33.4566 21.7458 34.9138 22.6415 35.8095L23.8942 37.0622C24.3422 37.5099 24.9303 37.7339 25.5183 37.7339C26.1067 37.7339 26.6947 37.5099 27.1424 37.0622L28.7287 35.4762L29.3193 36.0668C29.9337 36.6811 30.7406 36.9881 31.5475 36.9881C32.3545 36.9881 33.1614 36.6811 33.7757 36.0668L38.0408 31.8014C39.622 30.2206 39.869 27.803 38.7827 25.9603L42.3802 19.5747C43.4406 17.692 43.1144 15.31 41.5864 13.7817L29.2174 1.41306C27.6914 -0.112988 25.3119 -0.440503 23.4302 0.616389L17.0292 4.21136C15.1878 3.13171 12.7763 3.38071 11.198 4.959L6.93299 9.22406C5.70433 10.4527 5.70433 12.4518 6.93299 13.6801L7.5236 14.2711L5.93763 15.857C5.50372 16.2909 5.26497 16.8678 5.26497 17.4811C5.26497 18.0948 5.50372 18.6717 5.93763 19.1053L7.19032 20.3583ZM25.9824 35.9021C25.7266 36.1578 25.3103 36.1578 25.0543 35.9021L23.8016 34.6491C23.5459 34.3933 23.5459 33.9771 23.8016 33.7213L25.3879 32.135L27.5683 34.3158L25.9824 35.9021ZM39.5492 14.0653H27.1251C27.1178 14.0653 27.1107 14.066 27.1033 14.0663L22.1653 9.12824H34.6121L39.5492 14.0653ZM40.9503 18.7694L37.6553 24.6182L28.7432 15.7061H40.9887C41.4858 16.6489 41.4922 17.8077 40.9503 18.7694ZM24.2336 2.04694C25.4763 1.34897 27.0489 1.56496 28.0574 2.57314L32.9714 7.48747H20.5245L18.3745 5.33747L24.2336 2.04694ZM7.09771 17.0174L8.68369 15.4311L10.8644 17.6119L9.27815 19.1979C9.02242 19.4539 8.60613 19.4539 8.3504 19.1979L7.09771 17.9452C6.97369 17.8212 6.90543 17.6564 6.90543 17.4811C6.90543 17.3062 6.97369 17.1411 7.09771 17.0174Z" fill="#679AB4"/>
<path d="M27.1815 24.8569C27.3914 24.8569 27.6013 24.7768 27.7616 24.6166C28.082 24.2961 28.082 23.7767 27.7616 23.4562L19.5433 15.2382C19.2228 14.9177 18.7033 14.9177 18.3829 15.2382C18.0624 15.5584 18.0624 16.0778 18.3829 16.3983L26.6015 24.6166C26.7617 24.7768 26.9713 24.8569 27.1815 24.8569Z" fill="#679AB4"/>
<path d="M31.4241 30.9147C32.0994 30.9147 32.7746 30.6577 33.2886 30.1436C34.3163 29.1159 34.3163 27.4431 33.2886 26.415C32.2606 25.3873 30.588 25.3873 29.56 26.4154C28.5323 27.4431 28.5323 29.1159 29.56 30.1436C30.074 30.6577 30.7489 30.9147 31.4241 30.9147ZM30.7204 27.5754C30.9143 27.3812 31.1694 27.2841 31.4241 27.2841C31.6792 27.2841 31.9343 27.3812 32.1282 27.5751C32.5163 27.9635 32.5163 28.5952 32.1282 28.9832C31.7401 29.3716 31.1082 29.3716 30.7204 28.9832C30.332 28.5952 30.332 27.9635 30.7204 27.5754Z" fill="#679AB4"/>
<path d="M12.8561 9.71116C12.3581 10.2092 12.0838 10.8712 12.0838 11.5756C12.0838 12.2797 12.3581 12.9418 12.8561 13.4398C13.3702 13.9538 14.045 14.2108 14.7203 14.2108C15.3955 14.2108 16.0707 13.9535 16.5844 13.4398C17.6125 12.4117 17.6125 10.7392 16.5844 9.71116C15.5567 8.68311 13.8839 8.68311 12.8561 9.71116ZM15.4243 12.2794C15.0362 12.6674 14.4046 12.6678 14.0162 12.2794C13.8281 12.0913 13.7246 11.8413 13.7246 11.5753C13.7246 11.3093 13.8281 11.0594 14.0162 10.8712C14.2104 10.6774 14.4655 10.5803 14.7203 10.5803C14.975 10.5803 15.2301 10.6774 15.4243 10.8712C15.8124 11.2596 15.8124 11.8913 15.4243 12.2794Z" fill="#679AB4"/>
<path d="M1.69532 34.2975L4.758 34.7654L4.53239 37.8553C4.50804 38.1915 4.69134 38.5081 4.99482 38.6542C5.29798 38.8003 5.66011 38.7462 5.90751 38.5174L8.1828 36.4148L10.4581 38.5174C10.6129 38.6606 10.8129 38.7353 11.0151 38.7353C11.1359 38.7353 11.2573 38.7087 11.3708 38.6542C11.6743 38.5081 11.8576 38.1911 11.8332 37.8553L11.6079 34.7654L14.6703 34.2975C15.0032 34.2469 15.2715 33.9975 15.3461 33.6691C15.4211 33.3409 15.2878 32.9999 15.01 32.8096L12.4536 31.0592L13.9973 28.3731C14.1652 28.0811 14.1374 27.7161 13.9274 27.4527C13.7172 27.1896 13.3679 27.0813 13.0458 27.18L10.0835 28.0872L8.94583 25.2056C8.82213 24.8922 8.51961 24.6865 8.1828 24.6865C7.84599 24.6865 7.54348 24.8922 7.41946 25.2056L6.28213 28.0872L3.31976 27.18C2.99769 27.0813 2.64806 27.1896 2.43816 27.4527C2.22825 27.7161 2.20037 28.0811 2.3683 28.3731L3.91165 31.0592L1.35563 32.8096C1.07779 32.9999 0.944153 33.3409 1.01914 33.6691C1.09413 33.9975 1.36236 34.2469 1.69532 34.2975ZM5.71234 30.899L4.82626 29.3572L6.52664 29.878C6.93555 30.0033 7.37267 29.7931 7.53002 29.395L8.1828 27.7408L8.83591 29.395C8.99294 29.7931 9.43005 30.0033 9.83896 29.878L11.5393 29.3572L10.6533 30.899C10.4402 31.2701 10.5482 31.7428 10.9013 31.9847L12.3684 32.9894L10.6106 33.2579C10.1876 33.3227 9.88511 33.7018 9.91619 34.1286L10.0457 35.9021L8.73945 34.6952C8.58242 34.55 8.38245 34.4773 8.1828 34.4773C7.98315 34.4773 7.78318 34.55 7.62616 34.6952L6.31994 35.9021L6.44941 34.1286C6.4805 33.7018 6.1783 33.3227 5.75496 33.2579L3.99722 32.9894L5.4643 31.9847C5.81778 31.7431 5.92545 31.2701 5.71234 30.899Z" fill="#679AB4"/>
<path d="M18.1258 23.7132C17.9733 23.8657 17.8855 24.0766 17.8855 24.2932C17.8855 24.5089 17.9733 24.7207 18.1258 24.8733C18.2784 25.0258 18.4902 25.1136 18.7059 25.1136C18.9216 25.1136 19.1334 25.0258 19.2859 24.8733C19.4385 24.7198 19.5263 24.5089 19.5263 24.2932C19.5263 24.0776 19.4385 23.8657 19.2859 23.7132C19.1334 23.5607 18.9216 23.4729 18.7059 23.4729C18.4902 23.4729 18.2784 23.5607 18.1258 23.7132Z" fill="#679AB4"/>
</svg>
