<svg width="55" height="54" viewBox="0 0 55 54" fill="none" xmlns="http://www.w3.org/2000/svg">
<path d="M54.3079 39.6227L50.6723 23.2212C50.6118 22.948 50.4453 22.71 50.2092 22.5597C49.9734 22.4093 49.6876 22.3589 49.4143 22.4195L46.0724 23.1609C46.6647 22.0813 46.9889 20.8568 46.9889 19.5947C46.9889 15.5072 43.665 12.1818 39.5794 12.1818C38.6651 12.1818 37.7569 12.3521 36.909 12.6791C34.8701 10.0706 31.7571 8.53823 28.4137 8.53823C25.9867 8.53823 23.6599 9.34606 21.7676 10.8299C20.0117 9.49948 17.8714 8.77585 15.6477 8.77585C11.0784 8.77585 7.20534 11.8132 5.93856 15.9757H3.61414C3.03174 15.9757 2.55945 16.4481 2.55945 17.0309C2.55945 17.6136 3.03174 18.086 3.61414 18.086H5.53577C5.51289 18.3636 5.50065 18.6442 5.50065 18.9275C5.50065 20.2292 5.74091 21.4876 6.21605 22.6786C4.62516 24.5207 3.75705 26.8468 3.75705 29.3041C3.75705 30.8481 4.11184 32.3779 4.78431 33.7567C1.86051 39.4625 0.333008 46.0012 0.333008 52.9448C0.333008 53.5276 0.805296 54 1.38769 54H6.60058C7.18298 54 7.65527 53.5276 7.65527 52.9448C7.65527 46.8383 8.80193 43.1503 10.0411 40.0747C10.2032 39.6724 10.3814 39.28 10.5718 38.8957C11.6392 39.2677 12.7568 39.456 13.9043 39.456C15.5128 39.456 17.0917 39.0755 18.5128 38.3502C20.2285 39.5798 22.3001 40.2499 24.422 40.2499C25.8293 40.2499 27.1797 39.9613 28.4115 39.4358V40.607C28.4115 41.1898 28.8838 41.6622 29.4662 41.6622C30.0486 41.6622 30.5209 41.1898 30.5209 40.607V38.8207H47.7475L47.7476 51.8896H43.4117V44.374C43.4117 43.7912 42.9394 43.3189 42.357 43.3189H35.9117C35.3293 43.3189 34.857 43.7912 34.857 44.374V51.8896H30.5211V50.1033C30.5211 49.5205 30.0488 49.0481 29.4664 49.0481C28.884 49.0481 28.4117 49.5205 28.4117 50.1033V52.9447C28.4117 53.2246 28.5229 53.493 28.7206 53.6908C28.9185 53.8887 29.1867 53.9999 29.4664 53.9999H48.8024C49.0821 53.9999 49.3503 53.8887 49.5481 53.6908C49.7459 53.493 49.8571 53.2246 49.8571 52.9447L49.8569 38.9217L52.7118 40.741C52.8848 40.8514 53.0817 40.9062 53.2784 40.9062C53.4903 40.9062 53.7021 40.8424 53.8833 40.7154C54.2326 40.4707 54.4003 40.0394 54.3079 39.6227ZM36.9663 45.4293H41.3022V51.8897H36.9663V45.4293ZM5.55623 51.8897H2.45472C2.64256 43.8948 4.96835 36.5183 9.20977 30.4973C13.4862 24.4267 19.3832 20.1452 26.2632 18.1157C26.6346 18.0062 27.0234 18.209 27.148 18.5795L27.1576 18.6079C27.27 18.9428 27.1256 19.3062 26.8143 19.4721L26.7519 19.5053C24.0841 20.9269 21.3256 22.3968 19.1253 24.623C18.7887 24.9635 18.7235 25.4881 18.9666 25.9006C19.2095 26.3132 19.6993 26.5105 20.1606 26.3807C21.1577 26.1004 22.1669 25.8886 23.1603 25.7512C23.4272 25.7144 23.6899 25.789 23.9006 25.9615C24.1168 26.1384 24.2454 26.3894 24.2628 26.6682C24.2944 27.1765 23.928 27.6311 23.4286 27.7029C22.8472 27.7865 22.2567 27.8874 21.6731 28.0027C18.6647 28.5971 15.8219 29.9528 13.4526 31.9235C11.0898 33.8885 9.23361 36.4343 8.08463 39.2857C6.40473 43.4554 5.65158 47.1752 5.55623 51.8897ZM19.2823 36.2799C18.9367 35.9918 18.4458 35.9548 18.0611 36.1881C16.811 36.9454 15.3737 37.3457 13.9043 37.3457C13.1337 37.3457 12.3813 37.2363 11.6553 37.0246C14.0549 33.443 17.7709 30.9247 22.0818 30.073C22.6294 29.9649 23.1834 29.8702 23.7287 29.7917C25.3083 29.5646 26.4676 28.1348 26.3679 26.5369C26.3145 25.6781 25.9019 24.873 25.2361 24.3281C24.7943 23.9665 24.2626 23.738 23.7065 23.6612C24.973 22.8443 26.3376 22.1172 27.7435 21.368L27.8059 21.3348C29.0309 20.6819 29.5992 19.2526 29.1565 17.9342L29.1469 17.9057C28.6602 16.4564 27.1317 15.6594 25.6667 16.0916C22.0236 17.1662 18.6064 18.8525 15.5099 21.1036C12.4314 23.3418 9.73153 26.0933 7.48557 29.2816C7.01086 29.9554 6.56008 30.6459 6.13104 31.3506C5.9567 30.6853 5.86631 29.9968 5.86631 29.3043C5.86631 27.1639 6.69783 25.1495 8.20761 23.6317C8.5237 23.3139 8.6047 22.831 8.40927 22.4275C7.87886 21.3318 7.60992 20.1544 7.60992 18.9276C7.60992 18.6435 7.62521 18.3628 7.65411 18.0861H13.833C14.4154 18.0861 14.8877 17.6137 14.8877 17.031C14.8877 16.4482 14.4154 15.9758 13.833 15.9758H8.17344C9.35247 12.9985 12.2572 10.8863 15.6478 10.8863C17.6581 10.8863 19.5823 11.6329 21.0659 12.9885C21.472 13.3593 22.0944 13.356 22.4966 12.981C24.1082 11.4769 26.2096 10.6486 28.4138 10.6486C31.3495 10.6486 34.0646 12.1177 35.6768 14.5785C35.9773 15.0373 36.5789 15.1889 37.0609 14.9279C37.829 14.512 38.6998 14.2922 39.5795 14.2922C42.502 14.2922 44.8797 16.671 44.8797 19.5948C44.8797 21.3062 44.0467 22.9218 42.6512 23.9166C42.6491 23.9181 42.6473 23.9199 42.6453 23.9214L33.0202 26.0568C32.6038 26.1491 32.2839 26.4834 32.2097 26.9038C32.1356 27.3241 32.322 27.7476 32.6819 27.9769L36.2899 30.2762C35.4046 30.903 34.3383 31.2517 33.2396 31.2547C32.7568 31.2561 32.3365 31.5854 32.2193 32.0541C31.3246 35.6372 28.1182 38.1397 24.422 38.1397C22.547 38.1396 20.7217 37.4792 19.2823 36.2799ZM32.1282 36.7105C32.9656 35.7332 33.6246 34.5884 34.0469 33.3188C35.5751 33.1469 37.0198 32.4992 38.1673 31.4725L46.3867 36.7105H32.1282ZM35.9626 27.5655L48.8413 24.7082L51.6973 37.5926L35.9626 27.5655Z" fill="#679AB4"/>
<path d="M42.3073 6.49808H51.0333C52.8241 6.49808 54.2809 5.04059 54.2809 3.24904C54.2809 1.45749 52.824 0 51.0333 0C50.4509 0 49.9787 0.472394 49.9787 1.05516C49.9787 1.63792 50.4509 2.11031 51.0333 2.11031C51.661 2.11031 52.1716 2.62112 52.1716 3.24904C52.1716 3.87696 51.661 4.38777 51.0333 4.38777H42.3073C41.7249 4.38777 41.2526 4.86016 41.2526 5.44292C41.2526 6.02569 41.7248 6.49808 42.3073 6.49808Z" fill="#679AB4"/>
<path d="M31.4856 6.49808H37.3679C37.9503 6.49808 38.4226 6.02569 38.4226 5.44292C38.4226 4.86016 37.9503 4.38777 37.3679 4.38777H31.4856C30.9032 4.38777 30.4309 4.86016 30.4309 5.44292C30.4309 6.02569 30.9032 6.49808 31.4856 6.49808Z" fill="#679AB4"/>
<path d="M19.0515 43.9304H13.1692C12.5868 43.9304 12.1145 44.4028 12.1145 44.9856C12.1145 45.5683 12.5868 46.0407 13.1692 46.0407H19.0515C19.6339 46.0407 20.1062 45.5683 20.1062 44.9856C20.1062 44.4028 19.6339 43.9304 19.0515 43.9304Z" fill="#679AB4"/>
<path d="M29.4665 46.4104C30.049 46.4104 30.5212 45.9379 30.5212 45.3552C30.5212 44.7724 30.049 44.3 29.4665 44.3C28.884 44.3 28.4118 44.7724 28.4118 45.3552C28.4118 45.9379 28.884 46.4104 29.4665 46.4104Z" fill="#679AB4"/>
</svg>
