<svg width="49" height="54" viewBox="0 0 49 54" fill="none" xmlns="http://www.w3.org/2000/svg">
<path d="M47.7257 9.34685C39.8348 7.30087 31.8976 4.11509 24.7723 0.133879C24.4527 -0.0445735 24.0632 -0.044679 23.7434 0.133879C16.4132 4.22921 8.905 7.24276 0.789957 9.34695C0.324842 9.46761 0 9.88737 0 10.3679V22.011C0 33.9853 5.83155 41.9064 10.7238 46.4427C15.9716 51.3088 22.0574 54 24.2579 54C26.4584 54 32.5442 51.3088 37.792 46.4427C42.6841 41.9064 48.5158 33.9854 48.5158 22.011V10.3678C48.5157 9.88727 48.1909 9.4675 47.7257 9.34685ZM36.3578 44.8956C33.4514 47.5906 30.627 49.292 28.7693 50.2447C26.4154 51.452 24.7816 51.8903 24.2578 51.8903C23.7341 51.8903 22.1003 51.4521 19.7463 50.2447C17.8888 49.292 15.0643 47.5906 12.1579 44.8956C7.57378 40.6449 2.10926 33.2241 2.10926 22.0107V11.1805C9.91011 9.09225 17.1702 6.16835 24.2579 2.26065C31.1659 6.06373 38.7943 9.13559 46.4062 11.1802V22.0107H46.4064C46.4062 33.2241 40.9418 40.6449 36.3578 44.8956Z" fill="#679AB4"/>
<path d="M44.064 12.1677C37.3841 10.2257 30.8872 7.58785 24.7541 4.32751C24.4443 4.16266 24.0727 4.16298 23.7631 4.32814C17.6206 7.60209 11.1238 10.2404 4.45298 12.1697C4.00189 12.3002 3.69128 12.7132 3.69128 13.1828V22.0107C3.69128 26.1321 4.47228 30.0433 6.01243 33.6357C7.54488 37.2101 9.83049 40.4721 12.8055 43.3317C14.9334 45.3767 17.3901 47.1788 19.9106 48.5432C20.3622 48.7877 22.685 50.02 24.0663 50.2751C24.1296 50.2867 24.1936 50.2926 24.2577 50.2926C24.3218 50.2926 24.3858 50.2867 24.4491 50.2751C25.8304 50.02 28.1532 48.7877 28.6048 48.5432C31.125 47.1788 33.5818 45.3767 35.7099 43.3317C38.6849 40.4723 40.9704 37.2102 42.503 33.6357C44.0431 30.0434 44.8241 26.1322 44.8241 22.0107V13.1805C44.8242 12.7115 44.5144 12.2988 44.064 12.1677ZM42.7149 22.0107C42.7149 29.7496 39.8664 36.4112 34.2483 41.8107C32.2551 43.7262 29.9565 45.4128 27.6007 46.6881C26.5284 47.2685 25.0809 47.9452 24.2577 48.1577C23.4345 47.9452 21.987 47.2685 20.9148 46.6881C18.5589 45.4127 16.2603 43.7261 14.2672 41.8107C8.64924 36.4113 5.80065 29.7495 5.80065 22.0107V13.9725C12.1661 12.0773 18.3695 9.55009 24.2596 6.45195C30.1402 9.53701 36.343 12.0633 42.7148 13.9691L42.7149 22.0107Z" fill="#679AB4"/>
<path d="M15.5068 37.7898L15.4857 37.7672C15.0954 37.3395 14.4324 37.3066 14.0014 37.6945C13.5685 38.0841 13.5334 38.751 13.923 39.1839L13.9441 39.2066C14.1519 39.4342 14.4369 39.55 14.7232 39.55C14.9745 39.55 15.2268 39.4606 15.4283 39.2793C15.8613 38.8897 15.8964 38.2227 15.5068 37.7898Z" fill="#679AB4"/>
<path d="M21.1953 42.577C19.9249 41.7753 18.7015 40.8512 17.5595 39.8302C17.1253 39.4419 16.4585 39.4793 16.0703 39.9136C15.6822 40.3479 15.7195 41.0145 16.1538 41.4028C17.3829 42.5015 18.7004 43.4967 20.0698 44.3609C20.2445 44.4712 20.4391 44.5238 20.6316 44.5238C20.9815 44.5238 21.3239 44.3498 21.5245 44.0319C21.8354 43.5392 21.6881 42.8879 21.1953 42.577Z" fill="#679AB4"/>
<path d="M29.8369 22.051V18.5789C29.8369 15.5026 27.3341 12.9998 24.2576 12.9998C21.1813 12.9998 18.6785 15.5026 18.6785 18.5789V22.051C17.4237 22.0963 16.4166 23.1305 16.4166 24.3962V32.4929C16.4165 33.7873 17.4696 34.8403 18.764 34.8403H29.7516C31.0461 34.8403 32.0992 33.7873 32.0992 32.4929V24.3962C32.0992 23.1304 31.0919 22.0961 29.8369 22.051ZM20.7878 18.5789C20.7878 16.6657 22.3444 15.1092 24.2577 15.1092C26.1709 15.1092 27.7274 16.6657 27.7274 18.5789V22.0488H20.7877L20.7878 18.5789ZM29.9897 32.493C29.9897 32.6221 29.8806 32.7311 29.7515 32.7311H18.7638C18.6347 32.7311 18.5256 32.6221 18.5256 32.493V24.3963H18.5257C18.5257 24.2672 18.6348 24.1583 18.7639 24.1583H29.7515C29.8806 24.1583 29.9897 24.2672 29.9897 24.3963V32.493Z" fill="#679AB4"/>
<path d="M24.2578 26.3291C23.4456 26.3291 22.7831 26.9916 22.7831 27.8038C22.7831 28.2031 22.9438 28.5658 23.2031 28.8317V29.8639C23.2031 30.4463 23.6753 30.9186 24.2578 30.9186C24.8403 30.9186 25.3125 30.4463 25.3125 29.8639V28.8317C25.5718 28.5657 25.7325 28.2031 25.7325 27.8038C25.7325 26.9916 25.07 26.3291 24.2578 26.3291Z" fill="#679AB4"/>
</svg>
